Target,Output
 0.375, 0.486964
 0.125, 0.16588027
 0.125,-0.52231273
 0.625,-0.12450026
 0.625, 0.43544528
 0.375, 0.47985823
 0.125, 0.03604526
 0.375, 0.24392167
 0.375, 0.51151319
 0.125, 0.55961905
 0.375, 0.59307419
 0.625, 0.14695721
 0.375, 0.82233314
 0.125,-0.01217087
 0.125, 0.64558075
 0.375, 0.3865339
 0.375, 0.30580024
 0.375, 0.58545051
 0.625, 0.95276175
 0.625, 0.23807915
 0.875, 0.45672482
 0.375, 0.50356274
 0.125, 0.26788833
 0.125, 0.604347
 0.625, 0.6787424
 0.625, 0.41900516
 0.125, 0.46410369
 0.125, 0.6780106
 0.125, 0.5821539
 0.625, 0.12049886
 0.375, 0.9053693
 0.375, 0.56742457
 0.375, 0.28418629
 0.375,-0.1692234
 0.375, 0.38518787
 0.125, 0.12019118
 0.125, 0.47016125
 0.375,-0.10564213
 0.375,-0.210222
 0.125,-0.67139825
 0.625, 0.60005443
 0.125, 0.21412158
 0.375, 0.07757457
 0.125, 0.3574742
 0.125, 0.78772581
 0.125, 0.31381228
 0.375, 0.30954179
 0.125, 0.59174815
 0.375,-0.53091383
 0.375, 0.50655946
 0.375, 0.20251668
 0.375, 0.4281618
 0.125,-0.27912581
 0.375, 0.16401436
 0.375, 0.0722825
 0.125, 0.56800028
 0.125, 0.46033926
 0.375,-0.38464431
 0.375, 0.730288
 0.125, 0.07822568
 0.125,-0.06626917
 0.125, 0.04934542
 0.125, 0.63317983
 0.125, 0.29786111
 0.125, 0.21904082
 0.125,-0.21192416
 0.125, 0.09019016
 0.375, 0.25894794
 0.375,-0.04480275
 0.375, 0.51784745
 0.125, 0.0328354
 0.375, 0.02993704
 0.375, 0.30295578
 0.375, 0.24718056
 0.375, 0.17483562
 0.375, 0.25296261
 0.125, 0.33383179
 0.125, 0.46133544
 0.125, 0.1224518
 0.125,-0.04083879
