Target,Output
 0.05, 0.5108642
 0.15, 0.23457635
 0.15, 0.23457635
 0.15, 0.23457635
 0.35, 0.23457635
 0.15, 0.23457635
 0.15, 0.23457635
 0.15, 0.06244784
 0.15, 1.
 0.05, 0.23457635
 0.15, 1.
 0.05, 0.06244784
 0.15, 0.06244784
 0.15, 0.23457635
 0.05, 0.23457635
 0.05, 0.23457635
 0.05, 0.23457635
 0.15, 0.23457635
 0.25, 0.23457635
 0.35, 0.23457635
 0.55, 0.23457833
 0.45, 0.5108642
 0.45,-1.
 0.55, 0.5108642
 0.15, 0.5108642
 0.15, 0.23457635
 0.35, 0.23457635
 0.55, 1.
 0.45, 0.5108642
 0.45, 0.08532965
 0.55, 0.5108642
 0.35, 0.5108642
 0.35, 0.5108642
 0.45, 0.5108642
 0.35, 0.5108642
 0.35, 0.5108642
 0.35, 0.5108642
 0.35, 0.5108642
 0.45, 0.5108642
 0.25, 0.5108642
 0.35, 0.23457635
 0.25, 0.5108642
 0.35, 0.23457635
 0.15, 0.23457635
 0.15, 0.23457635
 0.05, 0.23457635
 0.05, 0.23457635
 0.05, 0.23457635
 0.05, 0.23457635
 0.15, 0.23457635
 0.05, 0.23457635
 0.05, 0.06244784
 0.15, 0.23457635
 0.15, 0.23215298
 0.15, 0.23457635
 0.25, 0.23457635
 0.15, 0.23457635
 0.15, 0.23457635
 0.15, 0.23457635
 0.15, 0.23457635
 0.05, 0.23457635
 0.25, 0.23457635
 0.15, 0.23457635
 0.25, 0.23457635
 0.35, 0.23457635
 0.25, 0.23457635
 0.35, 0.23457635
 0.05, 0.23457635
 0.05, 0.23457635
 0.15, 0.23457635
 0.15, 0.23457635
 0.05, 0.23457635
 0.05, 0.23457635
 0.25, 0.23457635
 0.25, 0.23457635
 0.15,-0.9999993
 0.15, 0.23450461
 0.05, 0.23457635
 0.05, 0.23457635
 0.05, 0.23457635
