Target,Output
0.130434782609,0.299037993504
0.312252964427,0.280816966884
0.533596837945,0.239603307916
0.169960474308,0.217858208472
0.0830039525692,0.228219365743
0.197628458498,0.234178335131
0.130434782609,0.220353047072
0.280632411067,0.214293559195
0.347826086957,0.19313058786
0.363636363636,0.183139474799
0.478260869565,0.181552220044
0.474308300395,0.18283332033
0.739130434783,0.187751079919
1.0,0.190128696964
0.565217391304,0.190913899144
0.498023715415,0.193768738982
0.284584980237,0.19698448319
0.213438735178,0.201548906231
0.252964426877,0.205913305969
0.241106719368,0.208685275096
0.106719367589,0.210346546015
0.162055335968,0.210821174201
0.0948616600791,0.210656966866
0.256916996047,0.210304422006
0.181818181818,0.105660264459
0.154150197628,0.120427357932
0.529644268775,0.129770742484
0.454545454545,0.159644332023
0.612648221344,0.175980209045
0.660079051383,0.183487077985
0.841897233202,0.20443480408
0.256916996047,0.215086556487
0.229249011858,0.228343871564
0.205533596838,0.23752279208
0.841897233202,0.238748972038
0.790513833992,0.238535563553
0.482213438735,0.234173503874
0.138339920949,0.227774890807
0.158102766798,0.221913520279
0.134387351779,0.214782310661
0.237154150198,0.208210111454
0.217391304348,0.202330824751
0.177865612648,0.197268366475
0.217391304348,0.194061633841
0.162055335968,0.192327626442
0.418972332016,0.191954790193
0.818181818182,0.192794069135
0.913043478261,0.194313370835
0.932806324111,0.574837277162
0.735177865613,0.492341224089
0.312252964427,0.344797791495
0.276679841897,0.28320515208
0.233201581028,0.30871775412
0.241106719368,0.260248944097
0.169960474308,0.208542205319
0.134387351779,0.165173646748
0.233201581028,0.112808265639
0.169960474308,0.108184144167
0.197628458498,0.115987397989
0.241106719368,0.129681194219
0.205533596838,0.14808168336
0.205533596838,0.157479704672
0.213438735178,0.169115319097
0.288537549407,0.184707947103
0.177865612648,0.199976509124
0.134387351779,0.216327733727
0.537549407115,0.227909531346
0.604743083004,0.233888465071
0.592885375494,0.236017031324
0.810276679842,0.234422186041
0.766798418972,0.231240435399
0.739130434783,0.226901284885
0.707509881423,0.570402240555
0.387351778656,0.458305896781
0.343873517787,0.321472850917
0.249011857708,0.283262139077
0.249011857708,0.221577806045
0.264822134387,0.140016140988
0.292490118577,0.102910351132
0.209486166008,0.0814317180204
0.130434782609,0.0805723352519
0.209486166008,0.0959865516532
0.213438735178,0.110825020689
0.166007905138,0.132576223492
0.154150197628,0.154324293092
0.225296442688,0.174462408649
0.225296442688,0.197100078461
0.245059288538,0.217093367282
0.249011857708,0.233281830706
0.197628458498,0.244432623895
0.264822134387,0.249000867403
0.276679841897,0.249098300338
0.193675889328,0.245417234564
0.466403162055,0.238816403949
0.430830039526,0.230640633257
0.470355731225,0.221365782126
0.521739130435,0.390084934766
0.411067193676,0.325967922528
0.241106719368,0.247080893592
0.268774703557,0.242015035169
0.256916996047,0.229809312778
0.158102766798,0.198940918205
0.098814229249,0.187355392018
0.252964426877,0.158573707564
0.280632411067,0.146018029781
0.197628458498,0.147258226436
0.249011857708,0.152046555997
0.181818181818,0.164977900665
0.213438735178,0.175372737095
0.205533596838,0.183119823648
0.166007905138,0.192786203565
0.189723320158,0.201169181575
0.201581027668,0.210031525893
0.138339920949,0.217661364792
0.181818181818,0.221969156135
0.110671936759,0.223898041261
0.0869565217391,0.223255033342
0.110671936759,0.220953346422
0.185770750988,0.21802638197
0.280632411067,0.214435332599
0.375494071146,0.204050030746
0.102766798419,0.215024996548
0.098814229249,0.205901656361
0.110671936759,0.211818611362
0.154150197628,0.222986423171
0.154150197628,0.232835069999
0.138339920949,0.238678234241
0.181818181818,0.238260561448
0.177865612648,0.230175853844
0.185770750988,0.221655856682
0.205533596838,0.21387799374
0.249011857708,0.208861123857
0.189723320158,0.205138547305
0.193675889328,0.201007995463
0.205533596838,0.197070711693
0.173913043478,0.194078604131
0.142292490119,0.192612333768
0.146245059289,0.192963951191
0.201581027668,0.194421703052
0.249011857708,0.196432990823
0.162055335968,0.19856275333
0.169960474308,0.200576915858
0.118577075099,0.20252167542
0.292490118577,0.20434109992
0.367588932806,0.160534779781
0.324110671937,0.187874711759
0.185770750988,0.199500168709
0.126482213439,0.207617095781
0.106719367589,0.205668088916
0.110671936759,0.202986064044
0.0553359683794,0.211717124024
0.138339920949,0.215715472422
0.193675889328,0.221950185661
0.162055335968,0.222720189407
0.146245059289,0.218227188252
0.166007905138,0.214110069372
0.146245059289,0.210080187683
0.150197628458,0.207364364926
0.138339920949,0.205831893947
0.098814229249,0.203510070825
0.118577075099,0.201363982237
0.0830039525692,0.199494860686
0.185770750988,0.198282278268
0.197628458498,0.198223930442
0.221343873518,0.198799797738
0.363636363636,0.199728572049
0.660079051383,0.200789159637
0.632411067194,0.201761894948
0.604743083004,0.522564521315
0.415019762846,0.465025909891
0.249011857708,0.363551208345
0.252964426877,0.315513918571
0.177865612648,0.315753300839
0.154150197628,0.273415478265
0.138339920949,0.221544774323
0.225296442688,0.179736314426
0.173913043478,0.133884049514
0.288537549407,0.122535651308
0.201581027668,0.124453094988
0.162055335968,0.132920225484
0.197628458498,0.145988843073
0.316205533597,0.154867282339
0.229249011858,0.165673121737
0.225296442688,0.18007033965
0.185770750988,0.194672870908
0.154150197628,0.209756152468
0.110671936759,0.221316735131
0.189723320158,0.228311610033
0.146245059289,0.231782971406
0.600790513834,0.231911799862
0.826086956522,0.230090856854
0.608695652174,0.226798146828
0.150197628458,0.579981255095
0.237154150198,0.472198157995
0.146245059289,0.327353272986
0.130434782609,0.306549681305
0.150197628458,0.329586801881
0.106719367589,0.267100987563
0.209486166008,0.213396026445
0.150197628458,0.152003443667
0.213438735178,0.105208065527
0.252964426877,0.105363618429
0.233201581028,0.114622031147
0.185770750988,0.130583875629
0.154150197628,0.146047392679
0.162055335968,0.153747731236
0.146245059289,0.166648276328
0.166007905138,0.182948054188
0.166007905138,0.200340374284
0.118577075099,0.21773109759
0.166007905138,0.229159890189
0.118577075099,0.235110672562
0.122529644269,0.236926743804
0.316205533597,0.235381696849
0.355731225296,0.232477215523
0.636363636364,0.228063033044
0.237154150198,0.343128974104
0.197628458498,0.305175699501
0.146245059289,0.259182389725
0.189723320158,0.262487371193
0.300395256917,0.260862971492
0.241106719368,0.246691194806
0.272727272727,0.233359605617
0.241106719368,0.204524405876
0.181818181818,0.182753951211
0.237154150198,0.172233531709
0.201581027668,0.168573868087
0.185770750988,0.172490144027
0.193675889328,0.17573563658
0.213438735178,0.177948456453
0.213438735178,0.182042748547
0.221343873518,0.187125331659
0.245059288538,0.19417562527
0.201581027668,0.201663755714
0.110671936759,0.207674709474
0.146245059289,0.212071737478
0.470355731225,0.214492173233
0.553359683794,0.215468677531
0.652173913043,0.215606806601
0.588932806324,0.214866746615
