ccopy_reg
_reconstructor
p0
(cneurolab.core
Net
p1
c__builtin__
object
p2
Ntp3
Rp4
(dp5
S'layers'
p6
(lp7
g0
(cneurolab.layer
Perceptron
p8
g2
Ntp9
Rp10
(dp11
S'initf'
p12
cneurolab.init
initnw
p13
sS'ci'
p14
I53
sS'co'
p15
I19
sS'cn'
p16
I19
sS'inp_minmax'
p17
cnumpy.core.multiarray
_reconstruct
p18
(cnumpy
ndarray
p19
(I0
tp20
S'b'
p21
tp22
Rp23
(I1
(I53
I2
tp24
cnumpy
dtype
p25
(S'f8'
p26
I0
I1
tp27
Rp28
(I3
S'<'
p29
NNNI-1
I-1
I0
tp30
bI00
S'\x00\x00\x00\x00\x00\x00\x00\x00\x00\x00\x00\x00\x00\x00\xf0?\x00\x00\x00\x00\x00\x00\x00\x00\x00\x00\x00\x00\x00\x00\xf0?\x00\x00\x00\x00\x00\x00\x00\x00\x00\x00\x00\x00\x00\x00\xf0?\x00\x00\x00\x00\x00\x00\x00\x00\x00\x00\x00\x00\x00\x00\xf0?\x00\x00\x00\x00\x00\x00\x00\x00\x00\x00\x00\x00\x00\x00\xf0?\x00\x00\x00\x00\x00\x00\x00\x00\x00\x00\x00\x00\x00\x00\xf0?\x00\x00\x00\x00\x00\x00\x00\x00\x00\x00\x00\x00\x00\x00\xf0?\x00\x00\x00\x00\x00\x00\x00\x00\x00\x00\x00\x00\x00\x00\xf0?\x00\x00\x00\x00\x00\x00\x00\x00\x00\x00\x00\x00\x00\x00\xf0?\x00\x00\x00\x00\x00\x00\x00\x00\x00\x00\x00\x00\x00\x00\xf0?\x00\x00\x00\x00\x00\x00\x00\x00\x00\x00\x00\x00\x00\x00\xf0?\x00\x00\x00\x00\x00\x00\x00\x00\x00\x00\x00\x00\x00\x00\xf0?\x00\x00\x00\x00\x00\x00\x00\x00\x00\x00\x00\x00\x00\x00\xf0?\x00\x00\x00\x00\x00\x00\x00\x00\x00\x00\x00\x00\x00\x00\xf0?\x00\x00\x00\x00\x00\x00\x00\x00\x00\x00\x00\x00\x00\x00\xf0?\x00\x00\x00\x00\x00\x00\x00\x00\x00\x00\x00\x00\x00\x00\xf0?\x00\x00\x00\x00\x00\x00\x00\x00\x00\x00\x00\x00\x00\x00\xf0?\x00\x00\x00\x00\x00\x00\x00\x00\x00\x00\x00\x00\x00\x00\xf0?\x00\x00\x00\x00\x00\x00\x00\x00\x00\x00\x00\x00\x00\x00\xf0?\x00\x00\x00\x00\x00\x00\x00\x00\x00\x00\x00\x00\x00\x00\xf0?\x00\x00\x00\x00\x00\x00\x00\x00\x00\x00\x00\x00\x00\x00\xf0?\x00\x00\x00\x00\x00\x00\x00\x00\x00\x00\x00\x00\x00\x00\xf0?\x00\x00\x00\x00\x00\x00\x00\x00\x00\x00\x00\x00\x00\x00\xf0?\x00\x00\x00\x00\x00\x00\x00\x00\x00\x00\x00\x00\x00\x00\xf0?\x00\x00\x00\x00\x00\x00\x00\x00\x00\x00\x00\x00\x00\x00\xf0?\x00\x00\x00\x00\x00\x00\x00\x00\x00\x00\x00\x00\x00\x00\xf0?\x00\x00\x00\x00\x00\x00\x00\x00\x00\x00\x00\x00\x00\x00\xf0?\x00\x00\x00\x00\x00\x00\x00\x00\x00\x00\x00\x00\x00\x00\xf0?\x00\x00\x00\x00\x00\x00\x00\x00\x00\x00\x00\x00\x00\x00\xf0?\x00\x00\x00\x00\x00\x00\x00\x00\x00\x00\x00\x00\x00\x00\xf0?\x00\x00\x00\x00\x00\x00\x00\x00\x00\x00\x00\x00\x00\x00\xf0?\x00\x00\x00\x00\x00\x00\x00\x00\x00\x00\x00\x00\x00\x00\xf0?\x00\x00\x00\x00\x00\x00\x00\x00\x00\x00\x00\x00\x00\x00\xf0?\x00\x00\x00\x00\x00\x00\x00\x00\x00\x00\x00\x00\x00\x00\xf0?\x00\x00\x00\x00\x00\x00\x00\x00\x00\x00\x00\x00\x00\x00\xf0?\x00\x00\x00\x00\x00\x00\x00\x00\x00\x00\x00\x00\x00\x00\xf0?\x00\x00\x00\x00\x00\x00\x00\x00\x00\x00\x00\x00\x00\x00\xf0?\x00\x00\x00\x00\x00\x00\x00\x00\x00\x00\x00\x00\x00\x00\xf0?\x00\x00\x00\x00\x00\x00\x00\x00\x00\x00\x00\x00\x00\x00\xf0?\x00\x00\x00\x00\x00\x00\x00\x00\x00\x00\x00\x00\x00\x00\xf0?\x00\x00\x00\x00\x00\x00\x00\x00\x00\x00\x00\x00\x00\x00\xf0?\x00\x00\x00\x00\x00\x00\x00\x00\x00\x00\x00\x00\x00\x00\xf0?\x00\x00\x00\x00\x00\x00\x00\x00\x00\x00\x00\x00\x00\x00\xf0?\x00\x00\x00\x00\x00\x00\x00\x00\x00\x00\x00\x00\x00\x00\xf0?\x00\x00\x00\x00\x00\x00\x00\x00\x00\x00\x00\x00\x00\x00\xf0?\x00\x00\x00\x00\x00\x00\x00\x00\x00\x00\x00\x00\x00\x00\xf0?\x00\x00\x00\x00\x00\x00\x00\x00\x00\x00\x00\x00\x00\x00\xf0?\x00\x00\x00\x00\x00\x00\x00\x00\x00\x00\x00\x00\x00\x00\xf0?\x00\x00\x00\x00\x00\x00\x00\x00\x00\x00\x00\x00\x00\x00\xf0?\x00\x00\x00\x00\x00\x00\x00\x00\x00\x00\x00\x00\x00\x00\xf0?\x00\x00\x00\x00\x00\x00\x00\x00\x00\x00\x00\x00\x00\x00\xf0?\x00\x00\x00\x00\x00\x00\x00\x00\x00\x00\x00\x00\x00\x00\xf0?\x00\x00\x00\x00\x00\x00\x00\x00\x00\x00\x00\x00\x00\x00\xf0?'
p31
tp32
bsS'inp'
p33
g18
(g19
(I0
tp34
g21
tp35
Rp36
(I1
(I53
tp37
g28
I00
S'\xbb\xb9\xb9\xb9\xb9\xb9\xc9?[ZZZZZ\xca?BAAAAA\xd1?QPPPPP\xd0?222222\xd2?\x15\x14\x14\x14\x14\x14\xd4?~}}}}}\xcd?\xd3\xd2\xd2\xd2\xd2\xd2\xc2?\xd2\xd2\xd2\xd2\xd2\xd2\xb2?\x9d\x9b\x9b\x9b\x9b\x9b\xcb?\xfb\xfa\xfa\xfa\xfa\xfa\xca?\x9d\x9b\x9b\x9b\x9b\x9b\xcb?\x92\x91\x91\x91\x91\x91\xb1?\x97\x96\x96\x96\x96\x96\xb6?\x1e\x1e\x1e\x1e\x1e\x1e\xae?usssss\xc3?QPPPPP\xb0?usssss\xc3?\x13\x14\x14\x14\x14\x14\x84?ZZZZZZ\xba?usssss\xc3?ZZZZZZ\xba?ZZZZZZ\xba?\xdd\xdc\xdc\xdc\xdc\xdc\xbc?\x15\x14\x14\x14\x14\x14\xc4?zxxxxx\xc8?\xd3\xd2\xd2\xd2\xd2\xd2\xd2?tsssss\xd3?\xe7\xe6\xe6\xe6\xe6\xe6\xd6?\x01\x00\x00\x00\x00\x00\xd0?\x18\x19\x19\x19\x19\x19\xa9?QPPPPP\xb0?PPPPPP\xc0?\xd3\xd2\xd2\xd2\xd2\xd2\xc2?ZZZZZZ\xba?\x98\x96\x96\x96\x96\x96\xa6?\x18\x19\x19\x19\x19\x19\xa9?\xd9\xd7\xd7\xd7\xd7\xd7\xb7?\x1e\x1e\x1e\x1e\x1e\x1e\xae?\x98\x96\x96\x96\x96\x96\xa6?\x97\x96\x96\x96\x96\x96\xb6?\xd2\xd2\xd2\xd2\xd2\xd2\xb2?\xd2\xd2\xd2\xd2\xd2\xd2\xb2?\x98\x96\x96\x96\x96\x96\xa6?\x92\x91\x91\x91\x91\x91\xb1?PPPPPP\xc0?VUUUUU\xc5?322222\xc2?VUUUUU\xc5?\xde\xdc\xdc\xdc\xdc\xdc\xcc?[ZZZZZ\xca?zxxxxx\xc8?\xd8\xd7\xd7\xd7\xd7\xd7\xc7?'
p38
tp39
bsS's'
p40
g18
(g19
(I0
tp41
g21
tp42
Rp43
(I1
(I19
tp44
g28
I00
S"\xf0\xcd7q\r\xcb\xcd\xbf.\xa6\xbc\x85t\x00\x01\xc0\xa8\xa8\xb6\x036\xcb\x13\xc0o\xb0'B\x8d\x9f\xe7?\xfd\xb2 @DT\xf0?\x17\x0b;\x0fL\xa9\x14@\xf5?\xba<\x88(\x04@(\xcf[\xd2\x8e\xae\xb1? \x92)\xf4)\xe0\xc3?-\xd1QvR.\xcb?\xd4h\xcc\x93xC\xf2\xbf\xfe\xa2)\x01PG\x0b\xc0_\xf1\xb40\xb8\x87\x03@\x13]\xfe\x95_\xcd\xe8?\xaf&\xb8N\xf3\x19\x05\xc0\x0b\x04\xf2\xd1l#\x02@\xa2\xb3<0\xc0\xbe\x14\xc08\x18\x11&1\xbb\x0b\xc0\x83\x8d\xb5\xc5\x8e\xeb\x13@"
p45
tp46
bsS'np'
p47
(dp48
g21
g18
(g19
(I0
tp49
g21
tp50
Rp51
(I1
(I19
tp52
g28
I00
S"\x19\xf6!\x1b\x13\x9a\xad?\x03\x96x\xa8\xad\xa4\x05\xc0\x96v\x83\x12\xdcE\x16\xc0\xdc\x1f}I1\xfe\xc3?\xb8'\x9asJ\x16\xdc?\r\x8e!\x1e\xef\x07\x19@Ee\xa04S\xf9\xeb?\x1b\xca\xa92e\xda\xe7\xbf\xa3\xa6\xdb\x82\x081\x99\xbf\x8d\xf5\xf7\x83Y:\xd0?`\xd8\xedeY\x94\xf0\xbf\xd8\xde\xa7i\x96\x98\x10\xc0\xaf\xd2\x80cJ\x91\x06@\xe4\xe9\xc7\x97\xd15\xf6?\xc1,\xd0\xd2V\xad\x08\xc0\x1bJ\x18*\xb2\x80\x02@\xd6>B$9\x83\x17\xc0\xff,\x0b\xc4B\xd2\x0e\xc0\xec{\t2\x1c\x05\x15@"
p53
tp54
bsS'w'
p55
g18
(g19
(I0
tp56
g21
tp57
Rp58
(I1
(I19
I53
tp59
g28
I00
S'\xa4rW/\xbc(\xc7?u\xb8\x00m\xc4}\xe5?\xcc\xa6\x04\x13\xe9=\xe2\xbfG\xf8\xdb\xf3v\xb4\xb1?>FXq_>\xde\xbf\xc4A\x12\xf1\xb9H\xd1?(L\x17\xf6\xa5\x88\x96?\xb8P*\xbc\xd4?\xe6?sat:\xdf\x84\xe2?\x8c\x9f\xff\xb3h\xd8\xaf?\x98|\x1d\x14\xf1\xc8\x8d\xbf\xa70\xe7\xed\xcb[\xe4\xbf\xd8\xb3\x9c\xb7\xd1]\xeb\xbf\xf8\xb1O\xd2\xce8\xc9\xbf\xc4\x9b\xcd\xffF\xab\xe2\xbf\x84\xe9\xbd\x0f\x9e\x1e\xf0\xbf\xf1\xf6\xcf\xbaA?\xce\xbfi\x06\x0f\xc5\xa5\xc1\xca?n\xd8Ff\x03Dp\xbf\xc5\xd8\x99\xf9\xa9\x87\xd9?\xab\x9cT\xf8k\xfc\xd3\xbfC\x16\x1dyp\xcc\xea?q\xd5\x03E+\xb7\xc5?"\x84\xdf\t"\xe4\xd9?\xcfu\x1aeIg\xd5\xbf-\xc2\xfd\x97\xf4I\xe4\xbf\xf1\xbd\x98O\x01e\xe1?\xeb#\xef\xfcM\xd8\xe5?\x18\x0ci\x95\x96\xe0\xdb\xbf\n9D\x93\xbe\xc6\xe0?\x16\x84\x83\xfe\x05\xe2\xc8\xbfxJ.\xa2( \x96\xbf\xbb\x83\xe5\x88\x1e2\xc2\xbf6\xcf\x8a\xff\xa3\xbe\xe7\xbf\xaf\x03\x8d%4\x8c\xdd?F\x86|j\xab\xca\xd1?\xcd;\x05\x95\x10\x9f\xde\xbf\x11\xbe\xd0&\xa5"\xe8\xbf}\xbfv\xa4F\xaf\xd1?\x1b\x91l\xee\x0b\x81\xb0?[%\xdf[\xdf8\xe6\xbf\xe8\xe0.\xf9t\xf4\xd0\xbf\xd2\x81E/S(\xd2\xbf\x94~\x81.;L\xa5?\xda\xca\x8bqm\x02\xe4?\x029\xab\x1c\xa4:\xb2?5L\x81s\xee\xbb\xbb?9\x1c\x13\x1d\x00\r\xd0\xbf\xd4js=}\xfc\xb5\xbfZ\xc2\xc5yf\x06\xd7\xbf}:\x11\\\xb5\xf1\xd9\xbf\xc59*<\xcd\x94\x9d\xbf\xc2\x18=\x0f)B\xc8?c\xe7rM#\x9f\xb0?\x9d\xa7\xe3[Z\x9d\xe1\xbf\x1c,\x96\xe9\xdc\x07\xc5?\x1d\x86\xcb<\x0e\x96\xd1?\xcd\xc7\x91\xce\x0c\xc9\xd4\xbf\xe3\xd0T\xd4kL\xe4\xbf^\x93I\x96}\xab\xc2?ie8\x14S6\xe2?\xe9\xa6^\x9fL\xbb\xda\xbf+\xb34\x8c\xae\x16\xc8\xbfi\xc5F4r@\xe4\xbf\xa3\xa8a\rS\xb9\xc5?\x9f\x98,@\xcd\xc1\xc5\xbf\xf19\xc8\xe95\xc8\xab\xbf\xfcS;\x8c\xaa\xfa\xec?\x99s\x93\xce\xaet\xc8\xbf\xbf5\xf0\x97\xec[\xe0?\xb1\x852\x19T\x7f\xc1?\xb5sSC=\xa6\xda?\xa0\x88\nb\xbe\xce\xde?\xefK[<\xcf\xe7\xd7?\x8e\x86\xb8\xc4\x9c\x1b\xe0\xbf2\x94]c\xd3\'\x9a?\xfc\x9aR}\xc2{\xd3?%\xf246=\x02\xce?\xa4\x17\xf6\r\x1b\x94\xeb?\x10\x87\xb3c\xd2]\xb3\xbf\x8e\xfa\x9b9m\t\xe9?[\xd6\x9em-\xda\xe7?(\xbb\xa2\x02\xfa\x12\xc7?\x8f \xac?-\x08\xcb\xbf\xb0\x99\xbe\x92.\x15\xd8\xbf37\xbf\xc5pV\xde?\xbf\xa1b\x1am\x0b\xd5?yX\xf4\x9a\x7f\x80\xec?\xdd\xa2,\x81\xaf>\xa2\xbf%wk\xb7\x1c\xd0\xdf?\x18O\xa3s\xd8\xa2\xc7\xbf\xc9\xf5\x99\x83\xc8\x95\xdf?\xaf\xd9\xddF\x0f\x8d\xdc?\xeb\xbewG7^\xe4\xbfx\xee\xf6\xc6\x18\x8c\xcc\xbf\xf7O\x18\xb8]\x17\xdb\xbf\x0f\x1e\x00\xd8\xdb\x86\xd1\xbff\x13\xa3d\xa3g\x89\xbf\x19Eg\x81#\xb3\xc1\xbf\'K\x1b\x87\xc1\xbf\xc8\xbf?q\xfcm\xa9G\xc3?\xe0r\xd3]R\x0f\xd5?\x06\xcf(\xc2\xd2\x07\xec\xbf\x85\xc6\xf6s\x82<\xe5?\xa5\x03\xf4=\x98\xbf\xe2\xbf\xcba:\xdaTx\xd6?UY+\xae\xd3\xe8\xde?\xf1/\x1a\xf2[\x07\xe5\xbf\x9fp\xda}\x9b\x84\xd2?2\xd8\x9e\x91&\xc2\xce\xbfv%\xdek\xffT\xac\xbf\xc2f\xb50\x0bq\xe4?u\xe9\x8ak\x11;\xe6?x\x0c\xec\xaeZe\xdd?\x0f\xfd\xe4\x1a\xc8$\xe2?\x1ff\xa9\x03\xa4^\xd7?\x11\x83q\xf1H$\xe0?\x08\xc3xQf\xae\xc2?\x0cL\xf9=\x8aT\xcc\xbfX\x8a\x18@oK\xd6?\x1do \xca\t\xfd\xca\xbf\xdb\xa5\x1d\x1cVk\xb8?\x05^\xd3Y\xd04\xc2\xbf\xaf\xa8n\x08\xce\xf7\xe5?\xb7\x8dt\xe1\xe9\x05\xe0?\x93=\xf7A\xf8\x9d\xd7\xbf\xa7\x85\x10\x16\x11\x89\xe2?\xc9\x12\xaf\xf3\x17\xd3\xe5?\xf8\xf2\x8d\xd4\xb5\x83\xe6?\x03\xf6X-9\x8c\xd2?P0\r\x83\xd2\x14\xae?\xea2\xa1JR\x15\xd1\xbf\x1cX\xbf\x98\x86\xff\xa8?\x93\x9c\xf2\x0e\xae\xea\xd1\xbf\x10\xdf\x0c\xab6\x14\xda?\x1e\x88G\x17\x07\xe2\xda\xbf\xff_\';\xbb\n\xc1?\x85\xc1+n\nH\xd5?=!\xb1\xf3\t\xc7\xe3\xbf\xcb\xb9\xc8\x04\x15\xda\xc8\xbf1.\xcak\xec\xbf\xcb?\xb4\x05\xf85\x8a\x9e\xca\xbf>j\xdec\x93\xde\xb7?\xf4\xf8\xe6\xea b\xe0?\xd5\xf3\xa2\xad\x85\xfc\xb8\xbf;M\xad\n\xed%\xdc\xbftz\xc7x\xc0\xce\xe2?\xfb\x16\x98\xf1h\xaa\xd5\xbf\x14\xeb\x013\xaaB\xce?c\xf3\x80\xe7<\xb2\xe0?{\x92h\xd6\xdd~\x97?\x99\xbe\xac\xe9\xa3?\xe5\xbf\xeb\x08\xb5\xf9k\x14\xc5\xbf\xd4\xad\xbd\xba\x1b\xbf\xe5\xbfL\xa9\x98\x0f\xba\xce\xd0?\xcd5\x17\x1c\xeeo\xd4\xbf\xfb\x1d49^\xce\xc7\xbf\x019\x04\x9d\xe0\xd1\x8a?\xbc\xc4p\x17\x92\xc8\xd3\xbf\xe8\xf3f\x91\xc1c\xe1?\xce\xfd\xbd/\x05\xb4\xda?A\x8f\xed\x9c\x1f\xa5\xcb\xbf\xa2\xa2c\x87u\xca\xe4?\\v>\xd3\xaej\xe6?L\xc6\x17|\x87S\x94\xbf\x04b:_\xe2\xb1\xde?j-\x04\xed\xf4\xa5\xbe?\xc4\x86j\xe6\xc9\xe7\x9d?y/q)\x08g\xcc?\xd53\xb0O\xd5\xbd\xd2\xbfn\xcb~\xbb\xf7\xa5\xd7\xbfhE9\xac\xe9c\xc6\xbf\xb3\x04\xabp\xea\x8f\xe3\xbf\x0e\xed\xfa\xfeO<\xd9?r\x03\xad\x0e\xd9"\xe0\xbf\x12\x95p\xb8C\x9f\xc9\xbfU/\x9c\xc4\x19+\xb7?\xe5\xaa\xb3$\x89\xde\xdd?!\xd6\xa5\xc0\x0ey\xe0?/\xa6;\x92&F\xe3?e\xf5\xe6\t\x87\x9f\xd9\xbf\xfd\xa0\xf4\xbd\xcbn\xd5\xbf_3Z\xf2#\xe7\xe1\xbf\xb2\x99\x06\xcb\xdb\x1b\xb9?b.\xf7\x9e\r\xf9\xdf\xbfz\xc3C\xfb\xb1\xdd\xe4?\x1f\xa0Y^O8\xe3?\xda0\xa0B\x88v\xd7?\xb6\xcc\x8c\xe51\x1c\xd3\xbfL\xc8=\xfa\x1c\x13\xd1\xbf\xab\x06J\x9d\xa1G\xd8\xbf\xfa\x0c\x95\x9c\xc3\x99\xe2?-\xf6%\xd6\x9c\xd1\xe0?\xf6T\xa2\x82\xf6\xd1\xe1?\xaf\xa6\x1aO\xd6\xb8\xd3\xbf\xd4l \x0f\x80.\xe3\xbf\x99\x08\x1d\xc3A\x01\xaa?\xaa3\xc5\xd6|8\xe1\xbfC\xd4\xbb\xb4\xfa\xe1\x93\xbf\xf1\x96\xc6\x9f2\x1a\xe5\xbf\\+7+\xc5\x8b\xd1?s\xe3|\xf6\x03\x9f\xe5\xbf\xab\x94\xb5\xa6\x06(\xd5?\xce3\xc5 P\xc0\xdd\xbf\xe8r\xf8\xfcE\x16\xde\xbfTd\x8f\xce\xb3\xd9\xe1?\x9d0\xdbX`(\xbb\xbf\xb9\x03\x88+$o\xbd\xbf?\x18\x0c\x04\x0f\x07\xd3\xbf\xe9\xf0\x9dx:\xbd\xd0?\xb6\xf0\xa5\xe9\x19\xb4\xe7\xbfZ\xd7\xb0\xd7\x02O\xc6\xbf@\xbcq\x1dk\xd9\x95\xbf\x92\xba^\xd3`\\\xde?*{g\xdeT*\xe0?\xd87%>Y\x95\xe4\xbf\xfdHN\xa0\x06k\xf0\xbff/f+\x9f]\xe1?\x10\xe5\xf3@\x95\xd2\xde?6A\x9e\xba\xae\x18\xc9?\x1d&\x8eD\xad\r\xd9\xbf\x98\xf7\xff?\xcd\xb9\xe9?\xbe\x01U7W\x13\xe5?\xd5\xe8-TR\x81\xa9\xbf\x13%/H1\xc9\xe6\xbf3\xeaH\xfa\xcaM\xcf\xbfb"\x14l\x01.\x99\xbf\x8a"Jc"\xa6\xd7\xbf\xdb\xc3\xdd\x15/M\x9c?\x04\x10\xe0\xbay\xde\xc8\xbfuDKI@B\xd6?\xfd\x02s\xec0\x95\xf0\xbf\xe1]\xe0\xf23\'\xe2\xbfml\xb3E9"\xd0\xbf\xbf\xb42\xfb\x13Y\xed\xbf\xdal\x19K\xf5`\xe1?J\xb4\x0e\x00\xf9\x1a\xc9\xbf8\r\xf0\x14\x8a\x18\xdc?\r\xd7\x0b_v\xbb\xcc?\xc0r=\xe8\xdb\x7f\xc7\xbf,\xec\xf7\x1d\xa0\xbd\xe1?58\xf0\x17\xb1\xcf\xd4?\x0f\x14?\xf5m\x07\xe1\xbfG\xddF\xa2X]\xe1\xbf`/C\xd6Dn\xce\xbfU\xd4\x0b\x1e\xe2z\xd3?\xfc\xda\x93\x0b\xbca\xf2\xbfp"lguas\xbfJ8\x10\x82&A\xd8\xbf\x00\xa8\x82\xe8\x11\xad\xc6?\xf8\xf4\xc6\x11/\xa1\x84?+\xeb4\x81\xf2\xf4\xde?\x7fe\xcb\x8c\xff\xf4\xb7\xbf\x08MO!\t\x1f\xdd\xbf\xc3\xb0\xdd\xd6\xdf[\xe5?\t\xe8,\xda\xfd\x84\xd8\xbf\xff!\xbe\xa0\x94\x11\xe9?K~\xb4\xbd\xc4L\xd7?\x80k\xaa\x90}\xa5\xcd\xbf\xe4\xd8X\x10\x868\xd0?\xb7\x8bJ\xdf\xee\xd3\xb5\xbf\xad\xe1\xb8\xb0\x81R\xa0\xbf\x82\xc8W\x17lr\xa9?\x9a\xc0JP!\xcc\xe5?\xdf\x93\xb6\x1aqA\xf3?\xf2\xcex\x83A\x1c\xe1\xbf\x8e\xe0\xc6\x13?a\xda?XM\x12\xbd\xf4x\xb1\xbf\xd6\x0b\xa1fH\xd8\xe4\xbf\xc8\xd7\xaaj\xe7\xbd\xe5?*\xe5\x8awi-\xc9\xbf\xc8\x84\x93eb\x9e\xbb\xbfyu{\xab\xc1\xf4\xb9?\x90\xce\x0e\x0bI\x85\xae?y4\x18~`G\xcd\xbf\xff%\x90\xb1\x92\xc1\x8f?\xdc\xab\xaed[\x87\xd5?\xfd\x16\xee|Uk\x9c?wNND\x1b\xc2\xe0?\xfa\xfe\xeaE\xa1\x9f\xdf?}\xfa\x05\x04\x0b\xf7\xb1\xbfp\xa1\xf8&gz\xd4\xbf|\xeb\x01ST\x1c\xe6?#nm\xb9?$\xe0?\xfa6d\xc0\xa6\xb3\x8b\xbf\x82L\x04\xe1\x9c\x91\xc2\xbf|\x16\xd0\x9b\x06\x87\xe6\xbf?7\x1da\xadB\xcf\xbf\x8c\xd3\x8a\xbe\xcb\x8e\x80\xbf4\xde\xcd\x1ec\x03\xe1\xbfl\x86\xe6\xe3\xc6\xc5\x90?\x01\xba\x94/\x10W\xe2\xbf\x17\x80\x06\xd3\x9d7\xb2\xbf\x8e\xe3\xc9\x81\xcd_\xe3\xbf\x18\xc2\xa0Y\xf8\x0f\xe3\xbfN\x11\x91m\xc6\xfe\xab\xbf^\x1e\xdb\x1b\xb6\x9d\xce?\xf0\xf2\xa1_\xe2\x87\xcd\xbf\x16NM\'7\x9a\xb0?\xf6\xc3\x05B|\r\xd3\xbf\xe7}\x8d\xe4t\x05\xd7\xbflu\x88\xb8a\xa1\xbd\xbf^\x9e\xa6\xa4\x9a\xf2\xa1?hT<H\xfdT\xe5\xbfh&\xd9\x941\xc9\xa9?x\x9e\xe5&\x1f\x05\xb1?7\xc98\xfcy\x8b\xe2\xbf\xb6wCG\x14\xbe\xcd\xbfb\xc9\xc0\xdc1/\xd6?\x83\xed\xea\xf4\xcf\x98\xe7\xbf\x1c2\x07\xcaH\xd0\xe7?\xf8\x82(@%\x91\x9f?h6i\xc3\x82*\xd8\xbfL\xc9\x91\x16\x05-\xe6\xbf\xce\xeaG\xbf\x89\xb9\xcd?%c\xcd\xb2zr\x9a?\x99Y\xfc\xf4\xbc\x87\xe3\xbf\x01*\xc2\xfdA\x85\xe5\xbf\xba!s\xac\xcc\x17\xe2?\x905R\x9d\xcd\xdc\xf1?\x99\x83H\xf8|\xf3\xb6\xbf\xb3\x9d\xbf\x96x<\xd2?\xac\x11\xb9tj@\xe0?H<{\xc2\xc1\xbf\xb6\xbf\xb8 \xda\xa1>n\xd4\xbfZ\x7fI\xb42\xe4\xe0?\xc4\xe7#\x04(\x91\xbe?w\x807\xc4_`\xd2?\x86\xbdb\'\xfa\x1f\xd1?\x0b^\xd5\xad\tf\xeb?\xc8\xce\x9c[\xf9\x9f\xc4?WE\xbfS^5\xd7?\x86\x8c\x8c\xb0vC\xd8\xbf\xfc\xac\x1e\xb9\xe7r\xe1\xbf<\xff\x83t7p\xe4\xbf+\xac\xd5\xdf|\x94\xce?z\xa8+\x9f\x80\xce\xe6?\xf5\x1f\x11P\xcf\x1b\xcb?FJ\x97\x97\xb6\xd1\xe0?-\xc5\xf1idh\xc2?fv\xd3}x\xdb\xb7\xbf\xa5{MB5\xbb\xe3?\xa9\xc06\xfeg>\xf0?~\xcc&\x10\'Q\xd3\xbf}/\x97%\xfcC\xe3?\xd81\x0c\x11a5\xc9?\xd9\x0fp2\x85\xd6\xec?\xf4M*\x1eT\xa3\xeb?\xf0P\x04\x86C\x95\xe4?T\xa1\xcc\xb2\xca\xd4\xec?\x02=\x86N`\xd2\xdd\xbfs\xc0\xbfM\xbd\xe5\xf0?\xdfW~\xd7\xfe|\xf8?Q>\x8b\x84\x9a\xb8\xea?\x96!8\xac\xdf\xd1\xdc?:\xd9\x82\x9fk\x99\xb8\xbff\xa6*\x08\xf6F\xf0?\x8b]7\xa0JY\xd7\xbf\x94\xc1\x1e\xc7$\x00\xf4\xbf\x8f\x06\xcd\x05\xa3\x06\xd7\xbf\xcf\xe5d\xc1&\xe0\xd0\xbf\xd9V\xae\x0b\x9cA\xe0\xbf}\xe8wI\xef\xee\xd7?\x8f\xb8\xb7\xb8\x9e\r\xbd\xbf!j_/@2\x99\xbf\xb4cr\x86\xf4\xd7\xc8?\xde\xb4\xd2\xa8\xa0\x89\xeb?Y\x92\xfa#\xc8\x98\xda\xbf/d\x9a\xd4\x99\xc4\xcb\xbfx\xbb\xddG\xc40\xe8\xbf\xbfTG\xa2\xa9\xf0\xfb\xbf\xe8.C\xd7\xb3j\xe0?\xe7RW\xa9=\x96\xd7\xbf\xb5\xe1\\?\xf5\x00\xbb?\x04[\x1d_\xde\xb0\xb0?\x8e\x06\tF\xb7w\xcf\xbf\'\x9d\xddf\x97\xc6\xe2?\xecw*|\xd7\x17\xe6?h\xc0\x1b)\xbeZ\xcf\xbfOI\x81\xf2\xbfq\xe0\xbf\x8d3\xbd\xe9\xec\x1c\xca\xbf\xf5\x1f\xe5^\xa7\x04\xc4?\xbf\x94\xc2w\x14\\\xd6\xbf\x1b2S\xd6N_\xc0\xbf\x94\x14\x82\xa8{\x87\xd1?%\xa0\xd3\x08x\x9b\xe0\xbf\x8bp\xbds\xb8S\xea?G\xe5\x02\x95\x816\xbe\xbf\x9a\xd0\xfc\xdddc\xcc?\xd2\xe4R\x8b\xf3\xe0\xd7?\x89cMV\x83\xc9\xdb?*\xea$v\xf1\xde\xdd?\xdc\x0f\xfb\x10\xecW\xbe\xbfF:ab\n\xbb\xdc\xbf\xe5\'\x8f\x80N\xc9\xe4?=_\xb1{6\x13\xc9\xbf \x0fo\x99#\x06\xdb?Bbk\x9d\xf1@\xab\xbf:\xcd\xc1\xbf\xc2&\xe1\xbf\x9a\x1byP\xb8N\xe3?Kr\xccn&\xac\x92?\x9c\x16\x9f\xb2Z \x7f?\x9c\x14 \xee}1\xd1\xbf\xff}Y\xb9:\xc8\xe6?\xf5\x8f\x00d\xb2P\xd9?\xde\x17\xb0\xfe\xa5\x03\xe2\xbf\xe2\x81E\xa6\x1c\xe7\xe4?\xc8W\x1f\xbb\xf4\xcd\xd9\xbf\xf1\x0fF\xd5\r\xa1\xd9?\xea9x\x1d\xb4\xbd\xbe?\xb8\x07\x8e|:S\xaa\xbfQ\x1aB\x8c\xdbD\xd2\xbf\x0cl\x13{d\n\xd4\xbf\x9bq\x07\xc7\xb2\x8c\xd0\xbf\x11\x88O\x88\x9d\x8b\xe2?\xb8\xf7~\x80\xe0}\xd5?wZ\xc3wV{\xd3?h\x9d\x04\x96\x91!\xdc?\xac(\xf8\xad\xec\r\xc3\xbf:W\xee\xdb\xe0V\xe2\xbf\xfd\x8fp\xa9\xb7\x92\xdd\xbf\xf6\x04\x8c\xaf\xa9\x12u?\x96\xa3\x16]\xd1f\xe6?\xc2P\x18\xb7:\x10\xe7?\x1d\x85IP\xcdH\xe1\xbf\x01\x88\x15\xab\xfaf\xc3\xbfLx%&t\xf4\xd9?a\xde\xc5\x95\x07\xc3\xdb\xbfr\xa4)>\xa5#c?\xc5\x8f8\xf5\xe2~\xe5\xbf\xacIe2\xe8\x11\xe1?\xfb\x98\xb3\x14n_\xb6\xbf\x05P\xa9\xd1=i\xd6\xbf\x10 q\xf3\x02\xa4\xc9\xbf\x01\x8b\x86?<\x94\xdd?\xf9i\xe5\x90\x18\xa4\xc5\xbf\x81&dr\x06]\xe4?\n6S\xe6\x1fT\xe6?\xea\x06c\xe5\xe1\xba\xde?\xb2\xde5\xff\xa1\xb4\xc8\xbf\x922\xc2\x86\x9f\x9d\xd6\xbf\xb3@\x00J(F\xe2\xbfg[d\xa5\xb3,\xc4?\xd6\x0e\xda\x0e1]\xd0?x\x1d\xb3)\xfa\x05\xe4\xbf\xc8\xa8:\x1ay\xca\xe7\xbf4\x89#Q\xea\x1e\x8b?dN\x0b\x91\x9c\xf6\x91?\x83\x8f\xc5t\x15\xd2\xdc?\xf2o\xd1\xe1;\xb1\xd6?\xd7\x7f\xc0\xd5>\xc3\xd9\xbf\xe7b\xca&\xc4\xc2\xc6\xbf\xfd\xd9d\x1e\x98\xc9\xd2?7\xde\x07\x96U/\xd7?\xea-\xf1q\x10\xd8\xcd\xbfm\xdb\xe1\'&z\xac\xbfl(5\x145p\xb7\xbf\xe1\x8f\xb280\x07\xce?\xe6\xc3\x0b\x1a\xe4\xf9\xc3?\x15\xe6y\xf6\x8b0\xc7?\x8bj\xb6\xe4\xbc|\xe1\xbf\xa0\x98\x89\x00\x1a(\x9f\xbf\xab\xc6\x96K\x8f\xac\xe1?\xcd\xd1\xceU\xaa7\xbe\xbfD\x004z\xdb\t\xdb?\xd8Fx\xf0\xd5\xd5\xc6?g\xbc#\x86\x8f\xac\x9c?\xcb#c\xbc\x05&\xca\xbf\x89\x9b\xc2\xd4\x88\xc2\xe1?\x19XM\x03\xd7P\xe8\xbfh\xb5\xa0z \x92\xe2?\x1e\xbd\x1e\xb0\xa9j\xe2\xbf<\xab\xbd\x91\xcd\xc2\xd9?sj\x15\x85\x03\x82\xe3?9+\xe5^\x1c\x91\xd9\xbf~r\x90E\xd7\x96\xe3?K\xc3\x11\xcc\xee\xcc\xe8?\x8b\xa9\xfd\xc2\xab\xf0\xea\xbfi\xea\x04\xd5\xe0\x8d\xcb\xbfI\x86\xd6\x9b\xe3Yr\xbf\xc2\x99\xc3>y\x9c\xf0?\xa9\x96\x11\x07\xbb.\xe0?\xdc\xb1\xe9\xc9\x95o\xc8?\xdcX\xa6\xf1P\xfb\xb5?\xa0R\xdf\xf8\x80\x8b\xe5?\x8d\xaeZ\xae<\xf4\xe1\xbf\x84\x9f(\xf1\xe5\xc8\xd2?\xc40\x04\xd0V0\xc4?\xe9\x0e\xb2\xe3`9\xb6?\xeceA\x93\xdd\x93\xb0\xbfP\xa2fDA\xd7\xcf\xbfi\x1c\xbe\xe4*3\xe4?\xc3I\x8c^\xea\xf7\xd0?Q \xd4X4\x96\xdb\xbf\x91m<\x1c\x8d\xe6\xd6?\xf2\xb2\x84\x1bV\x90\xc6?,\x9e\n\xc1\x11\xca\xdc\xbf\x0e\xc0\xe2\xc8x\x1a\xc4\xbfN\x978,P\xbc\xd4\xbf\xf7\xbd\xf3\xd8\x1d\x9a\xa6?\x0b\xf4\xfd\xad\xe5\xdf\xd4?\xf3\xb8\x9dz5\x9b\xe1?7\x04\xca\xb2i\xb4\xdd?\xa6\x0b\'\xd3\xa4s\xd9\xbfs\x0cJ\xee\xb5\x10\x90?\xd6}\x19\xceM\x1b\xc6\xbf\xe0\xb4\xe1\xe0\xa3\xc8\xc5\xbf\xd0F\x17\xf3\x18\xba\xe2?\x9d\xdcPR\x8c\xc9\xe2?a^$;Tm\xdc?31\xe6\x9aw\xdc\x8e\xbf\xf59X\xc0U\xbe\xb8?\xa3\x85iJ\xc1\xab\xb3?5\xf4\x8cv\xc5*\xe2\xbf\x156:\x1f\x1a\x8e\xe4?[\x8aD\xb1\xcar\xce\xbf\x94\xfcD\n\x1a\x02\xbb?\xc0;\xf3h\xbb\r\xf0\xbf\xfe\x03\x0f\x1c\x84\xc3\xe2?\xbf\x00\x94\xc1\x9dH\xf2\xbfH\'X\x15\x94j\xc0\xbfJ\x86ng\xbcm\xbd\xbf2M\xf9\xad,\xf4\x85?HW"\x8c\x08b\xeb\xbf\xd47N\xb4B\xcf\xd8?\x04\x11R\x19\xcf\xdf\xdc\xbf\xc2\xddd\xf4\x84\xc9\xc0?\xac\x88\xe5\xdfn:\xcd\xbf\xa6\x18M\xbcW/\xed\xbf\xb0\x12\xf0c\xe9I\xe5\xbf\xfeP\xd5\xe2,+\xa8?z\x1f\xdc\xafw\xa1\xa3?\x7f\xeb\x94\xbd\x8d\x17\xc7\xbf\xd1\x0f\xe8\xc9\x048\xe0\xbf\x174}\x12?\xa5\xc9\xbf\xf0\x97\xf9\x14\xad1\xde?(\xf8\x9c\xab1\xa2\xe0\xbf\x04J\xb8\xb3\xad\xd5\xe1?\x95\x1a\x1b\xfbak\xd5\xbf\x1fg\xd1\r\xd1\x12\xcc?\xf7X+9\xf1\xe3\xc1\xbf\xcd{\x8f\xebf\x16\xe2\xbf*9G\x9c"\xc3\xdf\xbf\xf5/$\x037\xb1\xe3\xbfW=i(SC\xd6?\xfc\x93\xa0\xd1\xeac\xe2?\xa6\x97\x84\x07\xe7=\x95\xbf?\x9aj\x10\x11H\xe1\xbf\x9b\x17\x88\xdd\x19\xcc\xe8?\x10L\x83\xa8\xd5L\xa7\xbf\xeb-FS\x1a\xa5\xb5?\x05y\xf6`\x13\x11\xc9??\x8d\x8ad\xd5v\xe3?>\xfe\xa8\x05\xd6\xca\xe0\xbf0\xf3\xe0\x99\xad\x8e\xb1\xbf\x9c\xb3\xf0\x00Gp\xe2?\x03\x12\xc0\x86j}\xc5\xbfB\x7f\xc66c\xa8\xd2?\x0c\x10\x90\xc7\xb29\x91\xbf(\xd9\xe2\xfa\xa5\x0e\x95?X\xf6\x01t\xea\xc6\xe0?\xac\xa6;\xf8\x97Z\xe0?s\x17\x9as\xa1%\xe2?-\x18+t\x8b\xb6\xcb\xbf\x11_\xf6\x1f\xdbM\xc4\xbf\xbe\xac\x1bS\x83\x9a\xdc\xbf`\xbe\xb3B0C\xdb?2\n\xd1Z\x1fV\xe0?\x9a\x11*\xa4e1\xe0?$w\xe4$\x80\x17\xdb?K$\xa8\x9c!\xef\xe5?\xe1\xb6\xd4\x17\xae\x13\xac?\xe41\x8d]sG\xe6?AI\xbe\xcd\xa0\xf5\xb1?\xa2bS\x88\xca\xc7\xbc?\xcc\xdb}\x97$\x19\xd8\xbf3I\xaa\xa6\xcbH\xd6\xbf\x18e\x00\xee\xbb\xfd\xc8?\x95_\x81\xf6Q\xd9\xd8?\r\xf5P\x84\x9eG\xa3?M\x02\x9b\x1bg\x05\xd5\xbfK\xba\x98\x17\xd0\xd9\xdc\xbf\x80\xd5\xbc\x05kH\xe6\xbf\x06\x11\xffP\x8a\n\xc1\xbf\xeb\xda\xc2p+O\xe7?*)\xee\xc4O\xc4\xcd?\xa9\xdaX[V:\xe0?\xfc\xa65\xa1\xb1\x08\xb9?\x98\xbdW\xed\xd1\xa1\xbd?\x12\x10\xde\x10!\\\xdb?\xee\xd9&,\xe0x\xdc\xbf\xd6\x8c\xca\x8e\xee\xa6\xc4\xbf\x0b\xca\x8c_\xb8B\xc1\xbf\xf7\x15\x1e*{\x16\xc2\xbf\x0f\xa5\xe7#\xbb\x9e\xe4?:~\xde\xd2m)\xd6?\\\x87Cs\x97\x80\xc9\xbf\xb5\xee7\xee]\xbf\xce?=4\xc7\xbf\x8b\x9e\xbf\xbf\xe4\x1b\xbe\x0b\x1b9\xd7?\x02\xd8\xe9hK}\xc5?\x80p\x95W9\x91\xe6?/h\r\x97\xed\xb6\xd7\xbf0\x91P\x83\xd1_\xe0?\xfa\x16J\xdb\xbc\x17\xd0\xbf\xaa\xdf<N\xabz\xcd?\xeac\xaf\xa1\xc4R\xd3\xbfBb\xb7C\xe4J\xc6?\xd7\x1e\xf1\xb4\xb9\xea\xde\xbf\x7f\xd3\xf0(\xb4\xf3\xc8\xbf.\x86\x05\xa4\x97\xc4\xca\xbf\x1ap\x8f+\xc6.\xa6\xbf\xf4\x9c\x92Q\xe5z\xe2?\xaa\x84F\x80\xb4=\xe2\xbf9x\xb8"\x01\xa6\xca?2\xb8\x1b^\xf7R\xc0?\x11gtP\xfa\x95\xd8\xbf\xed*\x94@\xf9\xe9\xe7?\xbd\x99`\x1b\x14\xb5\xe4\xbf\xc4\x8bvl\xd9U\xa3\xbf+\xa2\xd5\xc10[\xc0?)\xb6\x85,D\x90\xd5\xbf@\xaa\xef?B\x04\xe5?y$\x90P|Q\xc8?\xd3\xb7z\xccg:\xa9\xbf0\'A\xaeTZ\xc6\xbf\x83}D\x0e\xe3\x96\xdd\xbf\x1c\x07\xaf\xc5.\xc4\xce\xbf\'\xc1=\x0ex\xaf\xe4?\'\xe3(\x91\x88\xf4\xe3?\xe8\xacL\xf1~\xfe\xd3?t\xd3F|\xb4\xf1\xe2\xbf \x1d\x98o\xcal\xe4\xbfe\x92\x14tc~\xe4?:\xa3\xfa\xc9\x8cE\xd1?\x83\xa9>\xc5\xd5v\xe2?ji\xe1 \xb4q\xc4\xbf\x001N>\x8e\xf3\xe1\xbf\x1d\xa8W\x95\xf3v\xcb?\xc4P\'\xf7\xac\xdf\xd3?\x84y\x9b\xe0\x9eI\xd7\xbf\xe7\xd6.\xb6\xbc\xcb\xd6\xbf\xda\x0eU\x1dX\xee\xe1\xbf\xa7\x965c\xde\xcc\xd4\xbf\xba\x16S\x7f4\xd0\xc0?\xae\xa0\x18:\xe8\xb4\xde\xbf\xa3\xfacT\xf7u\xde?F\x81\xbc\x86\xf6\xba\xe5?\x81\xc4\x14\xc1\xdf\x99\xe4?\x11\xf5\x86[\xdcB\xd7\xbf!\xdd\x9euwI\xba?\xad\x9a\xccr\xdf~\xe3\xbf\xfe\xb8%\x0b\xeah\xd3?lS\xaeMtu\xb4\xbft_^\xda`G\xce\xbf\x93A\x04r\xba\x88\xd4?\x85\xa9\x87\x9a\t\x01\xe4?u(\xb0\xa2\x05\x98\xd9?w\xa9@\xe3\xd3\xdb\xdb\xbf-\xdf|\x8e\x11q\xe1\xbf\'W\xd4\r\xc5<~?\xd5\xb8&\x06\xd8x\xc4\xbf\xaatm\xb9d\x96\xae\xbf\xd1\xf4\xc9\xcb\x13\x83[\xbf\x0f\xc2\x11\x15\x0bn\xe2\xbf\xb6\x87\xed\xc6/\xb5\xc8?1\x0b\xb7\xf3\xaeU\xe1?]52\x86\xf6\xb8\xcd\xbf\x01\xe7\xd8O\xd8\xdd\xa8\xbf\x01\xfeI\xbd\xcf\r\xd5?\xe8\x1br%\xef`\x8a\xbf\x81JP\xe50\x18\xcd?\xec]nkM\x10\xdf\xbf\x94\xd9\xf3>Q#\xe0\xbf,\xf5\nT\x99\xa1\xe1\xbf"\xfe2En\xc9\xbb\xbf\x19\x8f\x05;Cd\xc3\xbf#m\xb3.\xd3;\xcb?dGp\xb9\x06F\xe3?]\xc4\xa2\x05O\xb9\xd5?\xfe\xf1\'~>\xdd\xd7\xbf\xee2\xb0o\xda\xca\xdd?\xd8&,\x15\xb7\xfc\xe1?]\x9a\x91X\x84%\xd7\xbf[\xa90\xe7\xdb\xba\xe0?!|\n\xe5\xc8~\xd5?_Q\x89\x9f\\\xd3\xd9\xbf\xdb\x86?\x1a\x85^\xac?\x03:\xe2.\xf9G\xe1\xbf\xbe\x98\x19\x9a\xd1\xbf\xb6\xbf\x8b\xf5\xd9\xc1h\xf2\xd6?\rx\x9d\xa6\x8c\xcf\xab\xbf\x19\x98o\x9cZ5\xe5\xbf4\xd89\x11\xf6+\xe9?\xfce\x87Ce\xfc\xe3\xbf\xb3\xc5%\xe3u\xf6\xe1\xbf\x19\xf0\x1c\xbaH5\xcc\xbf9[\x0f\x8c\x16\xc5\xdb\xbf\xb28\xd37\xe6u\xc4\xbfI\xaf>\x94\x98\x0f\xd8?\xeavt\x13\xc8\x87\xbd\xbf\xfa\xd9^\x85{\\\xe1\xbf;\xe5\xd9k\xed\x05\xd3??0pd@\xf9\xae\xbf\xea\xfbU9Hy\xc0?\xad\x97\x9c&\x10\xb9\xe5\xbf\xd9\xf7\xcf\xbdrZ\xe1?\xe7$A\nz\x83\xc4\xbf\xa6\x7f\xc8\xe9\x04\xbd\xcc?\xf8\xbaC\xd5\x82B\xe1?\tQ\x97}\xce\xa0\xe0?2\xef=\xd1=\xd3\xe0?{\x0f\x04CB\xd5\xd3\xbf\xba\xff\xc3\xfb\xbb\x0c\xdc\xbf9`z\x1aFV\xe5\xbf\xdc\xf8@\xb5\xb8\x0c\xe6\xbf2\xa1c\x18C|\xd7\xbf\x13\xf7\x9d\xa9\x98\x0c\xde\xbf\xb0\xc9_\xd2\xe9\x00\xd0\xbf\x85~X\xfc\x84\xa9\xd2\xbf\x87\x02A\x0c>\xb2\xe2?\xb5\x1c\x80\xba\xb8\xf1\xbd\xbf\x06\xe5\x01\xed\xbc\x07\xd3\xbf^Qs\x04\x0c|\xc0\xbf\x0b\x19\xb1\x9d3\x80\xd7?\x1c\x16\x7f\xf9\xd8X\xcb?\x05;;U%b\xdc?\t\xb4\r\x9f\xb0\t\xd2\xbf\x02h\xa8\x82\xaf\x93\xce?\x02\xc0S<GH\xcb\xbf\xf3\x82\x14\xe7o\xef\xe5?`\xea\xaa!\xda\xa9\xd7\xbf\x9d\x19\x18_\xfc\x97\xd5?J\x0b\xd2\xc7u\xba\xcf?\x10\xc1Q\x90\x0e\x1b\xbc?\xecp\xdd\n\xec:\xdc\xbfm\x90\xf1\x9ahe\xdf?\xdb\xdcWn\xa9\x17\xe3?\xfd\xc7m9\x1a\xbf\xd6\xbf\xc8\xe3W\x9c[\xee\xd5?\xda\x14\x1d=\xdes\xd1?\x876\x87z\xcf\xd8\xbb\xbfA\xc4\xc3\x08x\x1d\xc8?\xa9%\xf0{f\xc5\xdb?\x14T\x7f\x95\x05\x9a\xd9\xbf\x19\x00QL]\xce\xd0\xbf\xc7\x99\xcf\xdb\xe3\xb3\xe3\xbfJ\x7f3\xa1\'\x91\xd0\xbfK\x98\xa2\xff\x8f\x03\xe4\xbf\xe3\x10A\x1e\xbc%\xcd\xbf\x18\xc5\xb8\x98f\xeb\xdb?Y\x9e\x1e{:\xc8\xd4\xbf\x07Z\xc1[\xe9\x8e\xd3?5\xe2\xa0\xd2\x0b\xc0\xd8?\x94\x8b\xed\xf8\xaeB\xbc\xbf`\xaf\xberdo\xd6?\x00\x1c"\xb5u\x95\xda?nj\xd3\xb1\xd15\xe1?\x15\\[\xe7 \xc4\xda?\xa4r\x15\xa5\xd4\x80\xcf?\xa7\xa4\x82WG\xe8\xe2?\x14X\x8e\x88j\x9fu?\x0c\xb0\xbf\xb6\xc4\x9f\xd1?\x87\x8cz|\x85#\xe3\xbf\xfa\x91\xa5B\xd1e\xe1?a\x8e\xb4\xa0\x15\xfc\xe2\xbf\x7f\xd3\x00\xafT\xc2\xe2?\xfdJ\xe8\x96\xda5\xc2\xbf\x94}\x18u\xe2\x03\xe2?\xef\xb0\x96\x12\xad\xc8\xd6?\xf9\xcbn\x12s\xd7\xd8?R\x02\xfa$\x87\xf8\xdc?\x885\t4K9\xe4?\x93\xebu\x94\xe1\xb4\xe2\xbf\x0b\x07\xd3\xe4*\'\xc6?%\x06\xcc\x1b\xfe\x83\xd6\xbf\x86\xd6N\xccxy\xd2\xbfQr\xd06g\x07\xc7?\xdb\x15\xb2\x81i\xb5\xe4\xbf<W\xe8@U\xbd\xe4?\xf8\x14\x0b\xffsg\xdd\xbf\x1a\xc1\x00S>\xd4\xd6?\xb3BJ\x1erF\xb0\xbf\xb3\xd2g)/E\xa4?\x89\x89R\xa0%4\xc1?\x0f}\xffdU\x8c\xaf?\xcb\xd8\xcct\x1c\t\xdd\xbf>\x8fEm\xce\xbd\xde?2B\x9e\xf2\x13\xd6\xc9?+\x14\xd0\x03\xa2+\xb9?\xe6\x91\x0e\x963.\xd3?\xcf\xb2./\xe5\xdc\xd9\xbfq\xd1\nk\xeb\xb1\xe2?\x14$jk\xb4\xab\xd2\xbf\xfe\xf2wt/V\xb0\xbf\xbb;\xaed\x9es\xd6?\xcf\xbc\xc0\xc2\xfa\x9a\xbd?V\xcdf\xd0K;\xb1\xbf\xf3\x89\x8f^2q\xdf\xbf,\xeem\xdf\xcd\xbd\xd6\xbf\xaf\xdbW\xe0\xb2\xbb\x9b?\xd8$e\x92\x16x\xd9\xbf\x9c\xe0\xce\x8a\xef^\xe3\xbfb\xb4f\xdb\xd7\xea\xb7? \x94lT\xff\x03\xe3?q\xb6\xa9,}\xe2\xb4\xbfB\xb2f\x87\xd8\xf0\xd5\xbf#@eu^\x95\xd7?\xc1\xbb\xfd\xb5\x82\xc0\xd3\xbf\xe9\xc1]\x85\xac\xe2\xd1\xbf\xd6\xef\x00(/\r\xde?\xe9\xd6-UZ=\x80?\'\x002\'\xa6\xe4\xc0?PC\xe4\x8c\xef}\xc3?\xad\x17VuU\xb3\xe3?K\xbf[FLv\xe2?q\xfbM\xe4\x97\xe5\xe3?\x88A+\x0ev\xd9\xe0\xbf\xe4\xe8\x83b\xdd\xd7\xe3\xbf\xc0?\xcd\x80\xde6\xdb?\xb8\x90\xf4\xaf\xca\x8a\xd8\xbf:\x8co\xcb\x8a\xe6\xe3\xbf\x1cHA\xe8\x1dH\xda?A;E\xa8\x01\xc1\xd0?\xacNB\xd0\xca\x7f\xca?\xc4\x87\xc1Q\xdf\xca\xd1?\xcex\xa4\xf5\x9cg\xe0\xbf\xab"\xed\xeb\x98;\xd0?_\x96\xd28\x18\xdb\xa7\xbfrw\xba\xa7\xdf\x81\xd5?\x14\x97\xff<\r\x19\x92\xbfp\xe3P\x9c\xc4\xee\xc7\xbf\xe5\x0c;\xc0\x01~\xbb?k\xfe[A\n\xe2\xe2\xbf\xe3\x8drL@\xf3\xe2\xbf`7\x9a\x9f6e\xe0\xbfomI\xe82\xc4\xe3\xbf\x05\x08\x8a\x9c\xfa\x91\xd4\xbf|\xfa\xc4\xb2\x90\xd3\xe0?\xe9L{\xcc\xa9\xc7\xcd\xbfW8\xb4_\xb4\xe8\x8a\xbf\xdaoa\xe3/\xd9\xdf?\xd5\xa1\x18kdC\xe4\xbf\xc6\x07\xab\xf9\x11>\xd7?`\x1c\x91F\xd7\x06\xcf?\x1a\x16y\xd56L\xcc?\xa5\xc6\xbb\xd0\x1d\xdf\xe3\xbf\xa4d\xd9bSd\xdb?\x96\xc8\x0e\xeb\xd8\xae\xe2\xbfD5|e|\xa6\xd8\xbf\x0e.\xa0\xc4\x11\x81\xd8?\xa9*#s\xafF\xe0\xbf\x1aK?\x0eK\xbe\xd1?]\xb0\xa5\x17\x17r\xe1?M\x9e\x88\xf6\x00\xf9\xde\xbfj\xe4\xab\xc2\xad%\xd9?\xe5\xd9\x82\xdbN\xad\xe4?1n\x16x\xc3\xd8\xe2?S\xb7\xe52\xdb\xd6\xd1\xbf\xecR\x9d\x8a\\4\xe1\xbf\xe5\xa4\xf8f\xe3\xee\xb8?\xcf\x01\x1a\xe6\x80\xfb\xe5?u\t\x96[2\xac\xe2?\xd2-\xd7td`\xca\xbfcQ\xc0\xae\xcf\xbe\xda\xbf\xde5\x82\xdf\xfd\xc5\xc0\xbf]\xf0\xc7f\x02\x98\xbb?\x9co\x11\x9d-+\xd2?k\xceY\x0f0\xc6\xd2?.G<\xee\xd6@\xbc?\x14\xf6kx\xdc|\xb7?b\x97\xfd\xa4\x18S\xdb\xbf\xbc\x8a\xb0\x89\xf5O\xe4?\x9fk\xfe\xd9\xff\xa3\xd6?\x17\x10I\xaa\xb5e\xcc\xbfp5\xf8\xf0f\xab\xe0?\xe3\xc2\x03\xd9\x95\xa0\xca?\xc2\xf72\x18E\x7f\xdd\xbf\x87\xe4\xb0Sb}\xd7?\xbb\xe1Z0\xbd\x9b\xe5?k\xf0\xe2\xf5\xb7\xda\x94?\xef\xfe*#\x96\x90\xa9\xbfl\xe4\x12\\\x9c\xfb\xdc?\x90\x9a\xc9\xb8\xfc\xc1\xc1?\x8fc\xf4s\x9e\x84\x87?b\x02\x8b\x89p\x0f\xe4\xbf\xf9\xdd\xc5\xf6\x7f:\xbe?c\xda\xfdRIJ\xb7\xbf\x88\xc7"\x80\x8e\x9c\xc3?\x81IhB9y\xd5\xbfs\x85\x8cn\xcd\xd7\xe3\xbf\xa0\xfd\x90{G\xc3\xd1\xbf5\xeb\xd6\x11\xe5*\xb2?`),\xe2\x93\xd3\xbc?\x9f\x8f\n\xc9\xd3?\xdd?\xd9\xc2A\xa6\xa7\xa2\xe0?X\x16\x8fQy\x85\xd9?\x84vs\xf3\xe2\xfa\xd5?a^\x02K\xe0\xa6\xda\xbf+\xe0+T\xef%\xe3?,\xf3\x8b|Wb\xe1?YG\x00\xb6,\xc5\xe0\xbfy\x9d\xcc\xed]\x1d\xe1\xbf)\x175\xa3\x88\x08\xe3?\x1c\x96\x1a\x8e\xd0&\xe3?2\xd1\xc0\xff\x80X\xd4?DYQ\x83\x9c\xd0\xd8?\xf3\xd7\xc9y/\xdb\xe3?H[\xee\xc7c\xc6\xd8?rU\x8a\x9d\xd8\x9f\xc5?\xdf\xd7\xf9\x0e\xa0\xbf\xd1\xbf\x12\x8d6\tE9\xe4\xbf\nJ\xe0K2A\xdf?_\xa6\x18\xbb\xf0\\\xa8\xbf\x9e\\_\xc2h\xb5\xc7?\'\'\xec\x02[\xea\xe0?z\xac\xffQ\x9a6\xdc?\x17\xd0\x81\x08\xa7E\xb4\xbf\xd2\xf9zzu,\xd0\xbf\x03\xe2}\x7f\xf3M\xe3?d\xa9\x98:5B\xd0?[\xcbV\xf5\x14\x9c\xb3?R\xac(#\xd6\x85\xb6\xbf\xadMH\xfc\xf8!\xdc\xbfQ\xd0wD\xd6\x9f\xd8?#\x87\x90\xa6\x02\xcc\xb7\xbf\xd9T[\xf2\x03\xa3\xc9\xbf\xa5\xc3\xe0:\xdd\x8f\xe1\xbf\x8b+\xb6\x86\xb3\x07\xe4?\xe7\x9e\xddd\xe7\xa0\xcb?\xd6\x0751Nb\xde\xbf\x1c\xcf\xa8\xc8+\xf2\xe2?IG\xf0r\xd8\xad\xe4?\xec\xd1\xb3\x93.x\xe0\xbf\xa4\xd7\x9e\xedo\x98\xda\xbf\x07a\xe3&:\xa1\xdd\xbf\x893\xa7\xf2\x15\xec\xa4?^7\xfe\xce\xb3\xd0\xc0\xbf\xfbH\xc1\x96K\xca\xde?\x1e\x88K/O\xba\xd1\xbfOp\x8dR\xbd\x1c\xb0\xbf\x1e\x0e0)GB\xd4\xbf\x96-\x8aq\xe3\xa0\xd3?$\x00`\x99\xa5\x00\x91\xbf@@\xd5\xf9ax\xd2\xbfk\x9b\xe8\xd7\xd2\xc4\xc5\xbf\xbc\xcd#\x87\xa08\xc7\xbf\x82wC\x88\xf2\xbd\xdf?I\xc3\xd8\x07\x93\xd6\xe3?A\xceO&_\xd1\xdc?i\x80\\\xf7\xca\x86\xd8\xbf#\xc6\x94\x91\x0f\x95\xe3\xbf\xf4\x8d{\x913Z\xd4?\xc2\xfc\x10\xdb\x84h\xcb\xbf6\x96\xe40$\x92\xe3?\xcb\x1f\x94\x83E\xc5\xd1?\x83Pt\\GS\xd0?\x02\xaa\xf3c\x1c\x85\xc8?Qr`\xee\xd6\x93\xd2?\xa4\x7f\x8c\xc3\xe3\x11\xd1\xbfT\xffju\xae\xcb\xba?`\x91(\xba\xa2\x12\xca?\xe5*xsy\xd9\xe0\xbf\xb2\x8d\x9d\xa6\xf1\x1d\xb3\xbf\x0c\x80\xc1\xf4\x9e]\x9d?U~\xde\x16\x17\xb2\xd3\xbf\xbc\xea*\x85\xb8\xdd\xcd\xbf\xf6\n\xd5d\xb0\x92\xe2?\xbc\xa61.p[\xe3\xbf\xc5F\x838\x94b\xdf?\rx\r\xa6e-\xca\xbf~\x9a\\q\xa1\xd3\xe5\xbf\xf4e\xca{$\xfa\xd4\xbf\x06QL\xc9\x9c\x96\xdf\xbf\xd9R{\x14[9\xd1\xbf$8$\xa2A\x84\xe3\xbf\x10\xd5\x10\x8c"\x18\xe5?f\xaf\xb8\x96\xff\x8c\xd6?\x0e\x83,S\x83\xdc\xbf?\x9fA&\xc2\x18M\xd6\xbfI;\xae_>\x9f\xd0\xbf\xd1Q}\xdd\r\xe4\xc4?\xeb|\x8b\x01P\x84\xdf?itS\x16\xca9\xce\xbf\x9c\x0byr\x94\x89\xd2\xbf\x1c\x1eb7\xc9\xbb\xac\xbf3\x98\x8e\x0c\xb6L\xe0\xbf{\x12\xbc\x83\xb46\xd3?6\x03\xa9\x1cz\xd2`?\xefd\xdc\xde\x90E\xd9\xbf\xec\xf1\xe3\x86\x9c\x92\xe1?\x82\xf5\xad3h;\xc3?\x03\xfa\xb7\xe6\xc2!\xd8\xbf\xb78\xfa\xb2\xbc@\xcb\xbf\xa1o.\x97X\x18\xe5?\xbe\x1c\xe9\xb1\xa6G\xcc?&\x99\x93[@\t\xdc?^l\xff\x85\xde\xc9\xd9\xbf\x01\xf8\x96?\x9d\xd0\xe1\xbf\xb3\x82\xf5\xdfT:\xd8\xbf~ \xa3\xbbo\xf1\xd8\xbf\xf0\xbb&\xdc\xaaS\xe2\xbf\xdf\x15D\x12#\x03\xe2\xbf\x89\x82@Ws%\xe3\xbf\x89\xa1\xd6\x1bc\x04\xe4\xbf7O\x15\xc6U\xae\xb0\xbf\xf6I\xf3D\xb1\x0f\xe1?'
p60
tp61
bssS'transf'
p62
(ineurolab.trans
TanSig
p63
(dp64
bsS'out_minmax'
p65
g18
(g19
(I0
tp66
g21
tp67
Rp68
(I1
(I19
I2
tp69
g28
I00
S'\x00\x00\x00\x00\x00\x00\xf0\xbf\x00\x00\x00\x00\x00\x00\xf0?\x00\x00\x00\x00\x00\x00\xf0\xbf\x00\x00\x00\x00\x00\x00\xf0?\x00\x00\x00\x00\x00\x00\xf0\xbf\x00\x00\x00\x00\x00\x00\xf0?\x00\x00\x00\x00\x00\x00\xf0\xbf\x00\x00\x00\x00\x00\x00\xf0?\x00\x00\x00\x00\x00\x00\xf0\xbf\x00\x00\x00\x00\x00\x00\xf0?\x00\x00\x00\x00\x00\x00\xf0\xbf\x00\x00\x00\x00\x00\x00\xf0?\x00\x00\x00\x00\x00\x00\xf0\xbf\x00\x00\x00\x00\x00\x00\xf0?\x00\x00\x00\x00\x00\x00\xf0\xbf\x00\x00\x00\x00\x00\x00\xf0?\x00\x00\x00\x00\x00\x00\xf0\xbf\x00\x00\x00\x00\x00\x00\xf0?\x00\x00\x00\x00\x00\x00\xf0\xbf\x00\x00\x00\x00\x00\x00\xf0?\x00\x00\x00\x00\x00\x00\xf0\xbf\x00\x00\x00\x00\x00\x00\xf0?\x00\x00\x00\x00\x00\x00\xf0\xbf\x00\x00\x00\x00\x00\x00\xf0?\x00\x00\x00\x00\x00\x00\xf0\xbf\x00\x00\x00\x00\x00\x00\xf0?\x00\x00\x00\x00\x00\x00\xf0\xbf\x00\x00\x00\x00\x00\x00\xf0?\x00\x00\x00\x00\x00\x00\xf0\xbf\x00\x00\x00\x00\x00\x00\xf0?\x00\x00\x00\x00\x00\x00\xf0\xbf\x00\x00\x00\x00\x00\x00\xf0?\x00\x00\x00\x00\x00\x00\xf0\xbf\x00\x00\x00\x00\x00\x00\xf0?\x00\x00\x00\x00\x00\x00\xf0\xbf\x00\x00\x00\x00\x00\x00\xf0?\x00\x00\x00\x00\x00\x00\xf0\xbf\x00\x00\x00\x00\x00\x00\xf0?'
p70
tp71
bsS'out'
p72
g18
(g19
(I0
tp73
g21
tp74
Rp75
(I1
(I19
tp76
g28
I00
S'{#\xdc\x9e<D\xcd\xbf\xb7\x04\xd9\xb7\xae\x19\xef\xbf\x14\xa2\x9a\xe8,\xff\xef\xbf?8\xcbu+\x19\xe4?\x9a\xfd\x99J\xa8\xa4\xe8?A\xb2A2w\xff\xef?\xfa\xe8\x9c\x94\x92\x96\xef?\x94\x7fq\x98_\xa7\xb1?.m=\x05\xa9\xb7\xc3?\xf1w\xb9\x92\x95\xc7\xca?A\x86\xb3\xad\xbc\x13\xea\xbf\xb6\x8b\x19X \xee\xef\xbf\xcc\n\xc9\xa2\xc7\x84\xef?Z\\U\xc3\xb7\xcb\xe4?\xbc\n\xcaN\x9a\xac\xef\xbf\x11?*\xbe\x0bR\xef?\xbf\x16\\\xcf|\xff\xef\xbf\x8fo\xf6p\t\xf0\xef\xbff\xec\xe4\xd49\xff\xef?'
p77
tp78
bsbag0
(g8
g2
Ntp79
Rp80
(dp81
g12
g13
sg14
I19
sg15
I1
sg16
I1
sg17
g18
(g19
(I0
tp82
g21
tp83
Rp84
(I1
(I19
I2
tp85
g28
I00
S'\x00\x00\x00\x00\x00\x00\xf0\xbf\x00\x00\x00\x00\x00\x00\xf0?\x00\x00\x00\x00\x00\x00\xf0\xbf\x00\x00\x00\x00\x00\x00\xf0?\x00\x00\x00\x00\x00\x00\xf0\xbf\x00\x00\x00\x00\x00\x00\xf0?\x00\x00\x00\x00\x00\x00\xf0\xbf\x00\x00\x00\x00\x00\x00\xf0?\x00\x00\x00\x00\x00\x00\xf0\xbf\x00\x00\x00\x00\x00\x00\xf0?\x00\x00\x00\x00\x00\x00\xf0\xbf\x00\x00\x00\x00\x00\x00\xf0?\x00\x00\x00\x00\x00\x00\xf0\xbf\x00\x00\x00\x00\x00\x00\xf0?\x00\x00\x00\x00\x00\x00\xf0\xbf\x00\x00\x00\x00\x00\x00\xf0?\x00\x00\x00\x00\x00\x00\xf0\xbf\x00\x00\x00\x00\x00\x00\xf0?\x00\x00\x00\x00\x00\x00\xf0\xbf\x00\x00\x00\x00\x00\x00\xf0?\x00\x00\x00\x00\x00\x00\xf0\xbf\x00\x00\x00\x00\x00\x00\xf0?\x00\x00\x00\x00\x00\x00\xf0\xbf\x00\x00\x00\x00\x00\x00\xf0?\x00\x00\x00\x00\x00\x00\xf0\xbf\x00\x00\x00\x00\x00\x00\xf0?\x00\x00\x00\x00\x00\x00\xf0\xbf\x00\x00\x00\x00\x00\x00\xf0?\x00\x00\x00\x00\x00\x00\xf0\xbf\x00\x00\x00\x00\x00\x00\xf0?\x00\x00\x00\x00\x00\x00\xf0\xbf\x00\x00\x00\x00\x00\x00\xf0?\x00\x00\x00\x00\x00\x00\xf0\xbf\x00\x00\x00\x00\x00\x00\xf0?\x00\x00\x00\x00\x00\x00\xf0\xbf\x00\x00\x00\x00\x00\x00\xf0?\x00\x00\x00\x00\x00\x00\xf0\xbf\x00\x00\x00\x00\x00\x00\xf0?'
p86
tp87
bsg33
g75
sg40
g18
(g19
(I0
tp88
g21
tp89
Rp90
(I1
(I1
tp91
g28
I00
S'\xf5\xf0\xe0aw\xba\xd1?'
p92
tp93
bsg47
(dp94
g21
g18
(g19
(I0
tp95
g21
tp96
Rp97
(I1
(I1
tp98
g28
I00
S'\xec\xe0\xd2\x85\xf1V\xcb?'
p99
tp100
bsg55
g18
(g19
(I0
tp101
g21
tp102
Rp103
(I1
(I1
I19
tp104
g28
I00
S"\x86\x9d\x0c\x07\xd6\x99\xc3\xbf\x8c\x83\x1fJ\xa0`\xe4\xbf\xd1\xef\xbf\xc2\x93<\xe7\xbf\x9a\xcdT\xb7\xb0\xa2\xa4\xbf!\xbc\x01(\xdd\x99\xce?\xd6\xc6(=\xed\x86\xa5?\t#\xda\xe9\xbe\x81\xed\xbf\x98G\x17\xc6\xae\x94+?\xd3+\xe5\xac[\xab\xb6?'\xf9\xcf\xf5iJ\xc6\xbf\xbaWw\xd8\xcc\x8b\xbd?\xc5\xb3\x1a\xb0(&\xd3?\xf7\xa8\xa3\x81PV\xbb?]\x03$\x16~\x10\xcf\xbf\x0e\xb8\xf9\x9a}\xc2\xb4\xbf\x94\xeb\x93\x86\xd7h\xab?\x9e\xbf\x1d=\x92\xcf\xb7?\xec\xbc[\xe4V\xff\xb2\xbf\x1c\x7f=\xdc81\xd0\xbf"
p105
tp106
bssg62
g63
sg65
g18
(g19
(I0
tp107
g21
tp108
Rp109
(I1
(I1
I2
tp110
g28
I00
S'\x00\x00\x00\x00\x00\x00\xf0\xbf\x00\x00\x00\x00\x00\x00\xf0?'
p111
tp112
bsg72
g18
(g19
(I0
tp113
g21
tp114
Rp115
(I1
(I1
tp116
g28
I00
S'\xe27\xc9\xed\xd6I\xd1?'
p117
tp118
bsbasg14
I53
sg15
I1
sg17
g18
(g19
(I0
tp119
g21
tp120
Rp121
(I1
(I53
I2
tp122
g28
I00
S'\x00\x00\x00\x00\x00\x00\x00\x00\x00\x00\x00\x00\x00\x00\xf0?\x00\x00\x00\x00\x00\x00\x00\x00\x00\x00\x00\x00\x00\x00\xf0?\x00\x00\x00\x00\x00\x00\x00\x00\x00\x00\x00\x00\x00\x00\xf0?\x00\x00\x00\x00\x00\x00\x00\x00\x00\x00\x00\x00\x00\x00\xf0?\x00\x00\x00\x00\x00\x00\x00\x00\x00\x00\x00\x00\x00\x00\xf0?\x00\x00\x00\x00\x00\x00\x00\x00\x00\x00\x00\x00\x00\x00\xf0?\x00\x00\x00\x00\x00\x00\x00\x00\x00\x00\x00\x00\x00\x00\xf0?\x00\x00\x00\x00\x00\x00\x00\x00\x00\x00\x00\x00\x00\x00\xf0?\x00\x00\x00\x00\x00\x00\x00\x00\x00\x00\x00\x00\x00\x00\xf0?\x00\x00\x00\x00\x00\x00\x00\x00\x00\x00\x00\x00\x00\x00\xf0?\x00\x00\x00\x00\x00\x00\x00\x00\x00\x00\x00\x00\x00\x00\xf0?\x00\x00\x00\x00\x00\x00\x00\x00\x00\x00\x00\x00\x00\x00\xf0?\x00\x00\x00\x00\x00\x00\x00\x00\x00\x00\x00\x00\x00\x00\xf0?\x00\x00\x00\x00\x00\x00\x00\x00\x00\x00\x00\x00\x00\x00\xf0?\x00\x00\x00\x00\x00\x00\x00\x00\x00\x00\x00\x00\x00\x00\xf0?\x00\x00\x00\x00\x00\x00\x00\x00\x00\x00\x00\x00\x00\x00\xf0?\x00\x00\x00\x00\x00\x00\x00\x00\x00\x00\x00\x00\x00\x00\xf0?\x00\x00\x00\x00\x00\x00\x00\x00\x00\x00\x00\x00\x00\x00\xf0?\x00\x00\x00\x00\x00\x00\x00\x00\x00\x00\x00\x00\x00\x00\xf0?\x00\x00\x00\x00\x00\x00\x00\x00\x00\x00\x00\x00\x00\x00\xf0?\x00\x00\x00\x00\x00\x00\x00\x00\x00\x00\x00\x00\x00\x00\xf0?\x00\x00\x00\x00\x00\x00\x00\x00\x00\x00\x00\x00\x00\x00\xf0?\x00\x00\x00\x00\x00\x00\x00\x00\x00\x00\x00\x00\x00\x00\xf0?\x00\x00\x00\x00\x00\x00\x00\x00\x00\x00\x00\x00\x00\x00\xf0?\x00\x00\x00\x00\x00\x00\x00\x00\x00\x00\x00\x00\x00\x00\xf0?\x00\x00\x00\x00\x00\x00\x00\x00\x00\x00\x00\x00\x00\x00\xf0?\x00\x00\x00\x00\x00\x00\x00\x00\x00\x00\x00\x00\x00\x00\xf0?\x00\x00\x00\x00\x00\x00\x00\x00\x00\x00\x00\x00\x00\x00\xf0?\x00\x00\x00\x00\x00\x00\x00\x00\x00\x00\x00\x00\x00\x00\xf0?\x00\x00\x00\x00\x00\x00\x00\x00\x00\x00\x00\x00\x00\x00\xf0?\x00\x00\x00\x00\x00\x00\x00\x00\x00\x00\x00\x00\x00\x00\xf0?\x00\x00\x00\x00\x00\x00\x00\x00\x00\x00\x00\x00\x00\x00\xf0?\x00\x00\x00\x00\x00\x00\x00\x00\x00\x00\x00\x00\x00\x00\xf0?\x00\x00\x00\x00\x00\x00\x00\x00\x00\x00\x00\x00\x00\x00\xf0?\x00\x00\x00\x00\x00\x00\x00\x00\x00\x00\x00\x00\x00\x00\xf0?\x00\x00\x00\x00\x00\x00\x00\x00\x00\x00\x00\x00\x00\x00\xf0?\x00\x00\x00\x00\x00\x00\x00\x00\x00\x00\x00\x00\x00\x00\xf0?\x00\x00\x00\x00\x00\x00\x00\x00\x00\x00\x00\x00\x00\x00\xf0?\x00\x00\x00\x00\x00\x00\x00\x00\x00\x00\x00\x00\x00\x00\xf0?\x00\x00\x00\x00\x00\x00\x00\x00\x00\x00\x00\x00\x00\x00\xf0?\x00\x00\x00\x00\x00\x00\x00\x00\x00\x00\x00\x00\x00\x00\xf0?\x00\x00\x00\x00\x00\x00\x00\x00\x00\x00\x00\x00\x00\x00\xf0?\x00\x00\x00\x00\x00\x00\x00\x00\x00\x00\x00\x00\x00\x00\xf0?\x00\x00\x00\x00\x00\x00\x00\x00\x00\x00\x00\x00\x00\x00\xf0?\x00\x00\x00\x00\x00\x00\x00\x00\x00\x00\x00\x00\x00\x00\xf0?\x00\x00\x00\x00\x00\x00\x00\x00\x00\x00\x00\x00\x00\x00\xf0?\x00\x00\x00\x00\x00\x00\x00\x00\x00\x00\x00\x00\x00\x00\xf0?\x00\x00\x00\x00\x00\x00\x00\x00\x00\x00\x00\x00\x00\x00\xf0?\x00\x00\x00\x00\x00\x00\x00\x00\x00\x00\x00\x00\x00\x00\xf0?\x00\x00\x00\x00\x00\x00\x00\x00\x00\x00\x00\x00\x00\x00\xf0?\x00\x00\x00\x00\x00\x00\x00\x00\x00\x00\x00\x00\x00\x00\xf0?\x00\x00\x00\x00\x00\x00\x00\x00\x00\x00\x00\x00\x00\x00\xf0?\x00\x00\x00\x00\x00\x00\x00\x00\x00\x00\x00\x00\x00\x00\xf0?'
p123
tp124
bsg33
g36
sS'trainf'
p125
g0
(cneurolab.core
Trainer
p126
g2
Ntp127
Rp128
(dp129
S'_train_class'
p130
cneurolab.train.spo
TrainBFGS
p131
sS'__module__'
p132
S'neurolab.train.spo'
p133
sS'params'
p134
(dp135
S'epochs'
p136
I2000
sS'train'
p137
(dp138
S'rr'
p139
I0
ssS'goal'
p140
F2e-05
sS'show'
p141
I0
ssS'defaults'
p142
(dp143
g136
I500
sg137
(dp144
g139
I0
ssg140
F0.01
sg141
I100
ssS'error'
p145
(lp146
cnumpy.core.multiarray
scalar
p147
(g28
S'\xb2\x13\x1e\x1eP\x9c\x00@'
p148
tp149
Rp150
ag147
(g28
S'3 1/H\x14\xf7?'
p151
tp152
Rp153
ag147
(g28
S'\xb1\x88\xb0\x07\x8f\xca\xe6?'
p154
tp155
Rp156
ag147
(g28
S'\xa1\xdb\x907\x12 \xdd?'
p157
tp158
Rp159
ag147
(g28
S'\x8e\nEMH\xae\xd9?'
p160
tp161
Rp162
ag147
(g28
S'[(\x133#3\xd4?'
p163
tp164
Rp165
ag147
(g28
S'\xb3\xbccB(B\xcb?'
p166
tp167
Rp168
ag147
(g28
S'\x82\x14>\x9e(\x00\xc4?'
p169
tp170
Rp171
ag147
(g28
S'I\xd8\xe0`\x9f\x8f\xc2?'
p172
tp173
Rp174
ag147
(g28
S'\xaedaEp\x1b\xc0?'
p175
tp176
Rp177
ag147
(g28
S'\x01\xa63@\xb8$\xb8?'
p178
tp179
Rp180
ag147
(g28
S'\x15\x92\xd8o\xad\x85\xae?'
p181
tp182
Rp183
ag147
(g28
S'\xe6@\x9a\x13\xf31\xa9?'
p184
tp185
Rp186
ag147
(g28
S'c\x87\xc8\tq~\xa2?'
p187
tp188
Rp189
ag147
(g28
S"\x16\xfc1\x81'%\xa0?"
p190
tp191
Rp192
ag147
(g28
S'\xe9\x0e\x9d\x8e\xdfg\x99?'
p193
tp194
Rp195
ag147
(g28
S'\xd5\xdfx\x92\xde\xd8\x94?'
p196
tp197
Rp198
ag147
(g28
S'tG1\xc3\x07\x80\x90?'
p199
tp200
Rp201
ag147
(g28
S'\x1d\x03\x91:7\xfc\x8b?'
p202
tp203
Rp204
ag147
(g28
S'Er"}\x85\xd3\x85?'
p205
tp206
Rp207
ag147
(g28
S'X\x99\xd4\x16\x99#\x83?'
p208
tp209
Rp210
ag147
(g28
S'2\xe7\x07\xefB:\x80?'
p211
tp212
Rp213
ag147
(g28
S'`S;y\xe3\x10x?'
p214
tp215
Rp216
ag147
(g28
S'y\x17:\xdf\xa9\xb0q?'
p217
tp218
Rp219
ag147
(g28
S'\xcf\xa5H8\x93\x8cl?'
p220
tp221
Rp222
ag147
(g28
S']E\x89h/wj?'
p223
tp224
Rp225
ag147
(g28
S'\xa4\x87;13\x1ag?'
p226
tp227
Rp228
ag147
(g28
S'\xda\xe8\xc6V&&c?'
p229
tp230
Rp231
ag147
(g28
S':\xc9\xcf#+8a?'
p232
tp233
Rp234
ag147
(g28
S'N\x92\xec\xfa^m\\?'
p235
tp236
Rp237
ag147
(g28
S'\xdd\xa9\xd6\xecU\x08V?'
p238
tp239
Rp240
ag147
(g28
S'\x81c)\x02\xab\x03S?'
p241
tp242
Rp243
ag147
(g28
S'\x88Q\xaa\xafP=P?'
p244
tp245
Rp246
ag147
(g28
S' 3\xfdV\x83\x8fK?'
p247
tp248
Rp249
ag147
(g28
S'C0\xe4kE\xd2F?'
p250
tp251
Rp252
ag147
(g28
S'\xe3Tu\xdeW\x15C?'
p253
tp254
Rp255
ag147
(g28
S'\xd5:E\xfeu\xd8??'
p256
tp257
Rp258
ag147
(g28
S'V`\x9f\x14\x9de:?'
p259
tp260
Rp261
ag147
(g28
S'\x13\xaa\x8f:\x8c\x145?'
p262
tp263
Rp264
ag147
(g28
S'\xf9r\xc3\xfc3m1?'
p265
tp266
Rp267
ag147
(g28
S'\x85\xd4U\x12\x91\xb1.?'
p268
tp269
Rp270
ag147
(g28
S'\x80\xb9:\xd1K;+?'
p271
tp272
Rp273
ag147
(g28
S"\xa0\xae\x8b/\x8at'?"
p274
tp275
Rp276
ag147
(g28
S']X\xbc3Vu#?'
p277
tp278
Rp279
ag147
(g28
S'Ch\xdb\xa1J\xef\x1f?'
p280
tp281
Rp282
ag147
(g28
S'\xbc\xc3\x9a#\xfe\xe1\x1a?'
p283
tp284
Rp285
ag147
(g28
S'\x1c\x06\x85j%\x11\x17?'
p286
tp287
Rp288
ag147
(g28
S'\x10\nn\x1eE\x83\x13?'
p289
tp290
Rp291
ag147
(g28
S'\xfeY=^\xe6 \x10?'
p292
tp293
Rp294
ag147
(g28
S'9\xb5\x1f\xf4Q\x80\n?'
p295
tp296
Rp297
ag147
(g28
S'\xc3)\xda\xedan\x06?'
p298
tp299
Rp300
ag147
(g28
S'\x06\x8eM\x01\xacy\x03?'
p301
tp302
Rp303
ag147
(g28
S'+j\x9f\n\xfd\xd7\x00?'
p304
tp305
Rp306
ag147
(g28
S'\x0cM*\xfco\xe9\xfb>'
p307
tp308
Rp309
ag147
(g28
S'D\x12\x0fc\xd5A\xf6>'
p310
tp311
Rp312
ag147
(g28
S'\xf8\xf8\x10\x0b\xe5\xe4\xf1>'
p313
tp314
Rp315
asS'__name__'
p316
S'TrainBFGS'
p317
sS'__doc__'
p318
S'\n    Broyden\xc2\x96Fletcher\xc2\x96Goldfarb\xc2\x96Shanno (BFGS) method\n    Using scipy.optimize.fmin_bfgs\n\n    :Support networks:\n        newff (multi-layers perceptron)\n    :Parameters:\n        input: array like (l x net.ci)\n            train input patterns\n        target: array like (l x net.co)\n            train target patterns\n        epochs: int (default 500)\n            Number of train epochs\n        show: int (default 100)\n            Print period\n        goal: float (default 0.01)\n            The goal of train\n        rr float (defaults 0.0)\n            Regularization ratio\n            Must be between {0, 1}\n\n    '
p319
sbsS'connect'
p320
(lp321
(lp322
I-1
aa(lp323
I0
aa(lp324
I1
aasS'errorf'
p325
(ineurolab.error
SSE
p326
(dp327
bsg65
g18
(g19
(I0
tp328
g21
tp329
Rp330
(I1
(I1
I2
tp331
g28
I00
S'\x00\x00\x00\x00\x00\x00\xf0\xbf\x00\x00\x00\x00\x00\x00\xf0?'
p332
tp333
bsg72
g115
sb.