Target,Output
0.122186495177,0.0677517660888
0.0450160771704,-0.0286760840751
0.0675241157556,0.0212459207374
0.154340836013,0.171255798501
0.646302250804,0.0747822526172
1.0,0.803407581003
0.848874598071,0.266819005608
0.729903536977,0.795165049329
0.697749196141,0.616983207635
0.588424437299,0.189748600298
0.51768488746,0.683114220629
0.398713826367,0.299668327486
0.565916398714,0.493373447535
0.627009646302,0.503286419293
0.630225080386,0.570340957356
0.578778135048,0.697289550207
0.443729903537,0.811403028853
0.221864951768,0.826351516053
0.0900321543408,0.858219147273
0.12540192926,0.986788123786
0.0707395498392,0.719387102232
0.0932475884244,0.770622234162
0.0771704180064,0.776327326647
0.102893890675,0.946052984897
0.141479099678,0.122483818361
0.128617363344,0.0105093011491
0.147909967846,-0.00693067041575
0.32154340836,0.0617053366018
0.565916398714,-0.415286790445
0.553054662379,0.095773322995
0.372990353698,-0.993026656096
0.20578778135,-0.679372226546
0.405144694534,-0.99952134855
0.691318327974,-0.842524238678
0.652733118971,-0.907041140251
0.520900321543,-0.937309714552
0.43729903537,0.969955930888
0.334405144695,-0.63050385969
0.395498392283,0.998969201296
0.585209003215,-0.449799027678
0.530546623794,0.999887002802
0.318327974277,0.979986236796
0.11575562701,0.999313721476
0.131832797428,0.746810120365
0.154340836013,-0.330283661389
0.0450160771704,0.319554431487
0.122186495177,-0.819964465212
0.170418006431,0.90062893331
0.0610932475884,0.305564917083
0.0450160771704,0.0179325584164
0.141479099678,-0.114245239904
0.157556270096,-0.114388616356
0.327974276527,0.0543489900833
0.308681672026,0.0184132691272
0.35691318328,0.245884755443
0.302250803859,0.302766649249
0.421221864952,0.556388805418
0.543408360129,0.741287112043
0.48231511254,-0.13027980762
0.215434083601,0.903355560222
0.118971061093,-0.995042575499
0.128617363344,0.942644359198
0.08038585209,-0.998907778222
0.218649517685,0.82679872843
0.151125401929,-0.9997842592
0.109324758842,0.107014298752
0.08038585209,-0.999969143924
0.0996784565916,-0.567434366727
0.0546623794212,-0.966029838324
0.112540192926,-0.611166379315
0.0868167202572,-0.987203485859
0.096463022508,-0.899224834124
0.064308681672,0.170613789244
0.0450160771704,-0.0306939701207
0.128617363344,0.0613279329915
0.254019292605,0.0970811287221
0.199356913183,0.104884544382
0.221864951768,0.409687661346
0.369774919614,0.490495213828
0.350482315113,0.516667488669
0.270096463023,0.543280133662
0.331189710611,0.607045894958
0.228295819936,0.161046322292
0.308681672026,-0.0303628588702
0.176848874598,-0.155838078693
0.299035369775,-0.00104769419745
0.318327974277,-0.077010631496
0.128617363344,-0.300855360375
0.0836012861736,-0.112625213182
0.141479099678,0.0146258217138
0.128617363344,-0.272038178814
0.0514469453376,-0.185082672071
0.0739549839228,-0.101193912984
0.0192926045016,0.313745430951
0.0257234726688,0.859932692246
0.0418006430868,0.993966260032
0.0514469453376,0.000840784184395
0.032154340836,0.0870797179908
0.141479099678,0.13417146039
0.24115755627,0.172770449911
0.176848874598,0.145137768605
0.244372990354,0.237017125071
0.202572347267,0.218308291117
0.228295819936,0.133834284896
0.234726688103,0.109248814769
0.24115755627,0.153167870908
0.221864951768,0.391727953052
0.369774919614,0.521457473233
0.376205787781,0.648911753132
0.151125401929,0.0635216031106
0.0771704180064,0.350301723471
0.102893890675,0.66414885239
0.157556270096,0.494685380744
0.048231511254,0.243632068794
0.102893890675,0.174324410619
0.0450160771704,0.225905438902
0.0675241157556,0.63117975774
0.0546623794212,0.648090969714
0.11575562701,0.661689213362
0.0418006430868,0.256176854286
0.0,0.0679024608466
0.08038585209,0.0312528763948
0.118971061093,0.069233486862
0.176848874598,0.123884546524
0.244372990354,0.0598025266982
0.228295819936,0.219972790336
0.237942122186,0.334803387934
0.215434083601,0.477172257595
0.186495176849,0.548005380308
0.144694533762,0.15495025966
0.163987138264,0.0719840810571
0.299035369775,-0.0408320571068
0.40192926045,0.0167684151728
0.209003215434,-0.156002462118
0.112540192926,0.0148170068125
0.0996784565916,-0.0480331548505
0.163987138264,0.419016682266
0.064308681672,0.674135159727
0.0836012861736,0.360449000644
0.0996784565916,0.218320396454
0.0353697749196,0.375280392339
0.118971061093,0.723466066051
0.12540192926,0.94011753679
0.08038585209,0.79510241451
0.173633440514,0.120103094594
0.192926045016,0.117949368876
0.109324758842,0.0712061907139
0.180064308682,0.135666079881
0.173633440514,0.14232507985
0.16077170418,0.0602531103337
0.173633440514,0.238834390926
0.282958199357,0.265804987761
0.209003215434,0.3841976479
0.292604501608,0.286967175926
0.43729903537,0.337305593819
0.392282958199,0.358969571036
0.350482315113,0.313939773844
0.189710610932,0.212603638022
0.209003215434,0.238813908004
0.209003215434,0.152138680722
0.141479099678,0.0787436641194
0.209003215434,0.0912279202871
0.0418006430868,0.072838735659
0.064308681672,0.0352476548719
0.0514469453376,0.022233108939
0.0450160771704,0.11229793196
0.0707395498392,0.114090776485
0.199356913183,0.0641429844712
0.0675241157556,0.162021607135
0.0257234726688,0.114622823687
0.112540192926,0.146134420448
0.247588424437,0.220937976488
0.270096463023,0.22657349082
0.247588424437,0.0659032752749
0.340836012862,0.188133002256
0.395498392283,0.167539867134
0.440514469453,-0.0393228624694
0.392282958199,0.0556286210145
0.395498392283,0.187556575207
0.344051446945,0.381495123385
0.257234726688,0.533596935653
0.212218649518,0.41993016973
0.257234726688,0.309481763131
0.250803858521,0.226723606493
0.135048231511,0.0807586432035
0.154340836013,0.0714511338069
0.0707395498392,0.103132898925
0.048231511254,0.159908322926
0.0385852090032,0.0780748304348
0.0675241157556,0.0570732357842
0.16077170418,-0.0184637470221
0.109324758842,0.171470333742
0.032154340836,-0.0156477087096
0.0225080385852,0.0385098556266
0.138263665595,0.12517892194
0.147909967846,0.0731756100969
0.254019292605,-0.0506453662713
0.440514469453,0.17131373075
0.533762057878,0.177548059688
0.588424437299,0.356019160001
0.771704180064,0.707737790615
0.848874598071,0.31877859669
0.717041800643,0.750184591081
0.498392282958,-0.166977715674
0.40192926045,0.17301593325
0.266881028939,-0.814030527352
0.508038585209,0.375033240258
0.360128617363,-0.650609095456
0.141479099678,0.34694773181
0.102893890675,-0.974452621735
0.144694533762,-0.510133977591
0.112540192926,-0.998788241482
0.0771704180064,-0.734896025971
0.157556270096,-0.990809866435
0.157556270096,-0.983478685882
0.118971061093,-0.871356792189
0.0900321543408,0.0536602681779
0.0739549839228,0.0362281015746
0.0996784565916,0.168835362318
0.209003215434,0.0196250383395
0.273311897106,0.281772007732
0.24115755627,0.161325907618
0.266881028939,0.190916898769
0.292604501608,0.271820694712
0.254019292605,0.394092941963
0.270096463023,0.570864241547
0.418006430868,0.0219969543812
0.382636655949,0.604633290053
0.254019292605,-0.249882015744
0.144694533762,0.641897691057
0.263665594855,0.722521479097
0.254019292605,0.433444338275
0.221864951768,0.131792046157
0.12540192926,0.281031012909
0.0900321543408,0.774539111911
0.16077170418,0.576341677292
0.0514469453376,0.0373531582873
0.016077170418,0.63258820056
0.0418006430868,0.717319574029
0.109324758842,0.973777735313
