Target,Output
 0.07715134, 0.26715977
 0.16320475, 0.23333346
 0.26706231, 0.2199586
 0.22848665, 0.22042331
 0.21958457, 0.21404981
 0.29376855, 0.21383613
 0.34124629, 0.21874847
 0.5578635, 0.22260439
 0.65875371, 0.31276867
 0.82195846, 0.36457002
 0.68249258, 0.44537881
 0.47774481, 0.45165541
 0.36795252, 0.45386005
 0.22255193, 0.45188737
 0.25222552, 0.46256461
 0.09495549, 0.48605678
 0.16320475, 0.46145318
 0.09792285, 0.46145318
 0.10979228, 0.46127465
 0.10682493, 0.46188517
 0.16617211, 0.46646728
 0.22255193, 0.46816231
 0.10089021, 0.46465432
 0.04154303, 0.46115182
 0.13353116, 0.37103128
 0.05637982, 0.28356309
 0.11275964, 0.22943944
 0.115727, 0.17790394
 0.15133531, 0.17790394
 0.27596439, 0.15880466
 0.29673591, 0.18603619
 0.42136499, 0.18852498
 0.67655786, 0.25554002
 0.77744807, 0.35299484
 0.6379822, 0.4149706
 0.30267062, 0.42653544
 0.28189911, 0.43426937
 0.32047478, 0.4353461
 0.34421365, 0.44051494
 0.46884273, 0.44051494
 0.39169139, 0.45162426
 0.38575668, 0.45182744
 0.35608309, 0.46727369
 0.30563798, 0.52505533
 0.18991098, 0.52964673
 0.10979228, 0.48425096
 0.12759644, 0.44100688
 0.07121662, 0.4271963
 0.06824926, 0.36692613
 0.115727, 0.2917781
 0.1810089, 0.29177188
 0.27002967, 0.29177188
 0.26706231, 0.29177188
 0.3264095, 0.29177188
 0.25519288, 0.24639746
 0.34421365, 0.24571644
 0.28783383, 0.23707494
 0.23145401, 0.23079488
 0.5578635, 0.23054067
 0.40652819, 0.3201977
 0.39169139, 0.32688158
 0.23442136, 0.32688158
 0.11869436, 0.32688158
 0.31454006, 0.33076229
 0.46290801, 0.33125683
 0.33234421, 0.34035364
 0.31750742, 0.34035364
 0.31750742, 0.34035364
 0.26409496, 0.34035364
 0.10089021, 0.34035364
 0.04154303, 0.3383897
 0.08308605, 0.32674721
 0.115727, 0.32733987
 0.20771513, 0.28391228
 0.17210682, 0.28147473
 0.14836795, 0.26998246
 0.18991098, 0.26998246
 0.1810089, 0.26998246
 0.24035608, 0.26990868
 0.32937685, 0.21450028
 0.38575668, 0.21243839
 0.45994065, 0.23735898
 0.33531157, 0.27955771
 0.40652819, 0.27955771
 0.34421365, 0.28127989
 0.26706231, 0.29166359
 0.18694362, 0.29284538
 0.22255193, 0.30430319
 0.29673591, 0.30437923
 0.20474777, 0.30427706
 0.25816024, 0.3259082
 0.19287834, 0.3259082
 0.11275964, 0.33073872
 0.19287834, 0.29247919
 0.29970326, 0.29247919
 0.26706231, 0.29248504
 0.25222552, 0.25646592
 0.13946588, 0.25646592
 0.10385757, 0.23509516
 0.15727003, 0.20014294
 0.17804154, 0.20014294
 0.22848665, 0.20014294
 0.13649852, 0.20014294
 0.30860534, 0.20014294
 0.15133531, 0.20832661
 0.22848665, 0.20832661
 0.63204748, 0.20832661
 0.4925816, 0.34528156
 0.50148368, 0.36804869
 0.40356083, 0.3683544
 0.56379822, 0.37150572
 0.3115727, 0.37150572
 0.18694362, 0.37150572
 0.05934718, 0.37786
 0.17804154, 0.37167127
 0.08902077, 0.37167127
 0.11275964, 0.36501692
 0.0652819, 0.36501692
 0.10385757, 0.36509645
 0.05637982, 0.36461564
 0.09792285, 0.3637058
 0.05637982, 0.33675258
 0.10682493, 0.33675258
 0.07418398, 0.32291337
 0.13353116, 0.31243574
 0.14243323, 0.20340363
 0.14243323, 0.14240375
 0.48367953, 0.14142082
 0.34124629, 0.27243049
 0.1305638, 0.28956081
 0.17210682, 0.28956081
 0.3115727, 0.28342953
 0.32937685, 0.28414151
 0.16617211, 0.28414151
 0.03857567, 0.28414151
 0.10385757, 0.27883158
 0.0504451, 0.27868889
 0.07418398, 0.27868889
 0.0652819, 0.27868889
 0.09198813, 0.27868889
 0.10979228, 0.27868889
 0.09198813, 0.27868889
 0.04451039, 0.22062605
 0.15133531, 0.21261104
 0.03560831, 0.21261104
 0.09198813, 0.21206445
 0.1305638, 0.20977481
 0.09198813, 0.13342349
 0.15727003, 0.12865935
 0.27596439, 0.13084058
 0.8041543, 0.18400074
 0.31454006, 0.36989539
 0.12759644, 0.37206163
 0.05637982, 0.37206163
 0.08605341, 0.37206163
 0.16023739, 0.37206163
 0.15133531, 0.37083455
 0.27596439, 0.37083455
 0.51038576, 0.37083455
 0.53115727, 0.40978539
 0.25816024, 0.41933897
 0.14243323, 0.41933897
 0.20771513, 0.42026784
 0.08902077, 0.4135032
 0.15430267, 0.4129352
 0.12759644, 0.30778691
 0.05341246, 0.30729072
 0.07121662, 0.30629793
 0.08308605, 0.30629793
 0.09495549, 0.30629793
 0.17210682, 0.30587357
 0.13649852, 0.30587357
 0.16913947, 0.30605728
 0.27596439, 0.30141694
 0.33827893, 0.18986649
 0.87240356, 0.22143999
 0.24332344, 0.40976093
 0.39465875, 0.41348103
 0.42136499, 0.41254623
 0.34421365, 0.41839438
 0.08902077, 0.41839438
 0.16023739, 0.42432255
 0.25222552, 0.42674526
 0.31750742, 0.42757076
 0.16617211, 0.42736306
 0.10385757, 0.42819572
 0.05341246, 0.42753792
 0.09792285, 0.41937
 0.10385757, 0.41924678
 0.11869436, 0.41924678
 0.05934718, 0.26165008
 0.10385757, 0.26165008
 0.10385757, 0.25994959
 0.08605341, 0.22668648
 0.13649852, 0.20717935
 0.14540059, 0.20717935
 0.19881306, 0.20717935
 0.30563798, 0.20687741
 0.40356083, 0.19746515
 0.66172107, 0.24538392
 0.63501484, 0.35476896
 0.3768546, 0.3688255
 0.17507418, 0.36892522
 0.1958457, 0.36892522
 0.27002967, 0.36892522
 0.21661721, 0.37431932
 0.43916914, 0.37431932
 0.31750742, 0.37922964
 0.08605341, 0.38679267
 0.13649852, 0.37922964
 0.16023739, 0.37922964
 0.14243323, 0.37933914
 0.05341246, 0.37978075
 0.12166172, 0.37221911
 0.07715134, 0.35409539
 0.07715134, 0.27134182
 0.2462908, 0.26776211
 0.15727003, 0.26776211
 0.09495549, 0.26825779
 0.12759644, 0.26745718
 0.09792285, 0.27000547
 0.09198813, 0.20729442
 0.32047478, 0.17739304
 0.3768546, 0.20951377
 0.55192878, 0.24099559
 0.74183976, 0.32365185
 0.41543027, 0.4104353
 0.18694362, 0.41682785
 0.23145401, 0.40990313
 0.42136499, 0.40990313
 0.3115727, 0.41170009
 0.10682493, 0.41110415
 0.04451039, 0.41110415
 0.01780415, 0.40035812
 0.07715134, 0.39443731
 0.03264095, 0.39469579
 0.10682493, 0.39469579
 0.05637982, 0.39469579
 0.04747774, 0.39469579
 0.15727003, 0.37676095
 0.18694362, 0.2513201
 0.10385757, 0.25047425
 0.23442136, 0.25035065
 0.3620178, 0.25035065
 0.40356083, 0.22716604
 0.47774481, 0.23073306
 0.72403561, 0.28057193
 0.27002967, 0.38657334
 0.52818991, 0.38486963
 0.52818991, 0.38816216
 0.1810089, 0.39233927
 0.26706231, 0.39233927
 0.60237389, 0.39233927
 0.62017804, 0.41732673
 0.45697329, 0.41732673
 0.46290801, 0.41803123
 0.47181009, 0.45485257
 0.30860534, 0.45485257
 0.23442136, 0.452345
 0.30860534, 0.4557827
 0.32344214, 0.45550224
 0.1810089, 0.4009225
 0.20474777, 0.4009225
 0.27596439, 0.39929658
 0.48071217, 0.39929658
 0.35311573, 0.40037448
 0.41543027, 0.40036622
 0.50148368, 0.3985501
 0.43620178, 0.33501812
 0.62017804, 0.33501812
 0.81305638, 0.39940648
 0.68545994, 0.47686328
 0.60534125, 0.49392427
 0.45400593, 0.49458222
 0.33531157, 0.49624655
 0.40652819, 0.49634908
 0.3768546, 0.51105348
 0.33234421, 0.54313213
 0.23738872, 0.56490468
 0.27596439, 0.52088459
 0.25519288, 0.51898384
 0.2462908, 0.51898384
 0.08605341, 0.51976549
 0.115727, 0.46488128
 0.07121662, 0.46488128
 0.10089021, 0.3990122
 0.14243323, 0.34944752
 0.04154303, 0.28859587
 0.09495549, 0.24531011
 0.13649852, 0.24531011
 0.17804154, 0.23669558
 0.18397626, 0.21389018
 0.16913947, 0.18617013
 0.13946588, 0.18617013
 0.29673591, 0.17946976
 0.46290801, 0.18863266
 0.24925816, 0.2705431
 0.21068249, 0.2705431
 0.23442136, 0.27023315
 0.12759644, 0.27023315
 0.16617211, 0.27042729
 0.21661721, 0.27042729
 0.16617211, 0.28205169
 0.18991098, 0.28615578
 0.22848665, 0.28611077
 0.1810089, 0.28611077
 0.0504451, 0.28611077
 0.04154303, 0.27672302
 0.14540059, 0.27387263
 0.1958457, 0.27185976
 0.09495549, 0.17949265
 0.06231454, 0.16838217
 0.06824926, 0.16838217
 0.07715134, 0.16433749
 0.14836795, 0.16433749
 0.20474777, 0.16433749
 0.13649852, 0.16433749
 0.10682493, 0.16433749
 0.26706231, 0.16433749
 0.34124629, 0.18418583
 0.59940653, 0.21838271
 0.33531157, 0.31483908
 0.34421365, 0.32174295
 0.17507418, 0.32237735
 0.07715134, 0.32239601
 0.08011869, 0.32249774
 0.13353116, 0.32413365
 0.18694362, 0.32606931
 0.13649852, 0.32606931
 0.00890208, 0.32606931
 0.07121662, 0.30990688
 0.15133531, 0.30990688
 0.19881306, 0.31162126
 0.115727, 0.31116996
 0.02373887, 0.31051726
 0.0504451, 0.21506529
 0.05934718, 0.21303637
 0.02077151, 0.13404783
 0.10385757, 0.13404783
 0.115727, 0.13364888
 0.10682493, 0.13364888
 0.29080119, 0.13364888
 0.34421365, 0.1833442
 0.09495549, 0.21737731
 0.32344214, 0.21853586
 0.29080119, 0.21853586
 0.34124629, 0.21853586
 0.16913947, 0.22179258
 0.24035608, 0.21911012
 0.1810089, 0.21911012
 0.13946588, 0.21874845
 0.22255193, 0.21874845
 0.12759644, 0.23441125
 0.15430267, 0.23446639
 0.0504451, 0.23446639
 0.07715134, 0.22576754
 0.03264095, 0.22576754
 0.08011869, 0.21915011
 0.05637982, 0.2205141
 0.02967359, 0.2205141
 0.04154303, 0.21531519
 0.09198813, 0.16994956
 0.08308605, 0.16899353
 0.08605341, 0.15649351
 0.20178042, 0.15616963
 0.27893175, 0.15719859
 0.30860534, 0.18446848
 0.36795252, 0.19408234
 0.48367953, 0.23124371
 0.33827893, 0.28212613
 0.2611276, 0.28212613
 0.22848665, 0.28212613
 0.17507418, 0.28212613
 0.15430267, 0.28212613
 0.15133531, 0.28493807
 0.15133531, 0.29509301
 0.18694362, 0.29579374
 0.09495549, 0.29612712
 0.04451039, 0.29590356
 0.07715134, 0.28605046
 0.04747774, 0.28605046
 0.0504451, 0.28554482
 0.0504451, 0.27766158
 0.12462908, 0.2163302
 0.06231454, 0.18301701
 0.07121662, 0.16496575
 0.07715134, 0.13905871
 0.25816024, 0.13905871
 0.23442136, 0.18184901
 0.3115727, 0.18184901
 0.27299703, 0.19997406
 0.14243323, 0.19997306
 0.15133531, 0.20188279
 0.10385757, 0.20281719
 0.18694362, 0.20083425
 0.36498516, 0.20168401
 0.10979228, 0.23546
 0.04154303, 0.2389159
 0.02373887, 0.23283637
 0.1810089, 0.22907595
 0.16320475, 0.22907595
 0.20178042, 0.22907595
 0.03560831, 0.2289239
 0.05341246, 0.2289239
 0.08308605, 0.22761125
 0.01186944, 0.22028986
 0.06824926, 0.21877224
 0.08308605, 0.21877224
 0.04451039, 0.21900873
 0.08902077, 0.21900873
 0.14836795, 0.13582446
 0.09495549, 0.13588094
 0.23145401, 0.13573955
 0.3264095, 0.1612444
 0.34421365, 0.20389766
 0.27002967, 0.21598047
 0.3264095, 0.21650338
 0.27596439, 0.21650338
 0.25222552, 0.21683167
 0.19287834, 0.21683167
 0.17210682, 0.2224625
 0.08902077, 0.2224625
 0.14540059, 0.2224625
 0.20771513, 0.23263228
 0.22551929, 0.23263228
 0.20178042, 0.23263228
 0.12462908, 0.23293592
 0.1305638, 0.23293592
 0.07121662, 0.23293592
 0.17804154, 0.21820368
 0.1958457, 0.21820368
 0.10979228, 0.19485045
 0.08605341, 0.18695974
 0.07715134, 0.17071993
 0.16320475, 0.17071993
 0.29376855, 0.17071993
 0.32344214, 0.19697953
 0.24925816, 0.21744403
 0.10089021, 0.21744403
 0.22848665, 0.21706625
 0.26706231, 0.2170809
 0.24925816, 0.2170809
 0.26409496, 0.2170809
 0.11275964, 0.21818365
 0.0652819, 0.21818365
 0.12759644, 0.21612817
 0.03264095, 0.21612817
 0.03857567, 0.20690453
 0.14243323, 0.20690453
 0.21068249, 0.20690453
 0.16913947, 0.2050752
 0.11869436, 0.18189725
 0.10682493, 0.18189725
 0.05637982, 0.18208664
 0.16913947, 0.18208664
 0.32047478, 0.18112448
 0.17210682, 0.2034924
 0.08605341, 0.2034924
 0.11275964, 0.2034924
 0.10089021, 0.2034924
 0.10385757, 0.20327653
 0.15430267, 0.2046419
 0.46587537, 0.20986858
 0.26409496, 0.27516027
 0.1810089, 0.27661906
 0.24332344, 0.27569309
 0.36795252, 0.27569309
 0.1305638, 0.28476478
 0.05934718, 0.29095191
 0.06231454, 0.28569105
 0.09495549, 0.28534613
 0.06824926, 0.28534613
 0.12462908, 0.28534613
 0.02373887, 0.28534613
 0.09792285, 0.27594431
 0.03857567, 0.27586246
 0.11275964, 0.27586246
 0.34124629, 0.22768895
 0.28783383, 0.2267752
 0.16913947, 0.2316596
 0.19287834, 0.23074549
 0.21958457, 0.21702285
 0.23738872, 0.21702285
 0.15727003, 0.21702285
 0.13946588, 0.21702285
 0.29673591, 0.21702285
 0.56379822, 0.21737475
 0.30860534, 0.30699259
 0.24925816, 0.31025457
 0.19287834, 0.31109387
 0.13946588, 0.32428945
 0.29080119, 0.33255145
 0.08605341, 0.32906389
 0.13649852, 0.31982746
 0.16320475, 0.31982746
 0.51632047, 0.31982746
 0.20178042, 0.33543902
 0.22848665, 0.33526172
 0.39762611, 0.33526172
 0.40949555, 0.34219023
 0.26409496, 0.34223961
 0.3768546, 0.31240138
 0.38872404, 0.31240317
 0.20178042, 0.31240317
 0.37091988, 0.31240317
 0.36498516, 0.31240317
 0.45400593, 0.31278304
 0.55192878, 0.31991059
 0.57566766, 0.36025049
 0.48367953, 0.39953924
 0.30860534, 0.39953924
 0.49554896, 0.39640409
 0.28189911, 0.39705166
 0.27299703, 0.39704629
 0.24332344, 0.39704302
 0.21958457, 0.39704302
 0.13649852, 0.39704302
 0.2611276, 0.35319287
 0.27002967, 0.3544756
 0.28486647, 0.35406255
 0.10979228, 0.35230842
 0.09792285, 0.34255393
 0.04154303, 0.34201997
 0.02967359, 0.27535079
 0.06824926, 0.27165532
 0.0504451, 0.27137802
 0.11869436, 0.18493379
 0.06824926, 0.18493379
 0.03560831, 0.18493379
 0.10089021, 0.18493379
 0.26409496, 0.182893
 0.27596439, 0.182893
 0.16913947, 0.18273923
 0.37982196, 0.18456078
 0.51928783, 0.23405851
 0.56083086, 0.30137289
 0.5074184, 0.32876738
 0.37091988, 0.32990161
 0.33234421, 0.3312978
 0.19287834, 0.3312978
 0.29376855, 0.32879546
 0.24035608, 0.32846625
 0.05637982, 0.32846625
 0.20771513, 0.33436827
 0.4421365, 0.3444917
 0.47477745, 0.3444917
 0.22551929, 0.3444917
 0.1958457, 0.3444917
 0.10682493, 0.34383218
 0.17210682, 0.33394726
 0.05341246, 0.297512
 0.12462908, 0.2870236
 0.24332344, 0.28426818
 0.1305638, 0.28426818
 0.11275964, 0.28426818
 0.17210682, 0.28291906
 0.41543027, 0.28291906
 0.47477745, 0.28776356
 0.48664688, 0.28776356
 0.46884273, 0.29037543
 0.47181009, 0.29037543
 0.48071217, 0.29037543
 0.42136499, 0.29223157
 0.16913947, 0.29283391
 0.16913947, 0.29283391
 0.10385757, 0.30139923
 0.09198813, 0.30058343
 0.06231454, 0.30026338
 0.05934718, 0.29460563
 0.0504451, 0.29372445
 0.02077151, 0.29104682
 0.05934718, 0.28238485
 0.0504451, 0.28238485
 0.07418398, 0.28129145
 0.16913947, 0.28129145
 0.13353116, 0.28129145
 0.03560831, 0.24412183
 0.12462908, 0.13146615
 0.115727, 0.13146615
 0.10979228, 0.13146615
 0.10979228, 0.1315359
 0.24332344, 0.13156589
 0.46290801, 0.16849411
 0.43323442, 0.264559
 0.24925816, 0.27414394
 0.16617211, 0.27763047
 0.44510386, 0.27763047
 0.56083086, 0.27763047
 0.27002967, 0.326731
 0.35608309, 0.32630735
 0.08902077, 0.32630735
 0.10385757, 0.33962137
 0.08308605, 0.33927783
 0.09495549, 0.33856646
 0.09198813, 0.33856646
 0.01780415, 0.33856646
 0.08605341, 0.32257594
 0.10385757, 0.31607102
 0.10089021, 0.31439192
 0.10979228, 0.31423797
 0.05341246, 0.32296756
 0.05341246, 0.32054845
 0.10682493, 0.22581618
 0.19881306, 0.22017601
 0.34718101, 0.13437831
 0.27893175, 0.21401672
 0.27002967, 0.2188987
 0.3115727, 0.2188987
 0.34421365, 0.21967767
 0.33234421, 0.21967767
 0.42136499, 0.22778316
 0.19287834, 0.25812394
 0.16023739, 0.25812394
 0.22848665, 0.25839177
 0.21958457, 0.25839177
 0.04451039, 0.25839177
 0.08605341, 0.25572628
 0.21068249, 0.25638889
 0.18397626, 0.25648388
 0.13353116, 0.25648388
 0.04451039, 0.25648388
 0.05934718, 0.25648388
 0.08605341, 0.255321
 0.03264095, 0.255321
 0.05341246, 0.24750425
 0.11275964, 0.16261676
 0.12759644, 0.16243174
 0.3115727, 0.16243174
 0.32937685, 0.19745319
 0.24035608, 0.21149829
 0.18397626, 0.21149829
 0.28783383, 0.21149829
 0.18694362, 0.2115612
 0.26706231, 0.21152616
 0.29673591, 0.21152616
 0.36795252, 0.21186982
 0.24035608, 0.23258009
 0.30267062, 0.23258009
 0.25222552, 0.23825649
 0.21958457, 0.24610919
 0.14836795, 0.24897316
 0.09792285, 0.25708731
 0.00296736, 0.2452704
 0.02670623, 0.22849407
 0.05637982, 0.22849407
 0.05934718, 0.22849407
 0.13649852, 0.22849407
 0.01780415, 0.22866062
 0.0652819, 0.22866062
 0.08902077, 0.22866062
 0.24925816, 0.1857021
 0.22848665, 0.1857021
 0.27299703, 0.17242183
 0.32047478, 0.17993091
 0.41839763, 0.19982205
 0.4421365, 0.24786999
 0.54005935, 0.26551809
 0.61424332, 0.30964013
 0.52818991, 0.34254407
 0.34718101, 0.34512827
 0.29673591, 0.34512827
 0.21661721, 0.34476721
 0.38575668, 0.35489385
 0.4421365, 0.35899509
 0.32344214, 0.41063819
 0.21958457, 0.41063819
 0.26409496, 0.41063819
 0.4421365, 0.41063819
 0.1305638, 0.41063819
 0.10979228, 0.3640124
 0.1810089, 0.35930835
 0.14836795, 0.35930835
 0.13353116, 0.31961108
 0.09495549, 0.28240312
 0.18694362, 0.2819686
 0.24925816, 0.28145082
 0.38872404, 0.28145082
 0.32937685, 0.28174572
 0.44510386, 0.28174572
 0.58753709, 0.28344555
 0.8041543, 0.34037519
 0.90504451, 0.43056489
 0.91097923, 0.48704923
 0.78931751, 0.48737985
 0.68249258, 0.48780147
 0.92878338, 0.50259909
 0.74777448, 0.50522903
 0.6379822, 0.50522903
 0.46587537, 0.54845401
 0.41839763, 0.5716328
 0.51335312, 0.60978358
 0.36498516, 0.6085916
 0.24332344, 0.62804901
 0.14540059, 0.57821456
 0.07121662, 0.53319334
 0.1810089, 0.52069896
 0.29376855, 0.51256033
 0.09792285, 0.49866479
 0.14836795, 0.48155658
 0.19287834, 0.47465954
 0.16320475, 0.41607939
 0.1810089, 0.36836905
 0.38278932, 0.306615
 0.27893175, 0.30669594
 0.3264095, 0.30669594
 0.34718101, 0.24554166
 0.34718101, 0.24554166
 0.30267062, 0.24554166
 0.24035608, 0.24560135
 0.21958457, 0.24860738
 0.16023739, 0.24860738
 0.1305638, 0.24860738
 0.40356083, 0.25307251
 0.32937685, 0.25764081
 0.1305638, 0.25818733
 0.24925816, 0.25818733
 0.24035608, 0.25822025
 0.0652819, 0.25822025
 0.05934718, 0.25350013
 0.16320475, 0.25193989
 0.12759644, 0.25193989
 0.08011869, 0.25119252
 0.15430267, 0.24809639
 0.14836795, 0.24809639
 0.24332344, 0.24962903
 0.46884273, 0.24962903
 0.33531157, 0.29407103
 0.69732938, 0.28238762
 1., 0.37910808
 0.9851632, 0.44021502
 0.78931751, 0.45273006
 0.60534125, 0.49214843
 0.42136499, 0.50090149
 0.58160237, 0.50054107
 0.55192878, 0.50304905
 0.37388724, 0.50304905
 0.20474777, 0.51769349
 0.14243323, 0.50826983
 0.20178042, 0.50480609
 0.25519288, 0.50466249
 0.25816024, 0.50479124
 0.21661721, 0.50645438
 0.18694362, 0.48966646
 0.10385757, 0.48855922
 0.09198813, 0.42908768
 0.115727, 0.34674574
 0.14836795, 0.3399175
 0.10979228, 0.3395778
 0.16023739, 0.32672684
 0.15133531, 0.24342509
 0.15133531, 0.19222251
 0.12462908, 0.19222251
 0.21661721, 0.19222251
 0.40949555, 0.19216382
 0.30563798, 0.25583099
 0.20771513, 0.25811121
 0.18397626, 0.25791086
 0.10385757, 0.25791086
 0.05934718, 0.25791086
 0.24035608, 0.2522547
 0.28783383, 0.2522547
 0.10385757, 0.2522547
 0.10385757, 0.2522547
 0.12462908, 0.2522547
 0.17507418, 0.2522547
 0.05637982, 0.2522547
 0.12166172, 0.25135657
 0.05341246, 0.25135657
 0.0652819, 0.19752441
 0.12166172, 0.1916886
 0.1305638, 0.19162254
 0.10979228, 0.19150124
 0.28486647, 0.19150124
 0.31750742, 0.19150124
 0.41543027, 0.20766222
 0.37091988, 0.25527382
 0.50445104, 0.25527382
 0.33531157, 0.29729132
 0.17210682, 0.29729132
 0.13353116, 0.29765141
 0.3115727, 0.29765141
 0.25519288, 0.29765765
 0.22848665, 0.30101447
 0.18694362, 0.30556087
 0.25519288, 0.30395764
 0.03857567, 0.30395764
 0.02670623, 0.29687873
 0.0652819, 0.2942497
 0.15133531, 0.2942497
 0.05637982, 0.29269448
 0.04747774, 0.2844301
 0.13946588, 0.21819692
 0.20771513, 0.19976493
 0.1958457, 0.19976593
 0.15727003, 0.20007473
 0.10979228, 0.18033831
 0.15430267, 0.17669369
 0.29673591, 0.17669369
 0.37982196, 0.18584096
 0.43026706, 0.23410993
 0.5578635, 0.25865739
 0.48961424, 0.31832074
 0.35608309, 0.33044928
 0.35014837, 0.33044928
 0.24035608, 0.33044928
 0.40059347, 0.33993876
 0.29673591, 0.34047165
 0.21068249, 0.34047165
 0.10385757, 0.3407162
 0.21661721, 0.34040152
 0.24332344, 0.34040152
 0.27893175, 0.34040152
 0.07418398, 0.34040152
 0.08902077, 0.33790065
 0.09495549, 0.33790065
 0.05341246, 0.29741258
 0.05637982, 0.24312722
 0.07121662, 0.24312722
 0.10682493, 0.24312722
 0.21661721, 0.24312722
 0.22551929, 0.19222805
 0.31454006, 0.19044861
 0.23442136, 0.20481908
 0.21364985, 0.20486521
 0.16617211, 0.20484921
 0.2611276, 0.20484921
 0.22551929, 0.20484921
 0.19881306, 0.20484921
 0.20474777, 0.20481404
 0.28189911, 0.20488256
 0.36795252, 0.20578075
 0.15727003, 0.24181687
 0.1958457, 0.24494297
 0.24332344, 0.26143503
 0.20178042, 0.26143503
 0.12759644, 0.26143503
 0.04451039, 0.24815041
 0.06824926, 0.23730548
 0.05341246, 0.23730548
 0.0504451, 0.23730548
 0.04154303, 0.23730548
 0.115727, 0.23640818
 0.33531157, 0.23427965
 0.24035608, 0.23427965
 0.17804154, 0.23234345
 0.21661721, 0.21477318
 0.40059347, 0.21477318
 0.34718101, 0.23824368
 0.39169139, 0.23824368
 0.32937685, 0.23857561
 0.46587537, 0.23933152
 0.35014837, 0.28425862
 0.1810089, 0.28425862
 0.24925816, 0.28425862
 0.27002967, 0.28425862
 0.16913947, 0.29587529
 0.11275964, 0.32085875
 0.19881306, 0.29540975
 0.1810089, 0.29468512
 0.12462908, 0.29468512
 0.06231454, 0.29468512
 0.21068249, 0.28919419
 0.08308605, 0.28919419
 0.08011869, 0.28179209
 0.13649852, 0.28177706
 0.07418398, 0.23109193
 0.15727003, 0.19162945
 0.1958457, 0.19162945
 0.19881306, 0.19162945
 0.37982196, 0.15615751
 0.39465875, 0.23453534
 0.38872404, 0.23721053
 0.29673591, 0.23721053
 0.17804154, 0.24593321
 0.11275964, 0.24593321
 0.07715134, 0.2480099
 0.07715134, 0.2480099
 0.05341246, 0.2480099
 0.18991098, 0.24284489
 0.21958457, 0.24284489
 0.22551929, 0.24284489
 0.26706231, 0.24284489
 0.18694362, 0.24284489
 0.31750742, 0.24296198
 0.19881306, 0.24296198
 0.20474777, 0.24244354
 0.09792285, 0.20849082
 0.10682493, 0.20687741
 0.14540059, 0.20687741
 0.10979228, 0.20687741
 0.115727, 0.20687741
 0.14243323, 0.20687741
 0.16320475, 0.21473063
 0.18397626, 0.21473063
 0.30563798, 0.21473063
 0.31750742, 0.21559011
 0.56973294, 0.21559011
 0.34124629, 0.32032185
 0.29673591, 0.32416322
 0.65875371, 0.32426179
 0.4272997, 0.37648783
 0.30267062, 0.3782433
 0.20474777, 0.37840868
 0.05637982, 0.37752989
 0.10979228, 0.37127892
 0.14540059, 0.37030255
 0.06824926, 0.37030255
 0.10089021, 0.37030255
 0.09495549, 0.36980542
 0.15133531, 0.36980542
 0.06231454, 0.36980542
 0.06824926, 0.35711444
 0.12166172, 0.35711444
 0.08308605, 0.35711444
 0.09198813, 0.26250504
 0.13946588, 0.19561766
 0.34421365, 0.14791136
 0.39465875, 0.22425834
 0.37982196, 0.24454277
 0.32937685, 0.24454277
 0.25816024, 0.24660171
 0.2611276, 0.24660171
 0.25222552, 0.24680563
 0.23442136, 0.24695163
 0.0652819, 0.2451795
 0.05341246, 0.24594427
 0.115727, 0.24248971
 0.1305638, 0.24248971
 0.08902077, 0.24248971
 0.19287834, 0.2427137
 0.05637982, 0.24121648
 0.03264095, 0.24121648
 0.03264095, 0.23375754
 0.08902077, 0.20905637
 0.08011869, 0.18037937
 0.10682493, 0.18037937
 0.06824926, 0.17638016
 0.11275964, 0.16624356
 0.12462908, 0.13663195
 0.13353116, 0.13663195
 0.1810089, 0.13663195
 0.53709199, 0.13663195
 0.32937685, 0.29346048
 0.38278932, 0.30012864
 0.5727003, 0.30976311
 0.41839763, 0.32919615
 0.43620178, 0.32919615
 0.34421365, 0.33928406
 0.20771513, 0.33928406
 0.17804154, 0.33836868
 0.05341246, 0.33898354
 0.08605341, 0.33483647
 0.06231454, 0.33502249
 0.09495549, 0.33502249
 0.10385757, 0.33414769
 0.0652819, 0.33408612
 0.06824926, 0.32530194
 0.04747774, 0.3259748
 0.09495549, 0.32398227
 0.14540059, 0.26597642
 0.13946588, 0.26211094
 0.08308605, 0.21962404
 0.1810089, 0.14832928
 0.16913947, 0.13928836
 0.115727, 0.13928836
 0.15727003, 0.13928836
 0.23145401, 0.13928836
 0.43026706, 0.16765255
 0.34124629, 0.25732322
 0.27002967, 0.26026149
 0.15133531, 0.26119455
 0.07715134, 0.26119455
 0.10385757, 0.26906501
 0.07121662, 0.26900524
 0.08902077, 0.26787737
 0.26706231, 0.26787737
 0.40059347, 0.26787737
 0.52818991, 0.27259723
 0.33827893, 0.31901509
 0.09792285, 0.31901509
 0.26409496, 0.31891881
 0.09495549, 0.32310742
 0.10089021, 0.32310742
 0.02967359, 0.32303975
 0.03857567, 0.31092662
 0.02967359, 0.31461892
 0.11869436, 0.31461892
 0.08605341, 0.31461892
 0.28189911, 0.31461892
 0.21068249, 0.31434037
 0.25816024, 0.30498584
 0.24925816, 0.29665314
 0.32047478, 0.2156253
 0.22848665, 0.20289552
 0.10979228, 0.20289552
 0.12166172, 0.20289552
 0.11275964, 0.20289552
 0.13946588, 0.20321642
 0.10385757, 0.20321642
 0.39465875, 0.20300226
 0.6884273, 0.24875129
 0.45994065, 0.36026159
 0.35014837, 0.37689588
 0.09198813, 0.37702583
 0.06231454, 0.37935372
 0.05341246, 0.37415316
 0.08902077, 0.37138897
 0.09792285, 0.37462759
 0.03857567, 0.3850178
 0.14836795, 0.37964447
 0.17210682, 0.37648227
 0.14836795, 0.36948791
 0.20771513, 0.36948791
 0.32344214, 0.36692663
 0.35608309, 0.36244896
 0.27299703, 0.27341482
 0.53115727, 0.22723185
 0.37091988, 0.30409074
 0.30563798, 0.30657791
 0.25519288, 0.30649879
 0.24332344, 0.30649879
 0.20474777, 0.30649879
 0.19287834, 0.31829134
 0.20178042, 0.33181617
 0.19287834, 0.33171549
 0.18991098, 0.33171549
 0.05934718, 0.36163081
 0.08308605, 0.32119763
 0.16617211, 0.31403437
 0.12759644, 0.31403437
 0.07121662, 0.31403437
 0.08605341, 0.24127772
 0.0504451, 0.19999185
 0.09495549, 0.18301259
 0.14836795, 0.17648643
 0.17210682, 0.14634724
 0.18991098, 0.14321835
 0.33234421, 0.14321835
 0.2611276, 0.21515004
 0.29080119, 0.21516691
 0.37388724, 0.21798925
 0.68545994, 0.23825913
 0.37388724, 0.35129921
 0.41246291, 0.35129921
 0.18694362, 0.35245694
 0.13946588, 0.35245694
 0.1958457, 0.35245694
 0.10979228, 0.36152522
 0.0504451, 0.36201851
 0.03857567, 0.35251658
 0.05637982, 0.34871942
 0.05341246, 0.34871942
 0.15133531, 0.34871942
 0.14243323, 0.34871942
 0.08011869, 0.35370889
 0.05637982, 0.35370889
 0.06824926, 0.24143928
 0.06231454, 0.2400702
 0.09198813, 0.1380808
 0.16023739, 0.13804536
 0.3115727, 0.13804536
 0.23442136, 0.19835841
 0.3115727, 0.19838159
 0.23442136, 0.19838159
 0.09792285, 0.20284032
 0.40059347, 0.20260446
 0.36795252, 0.24522288
 0.06824926, 0.24522288
 0.21958457, 0.24522288
 0.16617211, 0.24409514
 0.24035608, 0.24575884
 0.22255193, 0.24575884
 0.17804154, 0.24721652
 0.08902077, 0.24721652
 0.09198813, 0.24721652
 0.0652819, 0.24721652
 0.07121662, 0.24648536
 0.10979228, 0.24062129
 0.02373887, 0.24062129
 0.0504451, 0.22953494
 0.05341246, 0.22297857
 0.06824926, 0.16797327
 0.17804154, 0.16797327
 0.21958457, 0.16782065
 0.13946588, 0.16797327
 0.17210682, 0.15546467
 0.22255193, 0.15307179
 0.27002967, 0.15546467
 0.45400593, 0.18126976
 0.55192878, 0.2643125
 0.38278932, 0.30972432
 0.27299703, 0.31499944
 0.21958457, 0.31959604
 0.32937685, 0.32661573
 0.40949555, 0.32759034
 0.33234421, 0.33233574
 0.16913947, 0.339538
 0.27002967, 0.339538
 0.10385757, 0.339538
 0.09792285, 0.33079664
 0.04451039, 0.33061694
 0.08902077, 0.31986936
 0.0652819, 0.31986936
 0.07418398, 0.31761845
 0.12462908, 0.24712158
 0.18397626, 0.24712158
 0.18397626, 0.24678578
 0.21068249, 0.24678578
 0.16320475, 0.24651736
 0.20474777, 0.2137543
 0.43323442, 0.18586906
 0.43620178, 0.260914
 0.48367953, 0.25837128
 0.48367953, 0.2833674
 0.27596439, 0.28393599
 0.24035608, 0.29174734
 0.20178042, 0.29428626
 0.06824926, 0.29620637
 0.04747774, 0.2949716
 0.39169139, 0.29086483
 0.28783383, 0.29375853
 0.39465875, 0.29382705
 0.17804154, 0.29390618
 0.24035608, 0.29390618
 0.14243323, 0.29390618
 0.08605341, 0.29390618
 0.03560831, 0.29006735
 0.05341246, 0.28685927
 0.08011869, 0.23783654
 0.18694362, 0.23783654
 0.29080119, 0.23783654
 0.34421365, 0.23816547
 0.35311573, 0.23816547
 0.37091988, 0.23816547
 0.33827893, 0.23816547
 0.22848665, 0.23816547
 0.20771513, 0.23423901
 0.21364985, 0.23412057
 0.15133531, 0.23412057
 0.07121662, 0.23412057
 0.0652819, 0.23484563
 0.0504451, 0.23986468
 0.03560831, 0.23896675
 0.02967359, 0.23668304
 0.05934718, 0.23531198
 0.05934718, 0.2324451
 0.09198813, 0.2324451
 0.11869436, 0.22931006
 0.10089021, 0.21260526
 0.10682493, 0.16136385
 0.14836795, 0.14940758
 0.10979228, 0.1490842
 0.08308605, 0.12728522
 0.07418398, 0.12601659
 0.09198813, 0.12601659
 0.10682493, 0.12601659
 0.09198813, 0.12601659
 0.10979228, 0.12601659
 0.23738872, 0.13424966
 0.28783383, 0.17390365
 0.28783383, 0.19656848
 0.29080119, 0.19656848
 0.14540059, 0.19688535
 0.33531157, 0.19712727
 0.4272997, 0.22750712
 0.1958457, 0.26983928
 0.13946588, 0.26706322
 0.1305638, 0.26706322
 0.19881306, 0.26935174
 0.09792285, 0.2692918
 0.11869436, 0.26905802
 0.10089021, 0.26928756
 0.04747774, 0.26922909
 0.10682493, 0.25968329
 0.27299703, 0.25968329
 0.10385757, 0.25968329
 0.09495549, 0.25892639
 0.16023739, 0.25892639
 0.20474777, 0.25892639
 0.15430267, 0.18736246
 0.24035608, 0.18736246
 0.16913947, 0.18736246
 0.29080119, 0.18736246
 0.42433234, 0.19017318
 0.56973294, 0.25811328
 0.59050445, 0.31954462
 0.61424332, 0.32495639
 0.33234421, 0.3478222
 0.06824926, 0.3478222
 0.19287834, 0.34414368
 0.10682493, 0.34420887
 0.09495549, 0.34430671
 0.0504451, 0.34420887
 0.10385757, 0.33913317
 0.18991098, 0.33907032
 0.10089021, 0.33907032
 0.10385757, 0.33891333
 0.2462908, 0.33976883
 0.05341246, 0.33394495
 0.17507418, 0.33050331
 0.12759644, 0.32919348
 0.05934718, 0.21498112
 0.09792285, 0.17793414
 0.17804154, 0.17793414
 0.16617211, 0.17790429
 0.10979228, 0.17790429
 0.16913947, 0.17790429
 0.30860534, 0.17880153
 0.45400593, 0.20004454
 0.4421365, 0.27256778
 0.50148368, 0.27634726
 0.30267062, 0.28999226
 0.16617211, 0.29000753
 0.27893175, 0.29185649
 0.1958457, 0.29185649
 0.09495549, 0.29078382
 0.12759644, 0.29659896
 0.13946588, 0.29675149
 0.1305638, 0.29675149
 0.01780415, 0.29675149
 0.06824926, 0.28086431
 0.14540059, 0.28086431
 0.03857567, 0.28086431
 0.06824926, 0.28086431
 0.07715134, 0.27072446
 0.15727003, 0.18696591
 0.07121662, 0.18259285
 0.12462908, 0.18259285
 0.13353116, 0.13435202
 0.16617211, 0.12774888
 0.29080119, 0.13120424
 0.20474777, 0.18507853
 0.27596439, 0.18570587
 0.49851632, 0.18570587
 0.56973294, 0.27556483
 0.3264095, 0.32856006
 0.25519288, 0.3297228
 0.17210682, 0.33879501
 0.37982196, 0.33949935
 0.26409496, 0.3450771
 0.29376855, 0.3450771
 0.09792285, 0.34814509
 0.12166172, 0.34477567
 0.115727, 0.34477567
 0.09495549, 0.34477567
 0.08308605, 0.34466567
 0.08605341, 0.34608963
 0.07715134, 0.34608963
 0.0652819, 0.33005288
 0.10682493, 0.24472246
 0.16913947, 0.24472246
 0.13946588, 0.24472246
 0.1305638, 0.24495633
 0.30860534, 0.19512565
 0.38278932, 0.20358045
 0.4421365, 0.24536751
 0.64391691, 0.27873211
 0.43323442, 0.36365035
 0.53115727, 0.36365035
 0.39762611, 0.37005436
 0.47181009, 0.37023526
 0.18991098, 0.37069315
 0.15133531, 0.36773381
 0.15727003, 0.37221284
 0.23442136, 0.37715589
 0.10682493, 0.37715589
 0.17210682, 0.37221284
 0.07715134, 0.37221284
 0.12759644, 0.37592948
 0.15727003, 0.37592948
 0.13946588, 0.37592948
 0.18694362, 0.32129877
 0.05637982, 0.32129877
 0.2611276, 0.28852913
 0.11275964, 0.27573576
 0.14836795, 0.18667062
 0.13353116, 0.18662155
 0.22848665, 0.18662155
 0.30860534, 0.18662155
 0.35311573, 0.20116386
 0.12759644, 0.23289248
 0.25222552, 0.23289248
 0.34124629, 0.23289248
 0.29673591, 0.23289248
 0.27596439, 0.23300872
 0.13946588, 0.23300872
 0.38575668, 0.23370012
 0.34421365, 0.25105363
 0.14836795, 0.25105363
 0.04747774, 0.25399737
 0.07121662, 0.24390567
 0.08011869, 0.24390567
 0.07418398, 0.2447188
 0.08011869, 0.2447188
 0.08902077, 0.2447188
 0.05341246, 0.24346508
 0.11869436, 0.24346508
 0.22848665, 0.24346508
 0.16320475, 0.23999279
 0.22551929, 0.23730067
 0.19287834, 0.23712128
 0.25519288, 0.21999969
 0.34421365, 0.18178101
 0.27299703, 0.21999969
 0.3620178, 0.22510831
 0.35905045, 0.23428513
 0.1810089, 0.23428513
 0.18694362, 0.23428513
 0.25816024, 0.23428513
 0.24925816, 0.23528917
 0.09792285, 0.24334758
 0.17210682, 0.24165144
 0.08308605, 0.24165144
 0.06231454, 0.24054131
 0.17507418, 0.2364108
 0.12462908, 0.23655323
 0.1958457, 0.23655323
 0.12166172, 0.23637589
 0.07418398, 0.23421749
 0.04747774, 0.23295228
 0.05934718, 0.18272782
 0.08902077, 0.18272782
 0.18694362, 0.18272782
 0.13649852, 0.17871561
 0.16023739, 0.14031092
 0.17804154, 0.14054513
 0.20771513, 0.14054513
 0.3620178, 0.14864927
 0.43026706, 0.22588682
 0.32344214, 0.25778741
 0.36795252, 0.26134518
 0.3620178, 0.26140725
 0.26706231, 0.26140725
 0.19881306, 0.26140725
 0.23738872, 0.26496525
 0.115727, 0.2706063
 0.11275964, 0.27183656
 0.05637982, 0.27138454
 0.0652819, 0.26428852
 0.09792285, 0.26428852
 0.04451039, 0.26352728
 0.02670623, 0.25990226
 0.0652819, 0.25565925
 0.09792285, 0.22949717
 0.1305638, 0.22833801
 0.13353116, 0.22611192
 0.1305638, 0.18089003
 0.13946588, 0.1669555
 0.12462908, 0.16483822
 0.22848665, 0.12110035
 0.37388724, 0.15955339
 0.5578635, 0.22352886
 0.38575668, 0.3156866
 0.30267062, 0.31671062
 0.33827893, 0.315118
 0.31454006, 0.315118
 0.29376855, 0.32576394
 0.33827893, 0.33034314
 0.10979228, 0.33387493
 0.09495549, 0.33085537
 0.19287834, 0.33039105
 0.27893175, 0.32806126
 0.06231454, 0.32806126
 0.05341246, 0.3229626
 0.09495549, 0.32033014
 0.10979228, 0.32033014
 0.01186944, 0.24153998
 0.06231454, 0.21421994
 0.07418398, 0.21412161
 0.17804154, 0.21412161
 0.23145401, 0.21412161
 0.14836795, 0.21302668
 0.13946588, 0.18199394
 0.53115727, 0.18199394
 0.41543027, 0.29171807
 0.41246291, 0.30447051
 0.41246291, 0.30508179
 0.29970326, 0.30508179
 0.64688427, 0.30461858
 0.17210682, 0.35684407
 0.09495549, 0.35988692
 0.25222552, 0.36834751
 0.2611276, 0.37105379
 0.3115727, 0.37345009
 0.21364985, 0.37452256
 0.07715134, 0.37242021
 0.08308605, 0.37058781
 0.10385757, 0.37058781
 0.06231454, 0.35973342
 0.04451039, 0.35606762
 0.10089021, 0.35044475
 0.13649852, 0.34007851
 0.0504451, 0.34022388
 0.11869436, 0.19982185
 0.32937685, 0.19982185
 0.38575668, 0.21390338
 0.50148368, 0.23869938
 0.31454006, 0.29087483
 0.29673591, 0.29085499
 0.29970326, 0.29918034
 0.29376855, 0.29918098
 0.24925816, 0.29918098
 0.45103858, 0.29609576
 0.20178042, 0.29609576
 0.1958457, 0.29222606
 0.20771513, 0.29388599
 0.0652819, 0.29388599
 0.23442136, 0.2980644
 0.11869436, 0.30244951
 0.10682493, 0.2980644
 0.09198813, 0.2902058
 0.08011869, 0.27460029
 0.12759644, 0.27460029
 0.15727003, 0.27460029
 0.12759644, 0.27455778
 0.26706231, 0.27260729
 0.25222552, 0.27378667
 0.20771513, 0.19101863
 0.11869436, 0.19100989
 0.11869436, 0.19099675
 0.15430267, 0.19099675
 0.18397626, 0.19406764
 0.15133531, 0.19406764
 0.46587537, 0.19406764
 0.52225519, 0.28074926
 0.45994065, 0.30796992
 0.28189911, 0.31063665
 0.19881306, 0.31042055
 0.29673591, 0.31022885
 0.12462908, 0.31014511
 0.32344214, 0.31014511
 0.43026706, 0.31014511
 0.15430267, 0.31565352
 0.14243323, 0.31565352
 0.05637982, 0.31710824
 0.02077151, 0.3100247
 0.04747774, 0.30099591
 0.04747774, 0.30099591
 0.0504451, 0.30099591
 0.11869436, 0.27621372
 0.08902077, 0.25677761
 0.0504451, 0.25578927
 0.12759644, 0.25917539
 0.09198813, 0.25852906
 0.19881306, 0.25830022
 0.29970326, 0.24864122
 0.49554896, 0.1849797
 0.42433234, 0.26957531
 0.31750742, 0.28320328
 0.37982196, 0.28320328
 0.35014837, 0.28975296
 0.28783383, 0.28975296
 0.08902077, 0.29062987
 0.11869436, 0.29062987
 0.32344214, 0.29062987
 0.11869436, 0.29062987
 0.13946588, 0.2986915
 0.03560831, 0.2986915
 0.04154303, 0.28678657
 0.0504451, 0.294645
 0.06231454, 0.29462197
 0.01780415, 0.26198028
 0.06824926, 0.23628471
 0.04154303, 0.23628471
 0.03857567, 0.2243971
 0.18694362, 0.20492917
 0.1810089, 0.20302867
 0.09495549, 0.20386384
 0.16023739, 0.20274691
 0.23145401, 0.13384888
 0.38278932, 0.16154888
 0.43323442, 0.22447331
 0.29080119, 0.25499586
 0.3768546, 0.25968303
 0.35311573, 0.25968303
 0.18991098, 0.25968303
 0.18694362, 0.26339517
 0.16320475, 0.26339517
 0.21661721, 0.26339517
 0.05934718, 0.27536734
 0.0504451, 0.26954347
 0.12759644, 0.26683255
 0.07418398, 0.27023509
 0.05637982, 0.26981239
 0.03560831, 0.26981239
 0.09198813, 0.26466994
 0.04747774, 0.23506167
 0.07418398, 0.22939953
 0.09495549, 0.21967781
 0.08308605, 0.15337733
 0.09792285, 0.15317754
 0.115727, 0.15285961
 0.10682493, 0.15285961
 0.21068249, 0.1153018
 0.22848665, 0.1479435
 0.31750742, 0.16265497
 0.47774481, 0.20191718
 0.46587537, 0.2709382
 0.39762611, 0.27329205
 0.28783383, 0.28824652
 0.19287834, 0.288293
 0.44807122, 0.29509266
 0.23738872, 0.29647387
 0.1810089, 0.29647387
 0.18397626, 0.29753344
 0.115727, 0.29785096
 0.0652819, 0.29785096
 0.07121662, 0.29442585
 0.05341246, 0.29442585
 0.0504451, 0.29113626
 0.02077151, 0.29024392
 0.03857567, 0.27971512
 0.04747774, 0.27120666
 0.11869436, 0.26313752
 0.14243323, 0.25935812
 0.10979228, 0.25973351
 0.21661721, 0.1658056
 0.30267062, 0.15029725
 0.29376855, 0.18734448
 0.40949555, 0.18733618
 0.34124629, 0.24329962
 0.37388724, 0.24329962
 0.40652819, 0.24329962
 0.17507418, 0.24343157
 0.15727003, 0.24343157
 0.29673591, 0.246918
 0.10682493, 0.24945018
 0.20771513, 0.25891625
 0.1810089, 0.25852356
 0.26706231, 0.25852356
 0.20178042, 0.25852356
 0.115727, 0.25841918
 0.10385757, 0.25841176
 0.05934718, 0.25827058
 0.14540059, 0.24975819
 0.23145401, 0.24975819
 0.10979228, 0.24975819
 0.19881306, 0.19401906
 0.1305638, 0.19402044
 0.16320475, 0.19402044
 0.21958457, 0.18941158
 0.15430267, 0.18941158
 0.28189911, 0.18941158
 0.35311573, 0.19272721
 0.44510386, 0.23242879
 0.40652819, 0.27075514
 0.22551929, 0.27764962
 0.32344214, 0.27793211
 0.46884273, 0.28393831
 0.18991098, 0.29527392
 0.18694362, 0.29527392
 0.08902077, 0.29963754
 0.05341246, 0.29516917
 0.16913947, 0.28788716
 0.10089021, 0.28788716
 0.10682493, 0.28731549
 0.03857567, 0.28731549
 0.07418398, 0.2829145
 0.06824926, 0.2829145
 0.12462908, 0.2829145
 0.115727, 0.27007915
 0.115727, 0.27007915
 0.10385757, 0.26490919
 0.07715134, 0.1377059
 0.13649852, 0.13741479
 0.31454006, 0.13478362
 0.19881306, 0.20040259
 0.27893175, 0.20038893
 0.47774481, 0.20038893
 0.45697329, 0.27160285
 0.53115727, 0.27621843
 0.31454006, 0.31227308
 0.43620178, 0.31227308
 0.34124629, 0.31782306
 0.17804154, 0.31782306
 0.15727003, 0.31782306
 0.1305638, 0.31782306
 0.14540059, 0.32051639
 0.14243323, 0.32481381
 0.1305638, 0.32481381
 0.1305638, 0.32481381
 0.02077151, 0.32634596
 0.08902077, 0.30952934
 0.10385757, 0.30339626
 0.09792285, 0.30295974
 0.05341246, 0.25840886
 0.09495549, 0.25664668
 0.10979228, 0.21235176
 0.13649852, 0.13308197
 0.20178042, 0.12804741
 0.115727, 0.13658891
 0.43026706, 0.13658891
 0.26409496, 0.24840216
 0.2611276, 0.25372916
 0.54302671, 0.25372916
 0.56083086, 0.30725193
 0.34718101, 0.32657709
 0.05934718, 0.32657709
 0.10979228, 0.32657709
 0.115727, 0.32673388
 0.14243323, 0.3286399
 0.08308605, 0.32889491
 0.04154303, 0.32889491
 0.04154303, 0.32323631
 0.03560831, 0.33293208
 0.08308605, 0.33120025
 0.04451039, 0.32792901
 0.17804154, 0.32808014
 0.10682493, 0.32006683
 0.10089021, 0.31244227
 0.16913947, 0.21757325
 0.17210682, 0.13573774
 0.19287834, 0.13573774
 0.18991098, 0.13716047
 0.1810089, 0.13716047
 0.30860534, 0.13716047
 0.56083086, 0.19513876
 0.36795252, 0.3050367
 0.25519288, 0.31397595
 0.15430267, 0.31642278
 0.15133531, 0.31642278
 0.14540059, 0.32725532
 0.13649852, 0.32725532
 0.09792285, 0.32725532
 0.08605341, 0.32723917
 0.18694362, 0.3264722
 0.22255193, 0.3264722
 0.02967359, 0.32656839
 0.06231454, 0.31294948
 0.05934718, 0.31294948
 0.02967359, 0.31356028
 0.05934718, 0.22688818
 0.04154303, 0.17680459
 0.04747774, 0.15669689
 0.10089021, 0.15669689
 0.14243323, 0.15666575
 0.40059347, 0.15666575
 0.29673591, 0.22750885
 0.17804154, 0.23687066
 0.22551929, 0.23687066
 0.20474777, 0.23720204
 0.21068249, 0.23671663
 0.1958457, 0.23671663
 0.43916914, 0.23671032
 0.13649852, 0.26619344
 0.15133531, 0.26898556
 0.06824926, 0.26898556
 0.05637982, 0.27073138
 0.09198813, 0.27339699
 0.13353116, 0.27372877
 0.115727, 0.27372877
 0.20474777, 0.26829378
 0.15430267, 0.26395947
 0.10089021, 0.26395947
 0.05934718, 0.26293395
 0.14540059, 0.26293395
 0.07418398, 0.2628462
 0.10979228, 0.2628583
 0.13353116, 0.14791136
 0.14243323, 0.14791136
 0.37982196, 0.14791136
 0.32937685, 0.23192103
 0.13649852, 0.24071481
 0.14243323, 0.24071481
 0.14243323, 0.24071481
 0.0148368, 0.24071481
 0.06231454, 0.23248841
 0.12166172, 0.23333691
 0.02077151, 0.23372497
 0.18991098, 0.23372497
 0.03857567, 0.23088626
 0.07715134, 0.23088626
 0.07121662, 0.23241327
 0.07715134, 0.23241327
 0.06231454, 0.23241327
 0.16617211, 0.20754836
 0.12462908, 0.13462236
 0.06231454, 0.13462236
 0.15430267, 0.13462236
 0.16320475, 0.13462236
 0.03857567, 0.1352567
 0.08902077, 0.1352567
 0.12462908, 0.13461877
 0.13649852, 0.13794477
 0.28189911, 0.13426248
 0.29970326, 0.18648093
 0.38872404, 0.18799778
 0.49851632, 0.23937345
 0.48961424, 0.29088749
 0.30563798, 0.29088749
 0.27893175, 0.29135841
 0.24925816, 0.29135841
 0.16320475, 0.29135841
 0.24925816, 0.29135841
 0.22848665, 0.29135841
 0.10979228, 0.30185824
 0.26706231, 0.30218959
 0.19881306, 0.30218959
 0.13353116, 0.30010007
 0.03560831, 0.30010007
 0.03560831, 0.2875181
 0.10089021, 0.27299272
 0.04747774, 0.27197686
 0.06231454, 0.19255127
 0.07418398, 0.18553861
 0.14243323, 0.18263684
 0.09495549, 0.18263684
 0.11869436, 0.18263684
 0.38872404, 0.18263684
 0.51928783, 0.23477398
 0.41839763, 0.30111892
 0.36795252, 0.30122841
 0.29673591, 0.31020571
 0.18694362, 0.30909183
 0.49851632, 0.30151357
 0.23442136, 0.30640107
 0.15133531, 0.30660111
 0.14243323, 0.3109462
 0.1958457, 0.31357731
 0.44510386, 0.31550302
 0.38575668, 0.31550302
 0.29376855, 0.31731147
 0.20771513, 0.32525669
 0.08902077, 0.32508948
 0.10385757, 0.29962661
 0.1305638, 0.29917014
 0.05934718, 0.29917014
 0.04154303, 0.29378633
 0.2462908, 0.2885185
 0.37388724, 0.27201632
 0.27596439, 0.27201632
 0.21068249, 0.27201632
 0.29376855, 0.27201632
 0.29080119, 0.27208339
 0.30267062, 0.23796816
 0.41543027, 0.23570579
 0.35311573, 0.25114622
 0.43620178, 0.25120913
 0.47477745, 0.26641131
 0.26409496, 0.28944183
 0.10979228, 0.29294468
 0.08308605, 0.28550169
 0.13946588, 0.29558739
 0.23145401, 0.29558739
 0.08308605, 0.29558739
 0.09495549, 0.29558739
 0.02077151, 0.29755211
 0.06824926, 0.28281001
 0.09198813, 0.28281001
 0.09495549, 0.28224277
 0.04747774, 0.27891619
 0.03264095, 0.27891619
 0.02077151, 0.26849589
 0.09495549, 0.17823234
 0.17804154, 0.16048769
 0.115727, 0.16137735
 0.20474777, 0.16137735
 0.3264095, 0.16213945
 0.4272997, 0.20485022
 0.35608309, 0.25305678
 0.43026706, 0.25305678
 0.40949555, 0.25527708
 0.3264095, 0.25790538
 0.30267062, 0.25790538
 0.14243323, 0.25868233
 0.20178042, 0.25868233
 0.29970326, 0.25863604
 0.32937685, 0.27401873
 0.08902077, 0.27530928
 0.10979228, 0.27410694
 0.05341246, 0.27395215
 0.18694362, 0.26665825
 0.08011869, 0.26665825
 0.0652819, 0.26665825
 0.05934718, 0.26665825
 0.09198813, 0.25071536
 0.08308605, 0.21716955
 0.05934718, 0.21716955
 0.115727, 0.21716955
 0.1810089, 0.21716955
 0.14540059, 0.21727336
 0.24035608, 0.21470534
 0.45103858, 0.17561864
 0.35608309, 0.26863904
 0.31750742, 0.27148453
 0.21958457, 0.27550134
 0.30267062, 0.27587793
 0.44807122, 0.27607798
 0.23442136, 0.27607798
 0.20474777, 0.27607798
 0.24925816, 0.27633366
 0.05934718, 0.27633366
 0.0652819, 0.27633366
 0.18694362, 0.28113969
 0.15133531, 0.28113969
 0.15430267, 0.28113969
 0.06824926, 0.28113969
 0.05934718, 0.27825372
 0.07121662, 0.27694243
 0.18991098, 0.2760126
 0.08011869, 0.2760126
 0.14540059, 0.27177912
 0.13649852, 0.18366201
 0.18397626, 0.18366201
 0.17804154, 0.18362238
 0.33531157, 0.14448198
 0.35608309, 0.2209179
 0.35014837, 0.23352076
 0.25222552, 0.23352076
 0.3620178, 0.23352076
 0.16320475, 0.23625176
 0.02373887, 0.23625176
 0.16023739, 0.22679924
 0.07715134, 0.22679924
 0.14836795, 0.22695169
 0.21364985, 0.22754663
 0.28486647, 0.2274838
 0.115727, 0.22977298
 0.03560831, 0.22869279
 0.10682493, 0.22869279
 0.06231454, 0.22789206
 0.09495549, 0.22789206
 0.14540059, 0.2278225
 0.05637982, 0.2278225
 0.06231454, 0.18417117
 0.16023739, 0.18417117
 0.18991098, 0.18643155
 0.23442136, 0.18648636
 0.21068249, 0.18648636
 0.18694362, 0.18648636
 0.38575668, 0.18648636
 0.16913947, 0.22877469
 0.1305638, 0.22877469
 0.09198813, 0.23507101
 0.19881306, 0.23507101
 0.17507418, 0.23496263
 0.25222552, 0.23509907
 0.46587537, 0.23823597
 0.34718101, 0.28781613
 0.09495549, 0.29296836
 0.02373887, 0.29281068
 0.06231454, 0.27733979
 0.07418398, 0.27733979
 0.08902077, 0.27733979
 0.10682493, 0.27733979
 0.07715134, 0.26872108
 0.05934718, 0.26872108
 0.08011869, 0.26872108
 0.13649852, 0.26872108
 0.26409496, 0.26995542
 0.20771513, 0.27497643
 0.15133531, 0.26963538
 0.15133531, 0.21767384
 0.17804154, 0.17949019
 0.25519288, 0.17954516
 0.37388724, 0.18854952
 0.18694362, 0.23865932
 0.27596439, 0.23865932
 0.34718101, 0.24002861
 0.35608309, 0.24148529
 0.30267062, 0.24148529
 0.27002967, 0.2470757
 0.22255193, 0.25329352
 0.3620178, 0.26006209
 0.41543027, 0.26006209
 0.12759644, 0.27632786
 0.03560831, 0.26633673
 0.05637982, 0.25305552
 0.03560831, 0.25305552
 0.08011869, 0.25305552
 0.20771513, 0.25137989
 0.1305638, 0.25121239
 0.07121662, 0.25121239
 0.05637982, 0.25121239
 0.07418398, 0.25121239
 0.10979228, 0.24997096
 0.12462908, 0.24442597
 0.32047478, 0.24442597
 0.18991098, 0.2493711
 0.39762611, 0.20427764
 0.24925816, 0.23707661
 0.08605341, 0.23707661
 0.13649852, 0.23707661
 0.05637982, 0.24291781
 0.04154303, 0.24291781
 0.08902077, 0.23855714
 0.03560831, 0.23855714
 0.03857567, 0.23710468
 0.0148368, 0.23710468
 0.03857567, 0.23368793
 0.08011869, 0.23381089
 0.06231454, 0.23381089
 0.0652819, 0.22938582
 0.04747774, 0.23168984
 0.05341246, 0.16945209
 0.0652819, 0.11779628
 0.15727003, 0.11779628
 0.15430267, 0.12757294
 0.17507418, 0.12757294
 0.37982196, 0.13212066
 0.45994065, 0.22390174
 0.48071217, 0.27436348
 0.47477745, 0.28206148
 0.38278932, 0.28681581
 0.23442136, 0.29003574
 0.08011869, 0.29479081
 0.16023739, 0.29025835
 0.13353116, 0.29025835
 0.13353116, 0.29226811
 0.04747774, 0.29599359
 0.13946588, 0.29025835
 0.16617211, 0.29025835
 0.18991098, 0.29025835
 0.21068249, 0.2889096
 0.18397626, 0.2889096
 0.02077151, 0.2889096
 0.04154303, 0.28059021
 0.03560831, 0.2267202
 0.16913947, 0.16498975
 0.21068249, 0.14608335
 0.24925816, 0.14784857
 0.43026706, 0.17616352
 0.52225519, 0.25734929
 0.5727003, 0.30611536
 0.62611276, 0.33759317
 0.54599407, 0.37054923
 0.53412463, 0.37054923
 0.54599407, 0.37061776
 0.56083086, 0.37061776
 0.51632047, 0.37061776
 0.27299703, 0.37471604
 0.17804154, 0.37442736
 0.18991098, 0.39477029
 0.16023739, 0.40143849
 0.1958457, 0.38839825
 0.20178042, 0.38813581
 0.21958457, 0.38680779
 0.33531157, 0.38680779
 0.18397626, 0.38721605
 0.10385757, 0.35826476
 0.03857567, 0.33625244
 0.11275964, 0.32327516
 0.18397626, 0.32327516
 0.16913947, 0.29072588
 0.05934718, 0.21458718
 0.1810089, 0.21304824
 0.24332344, 0.21304824
 0.23145401, 0.21304824
 0.23442136, 0.21304824
 0.2462908, 0.21304824
 0.33234421, 0.21316781
 0.2462908, 0.21379196
 0.70029674, 0.21170441
 0.50445104, 0.33856447
 0.18991098, 0.3690388
 0.15430267, 0.37538163
 0.35608309, 0.38459938
 0.07121662, 0.38526228
 0.02670623, 0.38027703
 0.21364985, 0.37055497
 0.11869436, 0.37055497
 0.08011869, 0.36789639
 0.05934718, 0.36789639
 0.14540059, 0.36789639
 0.16320475, 0.36789639
 0.115727, 0.3704579
 0.1305638, 0.37026504
 0.23442136, 0.28419046
 0.22551929, 0.21943647
 0.23145401, 0.2195077
 0.09495549, 0.2195077
 0.0652819, 0.16483081
 0.28783383, 0.16483081
 0.43323442, 0.19346575
 0.38278932, 0.26757911
 0.26706231, 0.27060555
 0.18397626, 0.27060555
 0.54896142, 0.2713395
 0.35608309, 0.32225974
 0.16913947, 0.32225974
 0.13353116, 0.32225974
 0.16617211, 0.32225974
 0.09495549, 0.32225974
 0.12166172, 0.32225974
 0.15430267, 0.32225974
 0.08308605, 0.32225974
 0.11275964, 0.32566064
 0.1305638, 0.32625094
 0.10979228, 0.32625094
 0.08605341, 0.3231769
 0.0504451, 0.3243831
 0.0504451, 0.31788087
 0.07418398, 0.22558432
 0.08902077, 0.13817084
 0.10385757, 0.13743744
 0.16913947, 0.13741209
 0.24035608, 0.13814528
 0.24035608, 0.17367469
 0.26409496, 0.17367469
 0.46290801, 0.18523732
 0.37091988, 0.2739218
 0.41246291, 0.28337595
 0.26409496, 0.28549974
 0.32344214, 0.28549974
 0.16320475, 0.28578193
 0.08605341, 0.28578193
 0.03857567, 0.29211425
 0.14836795, 0.28223156
 0.13649852, 0.28223156
 0.04154303, 0.28308428
 0.08308605, 0.28399227
 0.40356083, 0.28399227
 0.35608309, 0.28441274
 0.2611276, 0.28441274
 0.04451039, 0.2508171
 0.0504451, 0.2508171
 0.07715134, 0.2428113
 0.0652819, 0.2428113
 0.11275964, 0.241086
 0.10979228, 0.24264808
 0.21958457, 0.24224859
 0.20771513, 0.24012176
 0.35014837, 0.23974157
 0.39465875, 0.23974157
 0.29376855, 0.24063044
 0.26409496, 0.24317167
 0.17507418, 0.23990023
 0.29080119, 0.23990023
 0.23145401, 0.23990023
 0.25519288, 0.24163576
 0.26409496, 0.24576669
 0.04154303, 0.24576669
 0.08308605, 0.23904273
 0.18991098, 0.23904273
 0.30563798, 0.23990888
 0.11275964, 0.23991949
 0.14243323, 0.23943278
 0.03264095, 0.23943278
 0.04747774, 0.19245006
 0.09198813, 0.19245006
 0.10089021, 0.19210215
 0.15133531, 0.19186235
 0.09198813, 0.19186235
 0.16617211, 0.19186235
 0.17210682, 0.19186235
 0.12759644, 0.19186235
 0.24035608, 0.19186235
 0.26409496, 0.19186235
 0.24925816, 0.19165114
 0.08605341, 0.18041837
 0.1958457, 0.18041837
 0.05934718, 0.18099458
 0.0652819, 0.18480991
 0.02967359, 0.18835138
 0.09792285, 0.18035339
 0.14836795, 0.18039053
 0.08308605, 0.18039053
 0.09198813, 0.18039053
 0.11275964, 0.18039053
 0.10682493, 0.18039053
 0.01780415, 0.18039053
 0.20178042, 0.17860884
 0.45400593, 0.17242293
 0.26409496, 0.25756996
 0.21068249, 0.2619993
 0.13353116, 0.2619993
 0.09198813, 0.2619993
 0.23145401, 0.2619993
 0.37388724, 0.2619993
 0.28189911, 0.27000878
 0.21958457, 0.27075384
 0.23442136, 0.27075384
 0.25519288, 0.27075384
 0.19287834, 0.27075384
 0.18991098, 0.27080575
 0.1958457, 0.28659909
 0.15133531, 0.28665506
 0.01780415, 0.24621344
 0.1305638, 0.23064479
 0.10979228, 0.23064479
 0.17507418, 0.23064479
 0.1810089, 0.23071392
 0.23738872, 0.23071392
 0.15133531, 0.18322157
 0.13353116, 0.1753796
 0.12166172, 0.1753796
 0.14836795, 0.1753796
 0.07121662, 0.16580643
 0.10089021, 0.16580643
 0.05341246, 0.16555738
 0.10089021, 0.16507001
 0.29080119, 0.16507001
 0.3620178, 0.19179607
 0.3620178, 0.23546325
 0.29080119, 0.23546325
 0.27002967, 0.23546325
 0.21068249, 0.23667642
 0.22255193, 0.23518629
 0.09792285, 0.23518629
 0.10385757, 0.23518629
 0.39465875, 0.23518629
 0.25816024, 0.24213731
 0.05341246, 0.24213731
 0.04747774, 0.24213731
 0.18694362, 0.24039172
 0.33234421, 0.24044135
 0.09198813, 0.24044135
 0.05341246, 0.24044135
 0.10979228, 0.24044135
 0.0504451, 0.23897552
 0., 0.23866561
 0.115727, 0.23123406
 0.09792285, 0.23123406
 0.07418398, 0.23123406
 0.08902077, 0.23123406
 0.20771513, 0.20654273
 0.30267062, 0.20651739
 0.35608309, 0.20968559
 0.28189911, 0.22355716
 0.47477745, 0.22355716
 0.38575668, 0.27424806
 0.05637982, 0.27947741
 0.12462908, 0.27947741
 0.17804154, 0.27947741
 0.15430267, 0.27947741
 0.21068249, 0.28954661
 0.05934718, 0.28954661
 0.05637982, 0.29006331
 0.02670623, 0.29006331
 0.02967359, 0.2846343
 0.07418398, 0.28472491
 0.04747774, 0.28460456
 0.06824926, 0.28460456
 0.02373887, 0.28269532
 0.0652819, 0.22636055
 0.0652819, 0.14707061
 0.04747774, 0.14707061
 0.06231454, 0.14721054
 0.17804154, 0.14721054
 0.25519288, 0.14721054
 0.21958457, 0.17763867
 0.18694362, 0.17774111
 0.25519288, 0.17792057
 0.11275964, 0.17792057
 0.23145401, 0.17632438
 0.26706231, 0.17632438
 0.10682493, 0.18078079
 0.27893175, 0.18042273
 0.08605341, 0.18877905
 0.07418398, 0.18877905
 0.06231454, 0.18877905
 0.09198813, 0.19307855
 0.06231454, 0.19307855
 0.09792285, 0.19307855
 0.08902077, 0.19290216
 0.0504451, 0.19290216
 0.07121662, 0.18913803
 0.10682493, 0.18913803
 0.24332344, 0.18913803
 0.10682493, 0.18872947
 0.32047478, 0.18872947
 0.2462908, 0.20866715
 0.21958457, 0.20866715
 0.24035608, 0.20818981
 0.3620178, 0.20818981
 0.35311573, 0.23394935
 0.20771513, 0.23394935
 0.24332344, 0.23361746
 0.25222552, 0.23381756
 0.31750742, 0.23381756
 0.34718101, 0.23961735
 0.32047478, 0.24277152
 0.26706231, 0.24277152
 0.35905045, 0.24277152
 0.21364985, 0.29402909
 0.26706231, 0.29402909
 0.17210682, 0.29402909
 0.24332344, 0.26930921
 0.08605341, 0.26930921
 0.12166172, 0.24144851
 0.10682493, 0.24144851
 0.05637982, 0.24092897
 0.04747774, 0.23477127
 0.03264095, 0.23207935
 0.08011869, 0.22795031
 0.12166172, 0.22795031
 0.13649852, 0.22638508
 0.16320475, 0.22638508
 0.44510386, 0.18202429
 0.43916914, 0.26379738
 0.42136499, 0.26374515
 0.48367953, 0.26914403
 0.43620178, 0.28546248
 0.13649852, 0.28546248
 0.10089021, 0.28546248
 0.1958457, 0.28514633
 0.20178042, 0.28200392
 0.03264095, 0.28195898
 0.13946588, 0.28195898
 0.29970326, 0.28195898
 0.18991098, 0.28414092
 0.19287834, 0.28414092
 0.0504451, 0.28414092
 0.07418398, 0.28414092
 0.09495549, 0.28414092
 0.13946588, 0.28165186
 0.06231454, 0.26000851
 0.14243323, 0.18680247
 0.12166172, 0.18680247
 0.10979228, 0.18693659
 0.09198813, 0.18693659
 0.13649852, 0.18691058
 0.19881306, 0.19153945
 0.16617211, 0.19155864
 0.24332344, 0.14131193
 0.3264095, 0.1764925
 0.35905045, 0.21180561
 0.37091988, 0.23532748
 0.21661721, 0.23966276
 0.21068249, 0.2397941
 0.28486647, 0.2397941
 0.33827893, 0.24559442
 0.28486647, 0.24559442
 0.28486647, 0.24559442
 0.35014837, 0.24559442
 0.22848665, 0.25209913
 0.21661721, 0.268033
 0.15727003, 0.2683051
 0.05934718, 0.26258385
 0.00890208, 0.24730708
 0.07121662, 0.23570803
 0.10385757, 0.2323261
 0.02373887, 0.22048142
 0.14243323, 0.22048142
 0.16320475, 0.22059581
 0.15430267, 0.22059581
 0.115727, 0.22059581
 0.16913947, 0.22059581
 0.59050445, 0.21453871
 0.17804154, 0.29811982
 0.36498516, 0.29702169
 0.25222552, 0.3152916
 0.09792285, 0.31474933
 0.0504451, 0.31465582
 0.0148368, 0.31652525
 0.04154303, 0.31524329
 0.06231454, 0.31524329
 0.0504451, 0.31524329
 0.02077151, 0.31524329
 0.09198813, 0.31524329
 0.24332344, 0.31524329
 0.15727003, 0.31524329
 0.08011869, 0.31524329
 0.16320475, 0.22312208
 0.10385757, 0.22380016
 0.08011869, 0.17202658
 0.12759644, 0.1670114
 0.09495549, 0.16706374
 0.16617211, 0.16706374
 0.27893175, 0.16803096
 0.43620178, 0.18214195
 0.3620178, 0.25933867
 0.32937685, 0.25933867
 0.05934718, 0.27438178
 0.05637982, 0.26957645
 0.15430267, 0.26860898
 0.05934718, 0.26860898
 0.02967359, 0.26860898
 0.02373887, 0.26089896
 0.01780415, 0.2599103
 0.04451039, 0.25902406
 0.05637982, 0.25902406
 0.04451039, 0.26658222
 0.04747774, 0.26849464
 0.02967359, 0.26809166
 0.11275964, 0.23432339
 0.10385757, 0.20724468
 0.08011869, 0.12663898
 0.08308605, 0.12663898
 0.14540059, 0.12663898
 0.07418398, 0.12281052
 0.13649852, 0.12281052
 0.16320475, 0.12281052
 0.12759644, 0.12957479
 0.30563798, 0.13135416
 0.43026706, 0.19089867
 0.32937685, 0.25905665
 0.29376855, 0.25905665
 0.34421365, 0.25905665
 0.30563798, 0.27129
 0.1958457, 0.27129
 0.15727003, 0.26986996
 0.52225519, 0.26986996
 0.52225519, 0.314888
 0.20771513, 0.314888
 0.21958457, 0.31801246
 0.27002967, 0.31801246
 0.13353116, 0.31801246
 0.04747774, 0.32003752
 0.1305638, 0.30994343
 0.06231454, 0.30397404
 0.07418398, 0.30397404
 0.0504451, 0.30268233
 0.15430267, 0.29767142
 0.2462908, 0.29745931
 0.25519288, 0.29755462
 0.33234421, 0.29755462
 0.45697329, 0.30046363
 0.5578635, 0.2732825
 0.79228487, 0.323478
 0.89614243, 0.42624046
 0.72106825, 0.49236504
 0.64094955, 0.50779732
 0.54896142, 0.50903908
 0.35905045, 0.50903908
 0.25222552, 0.50648425
 0.12166172, 0.51851367
 0.06231454, 0.51504476
 0.13353116, 0.5094192
 0.12759644, 0.51214375
 0.14540059, 0.51214375
 0.09198813, 0.51655491
 0.21958457, 0.51387302
 0.12759644, 0.50208968
 0.09198813, 0.47878563
 0.13353116, 0.40542292
 0.0652819, 0.36457259
 0.11275964, 0.32043027
 0.0504451, 0.23237799
 0.11275964, 0.18092405
 0.21958457, 0.15953618
 0.4272997, 0.15953618
 0.22255193, 0.25586819
 0.30563798, 0.25606917
 0.4421365, 0.26158508
 0.43323442, 0.27185802
 0.40949555, 0.27185802
 0.23442136, 0.27415835
 0.115727, 0.27415835
 0.13649852, 0.27463873
 0.21661721, 0.27463873
 0.14836795, 0.27446065
 0.03560831, 0.27446065
 0.02967359, 0.27029918
 0.18991098, 0.26933884
 0.1958457, 0.26898378
 0.30267062, 0.2688737
 0.14836795, 0.26889779
 0.13946588, 0.26889779
 0.12166172, 0.26310432
 0.04154303, 0.24515631
 0.115727, 0.18946008
 0.05637982, 0.18946008
 0.13946588, 0.18946008
 0.12462908, 0.18946008
 0.20474777, 0.18946008
 0.32937685, 0.18946008
 0.32344214, 0.2115029
 0.31454006, 0.21432891
 0.14836795, 0.21432891
 0.08605341, 0.21433182
 0.17507418, 0.21350427
 0.18397626, 0.21350427
 0.12759644, 0.21350427
 0.05934718, 0.21350427
 0.10089021, 0.21799264
 0.06231454, 0.21712859
 0.04154303, 0.21804086
 0.08308605, 0.21269203
 0.10979228, 0.21269203
 0.15727003, 0.21279396
 0.06231454, 0.20836715
 0.04154303, 0.20117131
 0.08902077, 0.13785922
 0.10682493, 0.13785922
 0.10979228, 0.13785922
 0.05637982, 0.13785922
 0.0652819, 0.13223005
 0.15430267, 0.13223005
 0.10979228, 0.13223005
 0.16617211, 0.13234115
 0.29673591, 0.13490371
 0.4272997, 0.1884424
 0.39762611, 0.26018722
