Target,Output
 0.25222552, 0.44903514
 0.09495549, 0.44903514
 0.16320475, 0.44908482
 0.09792285, 0.44908482
 0.10979228, 0.44891722
 0.10682493, 0.44891722
 0.16617211, 0.44891722
 0.22255193, 0.44891722
 0.10089021, 0.44891722
 0.04154303, 0.44885022
 0.13353116, 0.44885022
 0.05637982, 0.44885022
 0.11275964, 0.44885022
 0.115727, 0.44885022
 0.15133531, 0.4496784
 0.27596439, 0.4496784
 0.29673591, 0.4496784
 0.42136499, 0.44960644
 0.67655786, 0.44914854
 0.77744807, 0.44970992
 0.6379822, 0.44970992
 0.30267062, 0.45051201
 0.28189911, 0.45049772
 0.32047478, 0.45049772
 0.34421365, 0.43254154
 0.46884273, 0.43144153
 0.39169139, 0.43090254
 0.38575668, 0.43070398
 0.35608309, 0.43070398
 0.30563798, 0.43070398
 0.18991098, 0.43070398
 0.10979228, 0.42908012
 0.12759644, 0.42908012
 0.07121662, 0.42908012
 0.06824926, 0.42908012
 0.115727, 0.42908012
 0.1810089, 0.42908012
 0.27002967, 0.42956609
 0.26706231, 0.43412412
 0.3264095, 0.43412412
 0.25519288, 0.43728998
 0.34421365, 0.43728998
 0.28783383, 0.43728998
 0.23145401, 0.43728998
 0.5578635, 0.43728998
 0.40652819, 0.43728998
 0.39169139, 0.43727877
 0.23442136, 0.42340126
 0.11869436, 0.36628244
 0.31454006, 0.3337439
 0.46290801, 0.33376619
 0.33234421, 0.33376619
 0.31750742, 0.33376619
 0.31750742, 0.33376619
 0.26409496, 0.33221432
 0.10089021, 0.33221432
 0.04154303, 0.33175072
 0.08308605, 0.3241488
 0.115727, 0.32420632
 0.20771513, 0.32493803
 0.17210682, 0.32413685
 0.14836795, 0.32413685
 0.18991098, 0.32413685
 0.1810089, 0.32413685
 0.24035608, 0.32413685
 0.32937685, 0.32413685
 0.38575668, 0.32413685
 0.45994065, 0.32413685
 0.33531157, 0.32413685
 0.40652819, 0.32413685
 0.34421365, 0.32413685
 0.26706231, 0.32417458
 0.18694362, 0.32417458
 0.22255193, 0.28152769
 0.29673591, 0.28152769
 0.20474777, 0.28162158
 0.25816024, 0.28156115
 0.19287834, 0.28156115
 0.11275964, 0.28156115
 0.19287834, 0.28041665
 0.29970326, 0.28041665
 0.26706231, 0.28043122
 0.25222552, 0.28043122
 0.13946588, 0.28043122
 0.10385757, 0.28122098
 0.15727003, 0.29061644
 0.17804154, 0.29175914
 0.22848665, 0.29175914
 0.13649852, 0.29175914
 0.30860534, 0.29175914
 0.15133531, 0.29175914
 0.22848665, 0.29175914
 0.63204748, 0.29175914
 0.4925816, 0.36548483
 0.50148368, 0.36965136
 0.40356083, 0.36980766
 0.56379822, 0.36982575
 0.3115727, 0.36982575
 0.18694362, 0.36982575
 0.05934718, 0.36982575
 0.17804154, 0.36395908
 0.08902077, 0.36395908
 0.11275964, 0.36395908
 0.0652819, 0.36395908
 0.10385757, 0.36403642
 0.05637982, 0.36403642
 0.09792285, 0.36313289
 0.05637982, 0.36304008
 0.10682493, 0.36343013
 0.07418398, 0.36353495
 0.13353116, 0.36353495
 0.14243323, 0.36353495
 0.14243323, 0.36353495
 0.48367953, 0.36353495
 0.34124629, 0.36353495
 0.1305638, 0.36353495
 0.17210682, 0.36353495
 0.3115727, 0.36353495
 0.32937685, 0.3636123
 0.16617211, 0.3636123
 0.03857567, 0.3636123
 0.10385757, 0.33154322
 0.0504451, 0.33154322
 0.07418398, 0.33056318
 0.0652819, 0.32542832
 0.09198813, 0.27734998
 0.10979228, 0.27734998
 0.09198813, 0.27798152
 0.04451039, 0.27798152
 0.15133531, 0.2786034
 0.03560831, 0.2786034
 0.09198813, 0.27787698
 0.1305638, 0.27787698
 0.09198813, 0.27787698
 0.15727003, 0.27787698
 0.27596439, 0.27796189
 0.8041543, 0.27796189
 0.31454006, 0.39283147
 0.12759644, 0.39283147
 0.05637982, 0.39283147
 0.08605341, 0.39283147
 0.16023739, 0.39283147
 0.15133531, 0.37047104
 0.27596439, 0.36913812
 0.51038576, 0.36913812
 0.53115727, 0.40010082
 0.25816024, 0.40985794
 0.14243323, 0.40998515
 0.20771513, 0.41177973
 0.08902077, 0.40541472
 0.15430267, 0.40566809
 0.12759644, 0.40566809
 0.05341246, 0.40566809
 0.07121662, 0.40566809
 0.08308605, 0.40566809
 0.09495549, 0.40566809
 0.17210682, 0.40548707
 0.13649852, 0.40548707
 0.16913947, 0.40548707
 0.27596439, 0.4113784
 0.33827893, 0.4113784
 0.87240356, 0.41109876
 0.24332344, 0.46714423
 0.39465875, 0.46714423
 0.42136499, 0.46328762
 0.34421365, 0.43533127
 0.08902077, 0.43622596
 0.16023739, 0.43622596
 0.25222552, 0.43622596
 0.31750742, 0.43622596
 0.16617211, 0.43554805
 0.10385757, 0.43554805
 0.05341246, 0.4354764
 0.09792285, 0.43445113
 0.10385757, 0.41418383
 0.11869436, 0.41418383
 0.05934718, 0.41418383
 0.10385757, 0.41748741
 0.10385757, 0.41748741
 0.08605341, 0.41748741
 0.13649852, 0.41748741
 0.14540059, 0.41748741
 0.19881306, 0.41748741
 0.30563798, 0.41388823
 0.40356083, 0.41324459
 0.66172107, 0.41323963
 0.63501484, 0.45136361
 0.3768546, 0.45736396
 0.17507418, 0.45736396
 0.1958457, 0.45736396
 0.27002967, 0.36809228
 0.21661721, 0.36809228
 0.43916914, 0.36809228
 0.31750742, 0.37093692
 0.08605341, 0.37093692
 0.13649852, 0.37093692
 0.16023739, 0.37093692
 0.14243323, 0.37093692
 0.05341246, 0.37093692
 0.12166172, 0.37093692
 0.07715134, 0.37093692
 0.07715134, 0.37093692
 0.2462908, 0.37103385
 0.15727003, 0.37103385
 0.09495549, 0.37103385
 0.12759644, 0.37103385
 0.09792285, 0.37103385
 0.09198813, 0.37093692
 0.32047478, 0.37093692
 0.3768546, 0.37093692
 0.55192878, 0.37093692
 0.74183976, 0.37304091
 0.41543027, 0.40842811
 0.18694362, 0.40846344
 0.23145401, 0.40691736
 0.42136499, 0.40298966
 0.3115727, 0.40298966
 0.10682493, 0.40264396
 0.04451039, 0.40321922
 0.01780415, 0.40035812
 0.07715134, 0.39443731
 0.03264095, 0.39443731
 0.10682493, 0.39443731
 0.05637982, 0.39443731
 0.04747774, 0.39443731
 0.15727003, 0.39443731
 0.18694362, 0.39443731
 0.10385757, 0.39443731
 0.23442136, 0.39443731
 0.3620178, 0.39443731
 0.40356083, 0.39443731
 0.47774481, 0.39446057
 0.72403561, 0.39849569
 0.27002967, 0.40457901
 0.52818991, 0.40457901
 0.52818991, 0.40467305
 0.1810089, 0.40467305
 0.26706231, 0.40467305
 0.60237389, 0.40467305
 0.62017804, 0.41217358
 0.45697329, 0.39977656
 0.46290801, 0.39977656
 0.47181009, 0.39977656
 0.30860534, 0.39977656
 0.23442136, 0.39967185
 0.30860534, 0.39967185
 0.32344214, 0.39967185
 0.1810089, 0.39967185
 0.20474777, 0.40217697
 0.27596439, 0.4016744
 0.48071217, 0.4056186
 0.35311573, 0.40583854
 0.41543027, 0.40583854
 0.50148368, 0.4152699
 0.43620178, 0.41581493
 0.62017804, 0.41581493
 0.81305638, 0.45121562
 0.68545994, 0.49294829
 0.60534125, 0.49426312
 0.45400593, 0.49463678
 0.33531157, 0.49463678
 0.40652819, 0.49463678
 0.3768546, 0.49431174
 0.33234421, 0.49431174
 0.23738872, 0.49431174
 0.27596439, 0.49431174
 0.25519288, 0.49431174
 0.2462908, 0.4942572
 0.08605341, 0.4942572
 0.115727, 0.45895704
 0.07121662, 0.45895704
 0.10089021, 0.45676209
 0.14243323, 0.45558548
 0.04154303, 0.45558548
 0.09495549, 0.44856927
 0.13649852, 0.44863792
 0.17804154, 0.44863792
 0.18397626, 0.45039431
 0.16913947, 0.44954427
 0.13946588, 0.44954427
 0.29673591, 0.44954427
 0.46290801, 0.44822578
 0.24925816, 0.44709344
 0.21068249, 0.44709344
 0.23442136, 0.44646825
 0.12759644, 0.3851244
 0.16617211, 0.33886292
 0.21661721, 0.28170997
 0.16617211, 0.28170997
 0.18991098, 0.28170997
 0.22848665, 0.28020104
 0.1810089, 0.27019887
 0.0504451, 0.27019887
 0.04154303, 0.27019887
 0.14540059, 0.27019887
 0.1958457, 0.27019887
 0.09495549, 0.27008146
 0.06231454, 0.27008146
 0.06824926, 0.27008146
 0.07715134, 0.27008146
 0.14836795, 0.27027501
 0.20474777, 0.27027501
 0.13649852, 0.27027501
 0.10682493, 0.27027501
 0.26706231, 0.27027501
 0.34124629, 0.27027501
 0.59940653, 0.27138734
 0.33531157, 0.32977845
 0.34421365, 0.32977845
 0.17507418, 0.33094384
 0.07715134, 0.31551038
 0.08011869, 0.31551038
 0.13353116, 0.31551038
 0.18694362, 0.31551038
 0.13649852, 0.31551038
 0.00890208, 0.31551038
 0.07121662, 0.30940934
 0.15133531, 0.30940934
 0.19881306, 0.30940934
 0.115727, 0.30932959
 0.02373887, 0.30932959
 0.0504451, 0.30932959
 0.05934718, 0.30932959
 0.02077151, 0.30932959
 0.10385757, 0.30932959
 0.115727, 0.30926857
 0.10682493, 0.30926857
 0.29080119, 0.30926857
 0.34421365, 0.30904345
 0.09495549, 0.30904345
 0.32344214, 0.30904345
 0.29080119, 0.30904345
 0.34124629, 0.30904345
 0.16913947, 0.30904345
 0.24035608, 0.30904345
 0.1810089, 0.21737731
 0.13946588, 0.21737731
 0.22255193, 0.21737731
 0.12759644, 0.21737731
 0.15430267, 0.21737731
 0.0504451, 0.21737731
 0.07715134, 0.21737731
 0.03264095, 0.21737731
 0.08011869, 0.21737731
 0.05637982, 0.21853586
 0.02967359, 0.21853586
 0.04154303, 0.21853586
 0.09198813, 0.21874845
 0.08308605, 0.21874845
 0.08605341, 0.21874845
 0.20178042, 0.21874845
 0.27893175, 0.21853935
 0.30860534, 0.2200017
 0.36795252, 0.22006233
 0.48367953, 0.23112697
 0.33827893, 0.28199292
 0.2611276, 0.28199292
 0.22848665, 0.28199292
 0.17507418, 0.28212613
 0.15430267, 0.28212613
 0.15133531, 0.28212613
 0.15133531, 0.28212613
 0.18694362, 0.28212613
 0.09495549, 0.28212613
 0.04451039, 0.28199292
 0.07715134, 0.28199292
 0.04747774, 0.28199292
 0.0504451, 0.28199292
 0.0504451, 0.28199292
 0.12462908, 0.28199292
 0.06231454, 0.28199292
 0.07121662, 0.28199292
 0.07715134, 0.28199292
 0.25816024, 0.28199292
 0.23442136, 0.28480137
 0.3115727, 0.28567648
 0.27299703, 0.28567648
 0.14243323, 0.28567648
 0.15133531, 0.28567648
 0.10385757, 0.28605046
 0.18694362, 0.28599505
 0.36498516, 0.28597353
 0.10979228, 0.2853751
 0.04154303, 0.2337037
 0.02373887, 0.23283637
 0.1810089, 0.22907595
 0.16320475, 0.22907595
 0.20178042, 0.22907595
 0.03560831, 0.2289239
 0.05341246, 0.2289239
 0.08308605, 0.2289239
 0.01186944, 0.2289239
 0.06824926, 0.22751403
 0.08308605, 0.22751403
 0.04451039, 0.22751403
 0.08902077, 0.22751403
 0.14836795, 0.22751403
 0.09495549, 0.22751403
 0.23145401, 0.22751403
 0.3264095, 0.22751403
 0.34421365, 0.22751403
 0.27002967, 0.22751403
 0.3264095, 0.22751403
 0.27596439, 0.22751403
 0.25222552, 0.22651587
 0.19287834, 0.22651587
 0.17210682, 0.22651587
 0.08902077, 0.22651587
 0.14540059, 0.22656137
 0.20771513, 0.22656137
 0.22551929, 0.21630038
 0.20178042, 0.21630038
 0.12462908, 0.21630038
 0.1305638, 0.21630038
 0.07121662, 0.21630038
 0.17804154, 0.21630038
 0.1958457, 0.21630038
 0.10979228, 0.21630038
 0.08605341, 0.21630038
 0.07715134, 0.21630038
 0.16320475, 0.22242284
 0.29376855, 0.22242284
 0.32344214, 0.22378215
 0.24925816, 0.23114704
 0.10089021, 0.23114704
 0.22848665, 0.23096392
 0.26706231, 0.23096392
 0.24925816, 0.23096392
 0.26409496, 0.23096392
 0.11275964, 0.21927212
 0.0652819, 0.21927212
 0.12759644, 0.21566145
 0.03264095, 0.21566145
 0.03857567, 0.2067139
 0.14243323, 0.2067139
 0.21068249, 0.2067139
 0.16913947, 0.2067139
 0.11869436, 0.2067139
 0.10682493, 0.2067139
 0.05637982, 0.2067139
 0.16913947, 0.20671936
 0.32047478, 0.20671936
 0.17210682, 0.20671936
 0.08605341, 0.20671936
 0.11275964, 0.20671936
 0.10089021, 0.20673758
 0.10385757, 0.20673758
 0.15430267, 0.20673758
 0.46587537, 0.20673758
 0.26409496, 0.26853668
 0.1810089, 0.26822431
 0.24332344, 0.26822431
 0.36795252, 0.26822431
 0.1305638, 0.27753569
 0.05934718, 0.27753569
 0.06231454, 0.27753569
 0.09495549, 0.27753569
 0.06824926, 0.27753569
 0.12462908, 0.27753569
 0.02373887, 0.27753569
 0.09792285, 0.27587455
 0.03857567, 0.27587455
 0.11275964, 0.27587455
 0.34124629, 0.27587455
 0.28783383, 0.27635735
 0.16913947, 0.27651249
 0.19287834, 0.27651249
 0.21958457, 0.2759376
 0.23738872, 0.2759376
 0.15727003, 0.2759376
 0.13946588, 0.2759376
 0.29673591, 0.2759376
 0.56379822, 0.27601749
 0.30860534, 0.32213408
 0.24925816, 0.32219138
 0.19287834, 0.32219138
 0.13946588, 0.32219138
 0.29080119, 0.31207486
 0.08605341, 0.31207486
 0.13649852, 0.31207486
 0.16320475, 0.31207486
 0.51632047, 0.30699259
 0.20178042, 0.32186067
 0.22848665, 0.32171513
 0.39762611, 0.32171513
 0.40949555, 0.32704001
 0.26409496, 0.32704001
 0.3768546, 0.32704001
 0.38872404, 0.33002922
 0.20178042, 0.33081599
 0.37091988, 0.34200164
 0.36498516, 0.34219023
 0.45400593, 0.34219023
 0.55192878, 0.34219023
 0.57566766, 0.34219023
 0.48367953, 0.34617599
 0.30860534, 0.34617599
 0.49554896, 0.34617599
 0.28189911, 0.3469841
 0.27299703, 0.3469841
 0.24332344, 0.34703795
 0.21958457, 0.34703795
 0.13649852, 0.34703795
 0.2611276, 0.34703795
 0.27002967, 0.34703795
 0.28486647, 0.34703795
 0.10979228, 0.34703795
 0.09792285, 0.347199
 0.04154303, 0.34671415
 0.02967359, 0.33569738
 0.06824926, 0.33291363
 0.0504451, 0.33291363
 0.11869436, 0.33291363
 0.06824926, 0.33281548
 0.03560831, 0.33275563
 0.10089021, 0.33275563
 0.26409496, 0.33269884
 0.27596439, 0.33169386
 0.16913947, 0.33271764
 0.37982196, 0.33215124
 0.51928783, 0.33334147
 0.56083086, 0.33334147
 0.5074184, 0.33334147
 0.37091988, 0.32810111
 0.33234421, 0.32810111
 0.19287834, 0.32820171
 0.29376855, 0.32723452
 0.24035608, 0.32712436
 0.05637982, 0.32712436
 0.20771513, 0.32712436
 0.4421365, 0.32712436
 0.47477745, 0.32712436
 0.22551929, 0.32712436
 0.1958457, 0.32712436
 0.10682493, 0.32704481
 0.17210682, 0.32704481
 0.05341246, 0.32704481
 0.12462908, 0.32704481
 0.24332344, 0.32838552
 0.1305638, 0.32838552
 0.11275964, 0.32838552
 0.17210682, 0.32838552
 0.41543027, 0.32838552
 0.47477745, 0.33359502
 0.48664688, 0.33389286
 0.46884273, 0.33389286
 0.47181009, 0.33389286
 0.48071217, 0.33389286
 0.42136499, 0.33389286
 0.16913947, 0.33389286
 0.16913947, 0.29808957
 0.10385757, 0.29109823
 0.09198813, 0.29095818
 0.06231454, 0.29095818
 0.05934718, 0.29095818
 0.0504451, 0.29022459
 0.02077151, 0.28927377
 0.05934718, 0.28191684
 0.0504451, 0.28191684
 0.07418398, 0.28191684
 0.16913947, 0.28191684
 0.13353116, 0.28191684
 0.03560831, 0.28354534
 0.12462908, 0.28354534
 0.115727, 0.28354534
 0.10979228, 0.28354534
 0.10979228, 0.28354534
 0.24332344, 0.28267693
 0.46290801, 0.28354534
 0.43323442, 0.28354534
 0.24925816, 0.28391211
 0.16617211, 0.28351142
 0.44510386, 0.28351142
 0.56083086, 0.28249357
 0.27002967, 0.32851044
 0.35608309, 0.32746499
 0.08902077, 0.32351672
 0.10385757, 0.32236793
 0.08308605, 0.32236793
 0.09495549, 0.32236793
 0.09198813, 0.32236793
 0.01780415, 0.32236793
 0.08605341, 0.32199558
 0.10385757, 0.32199558
 0.10089021, 0.32199558
 0.10979228, 0.32184553
 0.05341246, 0.32184553
 0.05341246, 0.32184553
 0.10682493, 0.32184553
 0.19881306, 0.32242478
 0.34718101, 0.319269
 0.27893175, 0.319269
 0.27002967, 0.31907965
 0.3115727, 0.31907965
 0.34421365, 0.31895152
 0.33234421, 0.31895152
 0.42136499, 0.31895152
 0.19287834, 0.31389195
 0.16023739, 0.31389195
 0.22848665, 0.31389195
 0.21958457, 0.31389195
 0.04451039, 0.31171278
 0.08605341, 0.24997866
 0.21068249, 0.24997866
 0.18397626, 0.24997866
 0.13353116, 0.24997866
 0.04451039, 0.24997866
 0.05934718, 0.24997866
 0.08605341, 0.24997866
 0.03264095, 0.24997866
 0.05341246, 0.25244775
 0.11275964, 0.25244775
 0.12759644, 0.25244775
 0.3115727, 0.25269977
 0.32937685, 0.25269977
 0.24035608, 0.25269977
 0.18397626, 0.25269977
 0.28783383, 0.25318855
 0.18694362, 0.25327691
 0.26706231, 0.25327691
 0.29673591, 0.25327691
 0.36795252, 0.25342623
 0.24035608, 0.25342623
 0.30267062, 0.25342623
 0.25222552, 0.25343394
 0.21958457, 0.2324737
 0.14836795, 0.23252205
 0.09792285, 0.23252205
 0.00296736, 0.23187623
 0.02670623, 0.22843399
 0.05637982, 0.22843399
 0.05934718, 0.22843399
 0.13649852, 0.22849407
 0.01780415, 0.22849407
 0.0652819, 0.22849407
 0.08902077, 0.22849407
 0.24925816, 0.22849407
 0.22848665, 0.22849407
 0.27299703, 0.22849407
 0.32047478, 0.22849407
 0.41839763, 0.22849407
 0.4421365, 0.2476054
 0.54005935, 0.26433348
 0.61424332, 0.30643284
 0.52818991, 0.33877709
 0.34718101, 0.34135452
 0.29673591, 0.34135452
 0.21661721, 0.34191282
 0.38575668, 0.3416585
 0.4421365, 0.34180451
 0.32344214, 0.34180451
 0.21958457, 0.34180451
 0.26409496, 0.34180949
 0.4421365, 0.34180949
 0.1305638, 0.34180949
 0.10979228, 0.34180949
 0.1810089, 0.34218474
 0.14836795, 0.34321495
 0.13353116, 0.34321495
 0.09495549, 0.34321495
 0.18694362, 0.3429822
 0.24925816, 0.34267499
 0.38872404, 0.3542471
 0.32937685, 0.35828457
 0.44510386, 0.35857812
 0.58753709, 0.35857812
 0.8041543, 0.35884929
 0.90504451, 0.43232835
 0.91097923, 0.48578871
 0.78931751, 0.48610357
 0.68249258, 0.48610357
 0.92878338, 0.50003667
 0.74777448, 0.50256615
 0.6379822, 0.50264839
 0.46587537, 0.50264839
 0.41839763, 0.50419437
 0.51335312, 0.50419437
 0.36498516, 0.50413404
 0.24332344, 0.50413404
 0.14540059, 0.50501957
 0.07121662, 0.50501957
 0.1810089, 0.50218331
 0.29376855, 0.50218331
 0.09792285, 0.49984056
 0.14836795, 0.49967017
 0.19287834, 0.49967017
 0.16320475, 0.49915261
 0.1810089, 0.49915261
 0.38278932, 0.49915261
 0.27893175, 0.49915261
 0.3264095, 0.49915261
 0.34718101, 0.49940633
 0.34718101, 0.49940633
 0.30267062, 0.49940633
 0.24035608, 0.4974108
 0.21958457, 0.49706084
 0.16023739, 0.49659429
 0.1305638, 0.49234978
 0.40356083, 0.48011672
 0.32937685, 0.47288976
 0.1305638, 0.415915
 0.24925816, 0.36852076
 0.24035608, 0.30732283
 0.0652819, 0.30732283
 0.05934718, 0.30595725
 0.16320475, 0.24728702
 0.12759644, 0.24728702
 0.08011869, 0.24728702
 0.15430267, 0.24728702
 0.14836795, 0.24728702
 0.24332344, 0.24728702
 0.46884273, 0.24728702
 0.33531157, 0.29107706
 0.69732938, 0.29107706
 1., 0.37499702
 0.9851632, 0.42976109
 0.78931751, 0.4412928
 0.60534125, 0.47806053
 0.42136499, 0.48707568
 0.58160237, 0.48707568
 0.55192878, 0.48707568
 0.37388724, 0.48707568
 0.20474777, 0.48947344
 0.14243323, 0.48798296
 0.20178042, 0.48798296
 0.25519288, 0.48785362
 0.25816024, 0.48785362
 0.21661721, 0.48843266
 0.18694362, 0.48959658
 0.10385757, 0.48959658
 0.09198813, 0.48747112
 0.115727, 0.48747112
 0.14836795, 0.48747112
 0.10979228, 0.49205296
 0.16023739, 0.49205296
 0.15133531, 0.49205296
 0.15133531, 0.4932355
 0.12462908, 0.4932355
 0.21661721, 0.4932355
 0.40949555, 0.4932355
 0.30563798, 0.49250696
 0.20771513, 0.48889077
 0.18397626, 0.47177353
 0.10385757, 0.47070193
 0.05934718, 0.42453592
 0.24035608, 0.33972369
 0.28783383, 0.33320064
 0.10385757, 0.33320064
 0.10385757, 0.32098426
 0.12462908, 0.25216368
 0.17507418, 0.25216368
 0.05637982, 0.25216368
 0.12166172, 0.25126746
 0.05341246, 0.25135657
 0.0652819, 0.25046543
 0.12166172, 0.25046543
 0.1305638, 0.25046543
 0.10979228, 0.25046543
 0.28486647, 0.25046543
 0.31750742, 0.25046543
 0.41543027, 0.25046543
 0.37091988, 0.25532221
 0.50445104, 0.25532221
 0.33531157, 0.2960957
 0.17210682, 0.2960957
 0.13353116, 0.2960957
 0.3115727, 0.2960957
 0.25519288, 0.2960957
 0.22848665, 0.29567071
 0.18694362, 0.29566111
 0.25519288, 0.29592929
 0.03857567, 0.29592929
 0.02670623, 0.29162071
 0.0652819, 0.28910926
 0.15133531, 0.28910926
 0.05637982, 0.28910926
 0.04747774, 0.28910926
 0.13946588, 0.28937754
 0.20771513, 0.28937754
 0.1958457, 0.28913349
 0.15727003, 0.28905789
 0.10979228, 0.28905789
 0.15430267, 0.28905789
 0.29673591, 0.28905789
 0.37982196, 0.28908766
 0.43026706, 0.28908766
 0.5578635, 0.28908766
 0.48961424, 0.32585205
 0.35608309, 0.32585205
 0.35014837, 0.32562278
 0.24035608, 0.32562278
 0.40059347, 0.32537474
 0.29673591, 0.32600716
 0.21068249, 0.32600716
 0.10385757, 0.32600716
 0.21661721, 0.32572543
 0.24332344, 0.32572543
 0.27893175, 0.32572543
 0.07418398, 0.32572543
 0.08902077, 0.32572543
 0.09495549, 0.32572543
 0.05341246, 0.33075563
 0.05637982, 0.33075563
 0.07121662, 0.33075563
 0.10682493, 0.33075563
 0.21661721, 0.33252269
 0.22551929, 0.33252269
 0.31454006, 0.33252269
 0.23442136, 0.33274767
 0.21364985, 0.33274767
 0.16617211, 0.33274767
 0.2611276, 0.33274767
 0.22551929, 0.33274767
 0.19881306, 0.33274767
 0.20474777, 0.33243831
 0.28189911, 0.29203895
 0.36795252, 0.24298768
 0.15727003, 0.24298768
 0.1958457, 0.24298768
 0.24332344, 0.24298768
 0.20178042, 0.23741927
 0.12759644, 0.23702447
 0.04451039, 0.23702447
 0.06824926, 0.23444376
 0.05341246, 0.23444376
 0.0504451, 0.23444376
 0.04154303, 0.23444376
 0.115727, 0.233581
 0.33531157, 0.233581
 0.24035608, 0.23365357
 0.17804154, 0.23365357
 0.21661721, 0.23365357
 0.40059347, 0.23365357
 0.34718101, 0.24013674
 0.39169139, 0.24013674
 0.32937685, 0.24013674
 0.46587537, 0.23994618
 0.35014837, 0.28385983
 0.1810089, 0.28385983
 0.24925816, 0.28385983
 0.27002967, 0.28385983
 0.16913947, 0.28385983
 0.11275964, 0.28387233
 0.19881306, 0.28346202
 0.1810089, 0.28322857
 0.12462908, 0.28322857
 0.06231454, 0.28322857
 0.21068249, 0.28322857
 0.08308605, 0.28322857
 0.08011869, 0.28322857
 0.13649852, 0.28322857
 0.07418398, 0.28322857
 0.15727003, 0.28322857
 0.1958457, 0.28322857
 0.19881306, 0.28322857
 0.37982196, 0.28941647
 0.39465875, 0.28941647
 0.38872404, 0.28941647
 0.29673591, 0.28941647
 0.17804154, 0.28964168
 0.11275964, 0.28964168
 0.07715134, 0.28950818
 0.07715134, 0.28950818
 0.05341246, 0.28950818
 0.18991098, 0.28695564
 0.21958457, 0.24284489
 0.22551929, 0.24284489
 0.26706231, 0.24284489
 0.18694362, 0.24284489
 0.31750742, 0.24284489
 0.19881306, 0.24284489
 0.20474777, 0.24284489
 0.09792285, 0.24284489
 0.10682493, 0.24215358
 0.14540059, 0.24215358
 0.10979228, 0.24215358
 0.115727, 0.24215358
 0.14243323, 0.24215358
 0.16320475, 0.24215358
 0.18397626, 0.24215358
 0.30563798, 0.24215358
 0.31750742, 0.24215358
 0.56973294, 0.24215358
 0.34124629, 0.32234621
 0.29673591, 0.32234621
 0.65875371, 0.32219434
 0.4272997, 0.36693255
 0.30267062, 0.36880048
 0.20474777, 0.36879207
 0.05637982, 0.36879207
 0.10979228, 0.36879207
 0.14540059, 0.36879207
 0.06824926, 0.36974669
 0.10089021, 0.36974669
 0.09495549, 0.36968059
 0.15133531, 0.36968059
 0.06231454, 0.36968059
 0.06824926, 0.36968059
 0.12166172, 0.36968059
 0.08308605, 0.36980542
 0.09198813, 0.36980542
 0.13946588, 0.36980542
 0.34421365, 0.36980542
 0.39465875, 0.36980542
 0.37982196, 0.37024288
 0.32937685, 0.37024288
 0.25816024, 0.37024288
 0.2611276, 0.37024288
 0.25222552, 0.37024288
 0.23442136, 0.37024288
 0.0652819, 0.37024288
 0.05341246, 0.35777065
 0.115727, 0.35681097
 0.1305638, 0.35681097
 0.08902077, 0.26432328
 0.19287834, 0.24215827
 0.05637982, 0.2406649
 0.03264095, 0.24069451
 0.03264095, 0.23504234
 0.08902077, 0.23504234
 0.08011869, 0.23504234
 0.10682493, 0.23504234
 0.06824926, 0.23521024
 0.11275964, 0.23528232
 0.12462908, 0.23528232
 0.13353116, 0.23528232
 0.1810089, 0.23528232
 0.53709199, 0.23528232
 0.32937685, 0.30955384
 0.38278932, 0.30955384
 0.5727003, 0.30955384
 0.41839763, 0.32876461
 0.43620178, 0.32835722
 0.34421365, 0.32835722
 0.20771513, 0.32835722
 0.17804154, 0.32835722
 0.05341246, 0.32835722
 0.08605341, 0.32835722
 0.06231454, 0.32835722
 0.09495549, 0.32835722
 0.10385757, 0.32826881
 0.0652819, 0.32820991
 0.06824926, 0.32820991
 0.04747774, 0.32820991
 0.09495549, 0.32822645
 0.14540059, 0.32822645
 0.13946588, 0.32822645
 0.08308605, 0.33225383
 0.1810089, 0.33225383
 0.16913947, 0.33225383
 0.115727, 0.33225383
 0.15727003, 0.33225383
 0.23145401, 0.33225383
 0.43026706, 0.33225383
 0.34124629, 0.33225383
 0.27002967, 0.33225383
 0.15133531, 0.32342763
 0.07715134, 0.32344376
 0.10385757, 0.32338046
 0.07121662, 0.26699448
 0.08902077, 0.26487405
 0.26706231, 0.26062764
 0.40059347, 0.26062764
 0.52818991, 0.26470191
 0.33827893, 0.31052574
 0.09792285, 0.31052574
 0.26409496, 0.31043666
 0.09495549, 0.31043666
 0.10089021, 0.31043666
 0.02967359, 0.31037732
 0.03857567, 0.30566221
 0.02967359, 0.30566221
 0.11869436, 0.30566221
 0.08605341, 0.30566221
 0.28189911, 0.30566221
 0.21068249, 0.30558964
 0.25816024, 0.30498584
 0.24925816, 0.30498584
 0.32047478, 0.30498584
 0.22848665, 0.30498584
 0.10979228, 0.30498584
 0.12166172, 0.30498584
 0.11275964, 0.30498584
 0.13946588, 0.30498584
 0.10385757, 0.30498584
 0.39465875, 0.30498584
 0.6884273, 0.30498584
 0.45994065, 0.36717784
 0.35014837, 0.36717784
 0.09198813, 0.36717784
 0.06231454, 0.36717784
 0.05341246, 0.36714751
 0.08902077, 0.36194088
 0.09792285, 0.36194088
 0.03857567, 0.36194088
 0.14836795, 0.36194088
 0.17210682, 0.36194088
 0.14836795, 0.36200316
 0.20771513, 0.36200316
 0.32344214, 0.36186268
 0.35608309, 0.36400111
 0.27299703, 0.36400111
 0.53115727, 0.36400111
 0.37091988, 0.36962271
 0.30563798, 0.36962271
 0.25519288, 0.36912506
 0.24332344, 0.36912506
 0.20474777, 0.36912506
 0.19287834, 0.36902747
 0.20178042, 0.36902747
 0.19287834, 0.36892999
 0.18991098, 0.36892999
 0.05934718, 0.36892999
 0.08308605, 0.36892999
 0.16617211, 0.36843893
 0.12759644, 0.30635159
 0.07121662, 0.30635159
 0.08605341, 0.30635159
 0.0504451, 0.30635159
 0.09495549, 0.30635159
 0.14836795, 0.30635159
 0.17210682, 0.30635159
 0.18991098, 0.3064943
 0.33234421, 0.30998231
 0.2611276, 0.30998231
 0.29080119, 0.30998231
 0.37388724, 0.30998231
 0.68545994, 0.31029631
 0.37388724, 0.37169188
 0.41246291, 0.37169188
 0.18694362, 0.3719888
 0.13946588, 0.35212661
 0.1958457, 0.35212661
 0.10979228, 0.35216806
 0.0504451, 0.35216806
 0.03857567, 0.35216806
 0.05637982, 0.34838086
 0.05341246, 0.34838086
 0.15133531, 0.34845865
 0.14243323, 0.34845865
 0.08011869, 0.34845865
 0.05637982, 0.34845865
 0.06824926, 0.34845865
 0.06231454, 0.34845865
 0.09198813, 0.34845865
 0.16023739, 0.34845865
 0.3115727, 0.34845865
 0.23442136, 0.34845865
 0.3115727, 0.34862156
 0.23442136, 0.34862156
 0.09792285, 0.34862156
 0.40059347, 0.34829594
 0.36795252, 0.34848687
 0.06824926, 0.34848687
 0.21958457, 0.34854578
 0.16617211, 0.34854578
 0.24035608, 0.2487685
 0.22255193, 0.2487685
 0.17804154, 0.23852771
 0.08902077, 0.23852771
 0.09198813, 0.23852771
 0.0652819, 0.23892271
 0.07121662, 0.23892271
 0.10979228, 0.23892271
 0.02373887, 0.24320141
 0.0504451, 0.23594534
 0.05341246, 0.23594534
 0.06824926, 0.23594534
 0.17804154, 0.23594534
 0.21958457, 0.23594534
 0.13946588, 0.23594534
 0.17210682, 0.23594534
 0.22255193, 0.23594534
 0.27002967, 0.23594534
 0.45400593, 0.23594534
 0.55192878, 0.27447484
 0.38278932, 0.31496645
 0.27299703, 0.31522243
 0.21958457, 0.31517119
 0.32937685, 0.3154613
 0.40949555, 0.31486094
 0.33234421, 0.31528998
 0.16913947, 0.31528998
 0.27002967, 0.31528998
 0.10385757, 0.31528998
 0.09792285, 0.31508657
 0.04451039, 0.31499952
 0.08902077, 0.31499952
 0.0652819, 0.31499952
 0.07418398, 0.31499952
 0.12462908, 0.31499952
 0.18397626, 0.31499952
 0.18397626, 0.31472091
 0.21068249, 0.31957421
 0.16320475, 0.3191342
 0.20474777, 0.3191342
 0.43323442, 0.31893482
 0.43620178, 0.31893482
 0.48367953, 0.31893482
 0.48367953, 0.32630145
 0.27596439, 0.32630145
 0.24035608, 0.32621591
 0.20178042, 0.32621591
 0.06824926, 0.32613386
 0.04747774, 0.28803672
 0.39169139, 0.28803672
 0.28783383, 0.28806955
 0.39465875, 0.2881969
 0.17804154, 0.28827791
 0.24035608, 0.28827791
 0.14243323, 0.28827791
 0.08605341, 0.28827791
 0.03560831, 0.28827791
 0.05341246, 0.28596528
 0.08011869, 0.28645551
 0.18694362, 0.28645551
 0.29080119, 0.28685927
 0.34421365, 0.28688256
 0.35311573, 0.28688256
 0.37091988, 0.28688256
 0.33827893, 0.28688256
 0.22848665, 0.28688256
 0.20771513, 0.28688256
 0.21364985, 0.28688256
 0.15133531, 0.28688256
 0.07121662, 0.28688256
 0.0652819, 0.28688256
 0.0504451, 0.28688256
 0.03560831, 0.23797012
 0.02967359, 0.23797012
 0.05934718, 0.23665075
 0.05934718, 0.2367145
 0.09198813, 0.2367145
 0.11869436, 0.23616263
 0.10089021, 0.23616263
 0.10682493, 0.23588014
 0.14836795, 0.231961
 0.10979228, 0.231961
 0.08308605, 0.231961
 0.07418398, 0.231961
 0.09198813, 0.231961
 0.10682493, 0.231961
 0.09198813, 0.231961
 0.10979228, 0.231961
 0.23738872, 0.231961
 0.28783383, 0.22902352
 0.28783383, 0.23181254
 0.29080119, 0.23181254
 0.14540059, 0.21629303
 0.33531157, 0.1857638
 0.4272997, 0.21435416
 0.1958457, 0.25541065
 0.13946588, 0.25515485
 0.1305638, 0.25515485
 0.19881306, 0.25515485
 0.09792285, 0.2551099
 0.11869436, 0.2551099
 0.10089021, 0.2551099
 0.04747774, 0.26328278
 0.10682493, 0.25968329
 0.27299703, 0.25968329
 0.10385757, 0.25968329
 0.09495549, 0.25968329
 0.16023739, 0.25968329
 0.20474777, 0.25968329
 0.15430267, 0.25968329
 0.24035608, 0.25968329
 0.16913947, 0.25968329
 0.29080119, 0.25968329
 0.42433234, 0.25968329
 0.56973294, 0.26026377
 0.59050445, 0.31944593
 0.61424332, 0.32470332
 0.33234421, 0.33780094
 0.06824926, 0.33780094
 0.19287834, 0.33780094
 0.10682493, 0.33780094
 0.09495549, 0.33780094
 0.0504451, 0.33780094
 0.10385757, 0.33780094
 0.18991098, 0.33780094
 0.10089021, 0.33780094
 0.10385757, 0.33780094
 0.2462908, 0.33790915
 0.05341246, 0.33790915
 0.17507418, 0.33790915
 0.12759644, 0.33790915
 0.05934718, 0.3388404
 0.09792285, 0.3388404
 0.17804154, 0.3388404
 0.16617211, 0.3388404
 0.10979228, 0.3388404
 0.16913947, 0.3388404
 0.30860534, 0.33891333
 0.45400593, 0.33890822
 0.4421365, 0.34554449
 0.50148368, 0.34554449
 0.30267062, 0.35220607
 0.16617211, 0.35097463
 0.27893175, 0.35097463
 0.1958457, 0.35028821
 0.09495549, 0.28800619
 0.12759644, 0.28800619
 0.13946588, 0.28800619
 0.1305638, 0.28800619
 0.01780415, 0.28800619
 0.06824926, 0.28067923
 0.14540059, 0.28067923
 0.03857567, 0.28067923
 0.06824926, 0.28067923
 0.07715134, 0.28073207
 0.15727003, 0.28073207
 0.07121662, 0.28073207
 0.12462908, 0.28073207
 0.13353116, 0.28073207
 0.16617211, 0.28073207
 0.29080119, 0.28073207
 0.20474777, 0.28086431
 0.27596439, 0.28086431
 0.49851632, 0.28086431
 0.56973294, 0.28086431
 0.3264095, 0.32707363
 0.25519288, 0.32707363
 0.17210682, 0.32707363
 0.37982196, 0.32299766
 0.26409496, 0.32915925
 0.29376855, 0.32919866
 0.09792285, 0.32918073
 0.12166172, 0.32904012
 0.115727, 0.32905596
 0.09495549, 0.32905596
 0.08308605, 0.32905596
 0.08605341, 0.32905596
 0.07715134, 0.32905596
 0.0652819, 0.33288955
 0.10682493, 0.33288955
 0.16913947, 0.33288955
 0.13946588, 0.34046353
 0.1305638, 0.34046353
 0.30860534, 0.34046353
 0.38278932, 0.34046353
 0.4421365, 0.34058148
 0.64391691, 0.34058148
 0.43323442, 0.37384048
 0.53115727, 0.37384048
 0.39762611, 0.37384048
 0.47181009, 0.37655489
 0.18991098, 0.37655489
 0.15133531, 0.37219906
 0.15727003, 0.36744474
 0.23442136, 0.36744474
 0.10682493, 0.36744474
 0.17210682, 0.36744474
 0.07715134, 0.36744474
 0.12759644, 0.36744474
 0.15727003, 0.36747708
 0.13946588, 0.36763748
 0.18694362, 0.36763748
 0.05637982, 0.36763748
 0.2611276, 0.36530566
 0.11275964, 0.36530566
 0.14836795, 0.36530566
 0.13353116, 0.36530566
 0.22848665, 0.36530566
 0.30860534, 0.36530566
 0.35311573, 0.36530566
 0.12759644, 0.36530566
 0.25222552, 0.36530566
 0.34124629, 0.36530566
 0.29673591, 0.36530566
 0.27596439, 0.36523571
 0.13946588, 0.31455729
 0.38575668, 0.31455729
 0.34421365, 0.28960877
 0.14836795, 0.28904307
 0.04747774, 0.24253041
 0.07121662, 0.2400016
 0.08011869, 0.2400016
 0.07418398, 0.2400016
 0.08011869, 0.2400016
 0.08902077, 0.24048418
 0.05341246, 0.24025873
 0.11869436, 0.24025873
 0.22848665, 0.24025873
 0.16320475, 0.24025873
 0.22551929, 0.24025873
 0.19287834, 0.24085316
 0.25519288, 0.24011353
 0.34421365, 0.24011353
 0.27299703, 0.24011353
 0.3620178, 0.24011353
 0.35905045, 0.24011353
 0.1810089, 0.24011353
 0.18694362, 0.24011353
 0.25816024, 0.24011353
 0.24925816, 0.24011353
 0.09792285, 0.24011353
 0.17210682, 0.23965945
 0.08308605, 0.23861696
 0.06231454, 0.23833924
 0.17507418, 0.23833924
 0.12462908, 0.23203185
 0.1958457, 0.23203185
 0.12166172, 0.23200177
 0.07418398, 0.23378708
 0.04747774, 0.23378708
 0.05934718, 0.23200177
 0.08902077, 0.23200177
 0.18694362, 0.23200177
 0.13649852, 0.23200177
 0.16023739, 0.23200177
 0.17804154, 0.23200177
 0.20771513, 0.23200177
 0.3620178, 0.23200177
 0.43026706, 0.23200177
 0.32344214, 0.26065105
 0.36795252, 0.2608493
 0.3620178, 0.2608493
 0.26706231, 0.2608493
 0.19881306, 0.2608493
 0.23738872, 0.26079825
 0.115727, 0.26079825
 0.11275964, 0.26079825
 0.05637982, 0.26079825
 0.0652819, 0.26079825
 0.09792285, 0.26129355
 0.04451039, 0.26079825
 0.02670623, 0.25990226
 0.0652819, 0.25565925
 0.09792285, 0.25565925
 0.1305638, 0.25565925
 0.13353116, 0.25565925
 0.1305638, 0.25565925
 0.13946588, 0.25565925
 0.12462908, 0.25565925
 0.22848665, 0.25565925
 0.37388724, 0.25565925
 0.5578635, 0.2565053
 0.38575668, 0.31221218
 0.30267062, 0.3131709
 0.33827893, 0.31300891
 0.31454006, 0.31300891
 0.29376855, 0.31300891
 0.33827893, 0.31300891
 0.10979228, 0.31300891
 0.09495549, 0.31300891
 0.19287834, 0.31300891
 0.27893175, 0.31300891
 0.06231454, 0.31316035
 0.05341246, 0.31316035
 0.09495549, 0.31316035
 0.10979228, 0.31316035
 0.01186944, 0.31316035
 0.06231454, 0.31119464
 0.07418398, 0.31119464
 0.17804154, 0.31119464
 0.23145401, 0.31119464
 0.14836795, 0.31119464
 0.13946588, 0.31133532
 0.53115727, 0.31133532
 0.41543027, 0.32031702
 0.41246291, 0.32031702
 0.41246291, 0.32040791
 0.29970326, 0.32040791
 0.64688427, 0.32039757
 0.17210682, 0.35732487
 0.09495549, 0.35529606
 0.25222552, 0.35529606
 0.2611276, 0.35529606
 0.3115727, 0.35529606
 0.21364985, 0.35529606
 0.07715134, 0.35529606
 0.08308605, 0.35529606
 0.10385757, 0.35529606
 0.06231454, 0.35523679
 0.04451039, 0.35565781
 0.10089021, 0.35565781
 0.13649852, 0.35550911
 0.0504451, 0.35550911
 0.11869436, 0.35550911
 0.32937685, 0.35550911
 0.38575668, 0.36177691
 0.50148368, 0.36177691
 0.31454006, 0.36439263
 0.29673591, 0.36439263
 0.29970326, 0.36439263
 0.29376855, 0.36439263
 0.24925816, 0.36439263
 0.45103858, 0.36439263
 0.20178042, 0.36439263
 0.1958457, 0.36377772
 0.20771513, 0.36373992
 0.0652819, 0.36373992
 0.23442136, 0.2904856
 0.11869436, 0.2904856
 0.10682493, 0.2904856
 0.09198813, 0.2904856
 0.08011869, 0.2904856
 0.12759644, 0.2904856
 0.15727003, 0.2904856
 0.12759644, 0.2904856
 0.26706231, 0.2904856
 0.25222552, 0.2904856
 0.20771513, 0.2904856
 0.11869436, 0.29222606
 0.11869436, 0.29250398
 0.15430267, 0.29250398
 0.18397626, 0.29663115
 0.15133531, 0.29663115
 0.46587537, 0.29663115
 0.52225519, 0.2902058
 0.45994065, 0.30579372
 0.28189911, 0.30579372
 0.19881306, 0.30579372
 0.29673591, 0.30578655
 0.12462908, 0.30578221
 0.32344214, 0.30578221
 0.43026706, 0.30383772
 0.15430267, 0.30960322
 0.14243323, 0.30960322
 0.05637982, 0.30960322
 0.02077151, 0.30718429
 0.04747774, 0.29836098
 0.04747774, 0.29836098
 0.0504451, 0.2984158
 0.11869436, 0.29972113
 0.08902077, 0.29972113
 0.0504451, 0.29864362
 0.12759644, 0.29864362
 0.09198813, 0.29864362
 0.19881306, 0.2984158
 0.29970326, 0.2984158
 0.49554896, 0.2984169
 0.42433234, 0.3005894
 0.31750742, 0.30127579
 0.37982196, 0.30127579
 0.35014837, 0.30174229
 0.28783383, 0.30174229
 0.08902077, 0.30174229
 0.11869436, 0.28378461
 0.32344214, 0.28378461
 0.11869436, 0.28378461
 0.13946588, 0.28378461
 0.03560831, 0.28378461
 0.04154303, 0.28378461
 0.0504451, 0.28378461
 0.06231454, 0.28378461
 0.01780415, 0.28378461
 0.06824926, 0.28344189
 0.04154303, 0.28344189
 0.03857567, 0.28344189
 0.18694362, 0.28344189
 0.1810089, 0.28344189
 0.09495549, 0.28344189
 0.16023739, 0.28331171
 0.23145401, 0.28331171
 0.38278932, 0.28331171
 0.43323442, 0.2835695
 0.29080119, 0.2835695
 0.3768546, 0.28392964
 0.35311573, 0.28389529
 0.18991098, 0.25968303
 0.18694362, 0.25954171
 0.16320475, 0.25954171
 0.21661721, 0.25954171
 0.05934718, 0.25954171
 0.0504451, 0.25954171
 0.12759644, 0.25954171
 0.07418398, 0.25954171
 0.05637982, 0.25954171
 0.03560831, 0.25954171
 0.09198813, 0.25954171
 0.04747774, 0.25954171
 0.07418398, 0.25954171
 0.09495549, 0.25954171
 0.08308605, 0.25954171
 0.09792285, 0.26270744
 0.115727, 0.26257746
 0.10682493, 0.26257746
 0.21068249, 0.26257746
 0.22848665, 0.26257746
 0.31750742, 0.26257746
 0.47774481, 0.26257746
 0.46587537, 0.28426416
 0.39762611, 0.28426416
 0.28783383, 0.28508802
 0.19287834, 0.28508802
 0.44807122, 0.28499633
 0.23738872, 0.28499633
 0.1810089, 0.28499633
 0.18397626, 0.28499633
 0.115727, 0.28499633
 0.0652819, 0.28499633
 0.07121662, 0.28499633
 0.05341246, 0.28499633
 0.0504451, 0.28499633
 0.02077151, 0.28499633
 0.03857567, 0.28221683
 0.04747774, 0.28221683
 0.11869436, 0.28221683
 0.14243323, 0.28221683
 0.10979228, 0.28221683
 0.21661721, 0.28221683
 0.30267062, 0.28221683
 0.29376855, 0.28227591
 0.40949555, 0.28248405
 0.34124629, 0.28248405
 0.37388724, 0.28261438
 0.40652819, 0.28261438
 0.17507418, 0.28261438
 0.15727003, 0.28261438
 0.29673591, 0.27901917
 0.10682493, 0.27055159
 0.20771513, 0.27028636
 0.1810089, 0.27028636
 0.26706231, 0.27029696
 0.20178042, 0.24304077
 0.115727, 0.24296893
 0.10385757, 0.24296893
 0.05934718, 0.2428497
 0.14540059, 0.2428497
 0.23145401, 0.2428497
 0.10979228, 0.2428497
 0.19881306, 0.2428497
 0.1305638, 0.24284255
 0.16320475, 0.24628566
 0.21958457, 0.24878552
 0.15430267, 0.2523247
 0.28189911, 0.2523247
 0.35311573, 0.2523247
 0.44510386, 0.2523247
 0.40652819, 0.27783716
 0.22551929, 0.27783367
 0.32344214, 0.27783367
 0.46884273, 0.27783367
 0.18991098, 0.28913575
 0.18694362, 0.28913575
 0.08902077, 0.28913575
 0.05341246, 0.28913575
 0.16913947, 0.2873547
 0.10089021, 0.28725572
 0.10682493, 0.28711571
 0.03857567, 0.28711571
 0.07418398, 0.28282489
 0.06824926, 0.28282489
 0.12462908, 0.28282489
 0.115727, 0.28282489
 0.115727, 0.28282489
 0.10385757, 0.28282489
 0.07715134, 0.28282489
 0.13649852, 0.28282489
 0.31454006, 0.28282489
 0.19881306, 0.28305671
 0.27893175, 0.28287025
 0.47774481, 0.28287025
 0.45697329, 0.28535519
 0.53115727, 0.28535519
 0.31454006, 0.31004448
 0.43620178, 0.31004448
 0.34124629, 0.31004448
 0.17804154, 0.30737528
 0.15727003, 0.30737528
 0.1305638, 0.30737528
 0.14540059, 0.30737528
 0.14243323, 0.30737528
 0.1305638, 0.30737528
 0.1305638, 0.30737528
 0.02077151, 0.30737528
 0.08902077, 0.30379585
 0.10385757, 0.30393564
 0.09792285, 0.30393564
 0.05341246, 0.30385174
 0.09495549, 0.30385174
 0.10979228, 0.30385174
 0.13649852, 0.30385174
 0.20178042, 0.30385174
 0.115727, 0.30385174
 0.43026706, 0.30385174
 0.26409496, 0.30476585
 0.2611276, 0.30476585
 0.54302671, 0.30476585
 0.56083086, 0.31291756
 0.34718101, 0.32320601
 0.05934718, 0.32140888
 0.10979228, 0.32140888
 0.115727, 0.31788476
 0.14243323, 0.31832164
 0.08308605, 0.31832164
 0.04154303, 0.31832164
 0.04154303, 0.31832164
 0.03560831, 0.31832164
 0.08308605, 0.31832164
 0.04451039, 0.31832164
 0.17804154, 0.31832164
 0.10682493, 0.31832164
 0.10089021, 0.31832164
 0.16913947, 0.321228
 0.17210682, 0.321228
 0.19287834, 0.321228
 0.18991098, 0.321228
 0.1810089, 0.321228
 0.30860534, 0.321228
 0.56083086, 0.32064786
 0.36795252, 0.32064786
 0.25519288, 0.32079152
 0.15430267, 0.32079152
 0.15133531, 0.32057083
 0.14540059, 0.32057083
 0.13649852, 0.32057083
 0.09792285, 0.31397595
 0.08605341, 0.31397595
 0.18694362, 0.31397595
 0.22255193, 0.31397595
 0.02967359, 0.31397595
 0.06231454, 0.31257727
 0.05934718, 0.31257727
 0.02967359, 0.31257727
 0.05934718, 0.31257727
 0.04154303, 0.31257727
 0.04747774, 0.31257727
 0.10089021, 0.31257727
 0.14243323, 0.31257727
 0.40059347, 0.31257727
 0.29673591, 0.31462051
 0.17804154, 0.31460293
 0.22551929, 0.31460293
 0.20474777, 0.31460293
 0.21068249, 0.31454175
 0.1958457, 0.31454175
 0.43916914, 0.31452646
 0.13649852, 0.31452646
 0.15133531, 0.26619344
 0.06824926, 0.26619344
 0.05637982, 0.26619344
 0.09198813, 0.26619344
 0.13353116, 0.26619344
 0.115727, 0.26619344
 0.20474777, 0.26619344
 0.15430267, 0.26619344
 0.10089021, 0.26619344
 0.05934718, 0.26619344
 0.14540059, 0.26619344
 0.07418398, 0.26619344
 0.10979228, 0.26619344
 0.13353116, 0.26619344
 0.14243323, 0.26898556
 0.37982196, 0.26898556
 0.32937685, 0.27073138
 0.13649852, 0.27339699
 0.14243323, 0.27339699
 0.14243323, 0.27339699
 0.0148368, 0.27201396
 0.06231454, 0.26182909
 0.12166172, 0.26182909
 0.02077151, 0.26182909
 0.18991098, 0.26182909
 0.03857567, 0.26182909
 0.07715134, 0.26183889
 0.07121662, 0.23048808
 0.07715134, 0.23048808
 0.06231454, 0.23048808
 0.16617211, 0.23048808
 0.12462908, 0.23048808
 0.06231454, 0.23048808
 0.15430267, 0.23048808
 0.16320475, 0.23048808
 0.03857567, 0.23053833
 0.08902077, 0.23053833
 0.12462908, 0.23088626
 0.13649852, 0.23088626
 0.28189911, 0.23088626
 0.29970326, 0.23195748
 0.38872404, 0.23275463
 0.49851632, 0.23406637
 0.48961424, 0.28444958
 0.30563798, 0.28444958
 0.27893175, 0.28444958
 0.24925816, 0.28444958
 0.16320475, 0.28444958
 0.24925816, 0.28444958
 0.22848665, 0.2850862
 0.10979228, 0.2850862
 0.26706231, 0.28494734
 0.19881306, 0.28840338
 0.13353116, 0.28820988
 0.03560831, 0.28820988
 0.03560831, 0.28753414
 0.10089021, 0.28753414
 0.04747774, 0.28713357
 0.06231454, 0.28713357
 0.07418398, 0.28713357
 0.14243323, 0.28713357
 0.09495549, 0.28713357
 0.11869436, 0.28713357
 0.38872404, 0.28713357
 0.51928783, 0.28713357
 0.41839763, 0.30274987
 0.36795252, 0.30274987
 0.29673591, 0.30274987
 0.18694362, 0.30274987
 0.49851632, 0.30275175
 0.23442136, 0.30275175
 0.15133531, 0.30275175
 0.14243323, 0.30275175
 0.1958457, 0.30275175
 0.44510386, 0.30275175
 0.38575668, 0.30275175
 0.29376855, 0.30275175
 0.20771513, 0.30275175
 0.08902077, 0.30275175
 0.10385757, 0.30275175
 0.1305638, 0.30275175
 0.05934718, 0.30282176
 0.04154303, 0.30282176
 0.2462908, 0.30282176
 0.37388724, 0.30428279
 0.27596439, 0.30442281
 0.21068249, 0.30442281
 0.29376855, 0.30442281
 0.29080119, 0.30442281
 0.30267062, 0.30442281
 0.41543027, 0.3044222
 0.35311573, 0.3044222
 0.43620178, 0.3042253
 0.47477745, 0.28852841
 0.26409496, 0.28852841
 0.10979228, 0.28852841
 0.08308605, 0.28852841
 0.13946588, 0.28852841
 0.23145401, 0.28516502
 0.08308605, 0.28516502
 0.09495549, 0.28516502
 0.02077151, 0.28516502
 0.06824926, 0.28100236
 0.09198813, 0.28100236
 0.09495549, 0.28089955
 0.04747774, 0.28089955
 0.03264095, 0.28098468
 0.02077151, 0.28098468
 0.09495549, 0.28103687
 0.17804154, 0.28103687
 0.115727, 0.28103687
 0.20474777, 0.28103687
 0.3264095, 0.2808934
 0.4272997, 0.2808934
 0.35608309, 0.2808934
 0.43026706, 0.2808934
 0.40949555, 0.2808934
 0.3264095, 0.2813766
 0.30267062, 0.28105919
 0.14243323, 0.2813766
 0.20178042, 0.2813766
 0.29970326, 0.28131831
 0.32937685, 0.25866213
 0.08902077, 0.25866213
 0.10979228, 0.25866213
 0.05341246, 0.25866213
 0.18694362, 0.25866213
 0.08011869, 0.25866213
 0.0652819, 0.25866213
 0.05934718, 0.25866213
 0.09198813, 0.25866213
 0.08308605, 0.25866213
 0.05934718, 0.25866213
 0.115727, 0.25866213
 0.1810089, 0.25866213
 0.14540059, 0.25866213
 0.24035608, 0.26644121
 0.45103858, 0.26657679
 0.35608309, 0.27961855
 0.31750742, 0.27961855
 0.21958457, 0.27961855
 0.30267062, 0.27961855
 0.44807122, 0.27961855
 0.23442136, 0.27961855
 0.20474777, 0.27961855
 0.24925816, 0.2735149
 0.05934718, 0.2735149
 0.0652819, 0.2735149
 0.18694362, 0.2735149
 0.15133531, 0.27357449
 0.15430267, 0.27355734
 0.06824926, 0.27355734
 0.05934718, 0.27355734
 0.07121662, 0.27355734
 0.18991098, 0.2754029
 0.08011869, 0.2754029
 0.14540059, 0.2754029
 0.13649852, 0.2754029
 0.18397626, 0.2754029
 0.17804154, 0.27633366
 0.33531157, 0.27633366
 0.35608309, 0.27633366
 0.35014837, 0.27694412
 0.25222552, 0.27694412
 0.3620178, 0.27694412
 0.16320475, 0.2786091
 0.02373887, 0.27683156
 0.16023739, 0.26742816
 0.07715134, 0.26742816
 0.14836795, 0.26742816
 0.21364985, 0.26631214
 0.28486647, 0.22675233
 0.115727, 0.22904272
 0.03560831, 0.22859883
 0.10682493, 0.22859883
 0.06231454, 0.22780128
 0.09495549, 0.22780128
 0.14540059, 0.227732
 0.05637982, 0.227732
 0.06231454, 0.227732
 0.16023739, 0.227732
 0.18991098, 0.227732
 0.23442136, 0.227732
 0.21068249, 0.227732
 0.18694362, 0.227732
 0.38575668, 0.227732
 0.16913947, 0.23395821
 0.1305638, 0.23395821
 0.09198813, 0.23395821
 0.19881306, 0.23395821
 0.17507418, 0.23386795
 0.25222552, 0.23386795
 0.46587537, 0.23386795
 0.34718101, 0.27845521
 0.09495549, 0.27845521
 0.02373887, 0.28076827
 0.06231454, 0.27845521
 0.07418398, 0.27845521
 0.08902077, 0.27845521
 0.10682493, 0.27845521
 0.07715134, 0.27733979
 0.05934718, 0.27733979
 0.08011869, 0.27733979
 0.13649852, 0.27733979
 0.26409496, 0.27733979
 0.20771513, 0.27787615
 0.15133531, 0.27787615
 0.15133531, 0.27787615
 0.17804154, 0.27787615
 0.25519288, 0.27787615
 0.37388724, 0.27787615
 0.18694362, 0.27787615
 0.27596439, 0.27787615
 0.34718101, 0.27826848
 0.35608309, 0.27679984
 0.30267062, 0.27679984
 0.27002967, 0.27713153
 0.22255193, 0.27713153
 0.3620178, 0.27725692
 0.41543027, 0.27725692
 0.12759644, 0.27859537
 0.03560831, 0.24743061
 0.05637982, 0.24743061
 0.03560831, 0.2475039
 0.08011869, 0.24981295
 0.20771513, 0.24981295
 0.1305638, 0.24981295
 0.07121662, 0.24981295
 0.05637982, 0.25121239
 0.07418398, 0.25121239
 0.10979228, 0.25121239
 0.12462908, 0.24993842
 0.32047478, 0.24993842
 0.18991098, 0.24993842
 0.39762611, 0.24993842
 0.24925816, 0.25094455
 0.08605341, 0.25094455
 0.13649852, 0.25094455
 0.05637982, 0.25094455
 0.04154303, 0.25094455
 0.08902077, 0.25094455
 0.03560831, 0.25094455
 0.03857567, 0.25094455
 0.0148368, 0.25094455
 0.03857567, 0.24693095
 0.08011869, 0.24693095
 0.06231454, 0.24693095
 0.0652819, 0.24693095
 0.04747774, 0.23366283
 0.05341246, 0.23366283
 0.0652819, 0.23366283
 0.15727003, 0.23366283
 0.15430267, 0.23366283
 0.17507418, 0.23366283
 0.37982196, 0.23368793
 0.45994065, 0.23368793
 0.48071217, 0.27592742
 0.47477745, 0.28257473
 0.38278932, 0.28257473
 0.23442136, 0.28271371
 0.08011869, 0.28271371
 0.16023739, 0.28176811
 0.13353116, 0.28291871
 0.13353116, 0.28202524
 0.04747774, 0.28143261
 0.13946588, 0.28143261
 0.16617211, 0.28143261
 0.18991098, 0.28143261
 0.21068249, 0.28025713
 0.18397626, 0.28154454
 0.02077151, 0.28154454
 0.04154303, 0.28154454
 0.03560831, 0.28225208
 0.16913947, 0.28225208
 0.21068249, 0.28225208
 0.24925816, 0.28225208
 0.43026706, 0.28281592
 0.52225519, 0.28281592
 0.5727003, 0.30224234
 0.62611276, 0.33278266
 0.54599407, 0.35510993
 0.53412463, 0.35510993
 0.54599407, 0.35510993
 0.56083086, 0.35510993
 0.51632047, 0.35510993
 0.27299703, 0.35537856
 0.17804154, 0.35335971
 0.18991098, 0.35278901
 0.16023739, 0.35278901
 0.1958457, 0.35670376
 0.20178042, 0.35650642
 0.21958457, 0.35642991
 0.33531157, 0.35864246
 0.18397626, 0.35864246
 0.10385757, 0.36810034
 0.03857567, 0.35070672
 0.11275964, 0.35070672
 0.18397626, 0.35070672
 0.16913947, 0.35070672
 0.05934718, 0.35361815
 0.1810089, 0.35361815
 0.24332344, 0.35432828
 0.23145401, 0.35432828
 0.23442136, 0.35432828
 0.2462908, 0.35432828
 0.33234421, 0.35155877
 0.2462908, 0.35155877
 0.70029674, 0.35155877
 0.50445104, 0.38208844
 0.18991098, 0.38265897
 0.15430267, 0.38265897
 0.35608309, 0.38265897
 0.07121662, 0.36930476
 0.02670623, 0.36815121
 0.21364985, 0.36584734
 0.11869436, 0.36584734
 0.08011869, 0.36584734
 0.05934718, 0.36584734
 0.14540059, 0.36584734
 0.16320475, 0.36613457
 0.115727, 0.36613457
 0.1305638, 0.36613457
 0.23442136, 0.36613457
 0.22551929, 0.36692014
 0.23145401, 0.36692014
 0.09495549, 0.36740737
 0.0652819, 0.36619905
 0.28783383, 0.36619905
 0.43323442, 0.36500599
 0.38278932, 0.36557602
 0.26706231, 0.36611725
 0.18397626, 0.36611725
 0.54896142, 0.36611725
 0.35608309, 0.37636905
 0.16913947, 0.37636905
 0.13353116, 0.37636905
 0.16617211, 0.32096356
 0.09495549, 0.31134977
 0.12166172, 0.31162084
 0.15430267, 0.31162084
 0.08308605, 0.31162084
 0.11275964, 0.31162084
 0.1305638, 0.32052579
 0.10979228, 0.32072772
 0.08605341, 0.32072772
 0.0504451, 0.32072772
 0.0504451, 0.31794424
 0.07418398, 0.31794424
 0.08902077, 0.31794424
 0.10385757, 0.31794424
 0.16913947, 0.31788397
 0.24035608, 0.31788397
 0.24035608, 0.31788397
 0.26409496, 0.31788397
 0.46290801, 0.31788397
 0.37091988, 0.32207148
 0.41246291, 0.32255443
 0.26409496, 0.32281019
 0.32344214, 0.32281019
 0.16320475, 0.32253147
 0.08605341, 0.32446851
 0.03857567, 0.28578193
 0.14836795, 0.28223156
 0.13649852, 0.28223156
 0.04154303, 0.28223156
 0.08308605, 0.28223156
 0.40356083, 0.28223156
 0.35608309, 0.28265185
 0.2611276, 0.28265185
 0.04451039, 0.28265185
 0.0504451, 0.28265185
 0.07715134, 0.28265185
 0.0652819, 0.28265185
 0.11275964, 0.28265185
 0.10979228, 0.28265185
 0.21958457, 0.28265185
 0.20771513, 0.281448
 0.35014837, 0.28081009
 0.39465875, 0.28108127
 0.29376855, 0.28108127
 0.26409496, 0.2813219
 0.17507418, 0.2813219
 0.29080119, 0.2813219
 0.23145401, 0.24913969
 0.25519288, 0.24913969
 0.26409496, 0.24154016
 0.04154303, 0.24154016
 0.08308605, 0.24154016
 0.18991098, 0.24154016
 0.30563798, 0.24154016
 0.11275964, 0.24232079
 0.14243323, 0.24232079
 0.03264095, 0.24232079
 0.04747774, 0.24020386
 0.09198813, 0.24020386
 0.10089021, 0.23687328
 0.15133531, 0.23658878
 0.09198813, 0.23658878
 0.16617211, 0.23658878
 0.17210682, 0.23658878
 0.12759644, 0.23658878
 0.24035608, 0.23658878
 0.26409496, 0.23658878
 0.24925816, 0.23658878
 0.08605341, 0.23658878
 0.1958457, 0.23661605
 0.05934718, 0.23655079
 0.0652819, 0.1918805
 0.02967359, 0.1918805
 0.09792285, 0.19124194
 0.14836795, 0.19124194
 0.08308605, 0.19124194
 0.09198813, 0.19124194
 0.11275964, 0.19124194
 0.10682493, 0.19124194
 0.01780415, 0.19124194
 0.20178042, 0.18947045
 0.45400593, 0.18947944
 0.26409496, 0.26194587
 0.21068249, 0.26194587
 0.13353116, 0.26194587
 0.09198813, 0.26194587
 0.23145401, 0.26194587
 0.37388724, 0.26194587
 0.28189911, 0.26979712
 0.21958457, 0.27054653
 0.23442136, 0.27054653
 0.25519288, 0.27054653
 0.19287834, 0.27054653
 0.18991098, 0.27054653
 0.1958457, 0.27054653
 0.15133531, 0.27054653
 0.01780415, 0.27054653
 0.1305638, 0.27054653
 0.10979228, 0.27054653
 0.17507418, 0.27054653
 0.1810089, 0.27054653
 0.23738872, 0.27054653
 0.15133531, 0.27075384
 0.13353116, 0.27075384
 0.12166172, 0.27075384
 0.14836795, 0.27075384
 0.07121662, 0.27075384
 0.10089021, 0.27080575
 0.05341246, 0.27049479
 0.10089021, 0.27053759
 0.29080119, 0.23036898
 0.3620178, 0.23088333
 0.3620178, 0.23088333
 0.29080119, 0.23088333
 0.27002967, 0.23088333
 0.21068249, 0.23088333
 0.22255193, 0.22705072
 0.09792285, 0.22705072
 0.10385757, 0.22705072
 0.39465875, 0.22705072
 0.25816024, 0.23406784
 0.05341246, 0.23406784
 0.04747774, 0.23406784
 0.18694362, 0.23414565
 0.33234421, 0.23414565
 0.09198813, 0.24039172
 0.05341246, 0.24039172
 0.10979228, 0.24039172
 0.0504451, 0.24039172
 0., 0.24039172
 0.115727, 0.2330502
 0.09792285, 0.2330502
 0.07418398, 0.2330502
 0.08902077, 0.2330502
 0.20771513, 0.2330502
 0.30267062, 0.23300902
 0.35608309, 0.23313457
 0.28189911, 0.23313457
 0.47477745, 0.23317995
 0.38575668, 0.27998046
 0.05637982, 0.27998046
 0.12462908, 0.27998046
 0.17804154, 0.27998046
 0.15430267, 0.27998046
 0.21068249, 0.27998046
 0.05934718, 0.27998046
 0.05637982, 0.27998046
 0.02670623, 0.27998046
 0.02967359, 0.27947741
 0.07418398, 0.27947741
 0.04747774, 0.27947741
 0.06824926, 0.27947741
 0.02373887, 0.27947741
 0.0652819, 0.27947741
 0.0652819, 0.27947741
 0.04747774, 0.27947741
 0.06231454, 0.27947741
 0.17804154, 0.27947741
 0.25519288, 0.28140737
 0.21958457, 0.28140737
 0.18694362, 0.28188691
 0.25519288, 0.28188691
 0.11275964, 0.28413715
 0.23145401, 0.28221048
 0.26706231, 0.28207212
 0.10682493, 0.28207212
 0.27893175, 0.28120947
 0.08605341, 0.23365737
 0.07418398, 0.18341115
 0.06231454, 0.18341115
 0.09198813, 0.18341115
 0.06231454, 0.18341115
 0.09792285, 0.18341115
 0.08902077, 0.18321743
 0.0504451, 0.18321743
 0.07121662, 0.18321743
 0.10682493, 0.18321743
 0.24332344, 0.18321743
 0.10682493, 0.18321743
 0.32047478, 0.18321743
 0.2462908, 0.2016853
 0.21958457, 0.20723977
 0.24035608, 0.20723977
 0.3620178, 0.20723977
 0.35311573, 0.23373917
 0.20771513, 0.23373917
 0.24332344, 0.23361746
 0.25222552, 0.23361746
 0.31750742, 0.23361746
 0.34718101, 0.2338228
 0.32047478, 0.2338228
 0.26706231, 0.2338228
 0.35905045, 0.2338228
 0.21364985, 0.2338228
 0.26706231, 0.2338228
 0.17210682, 0.2338228
 0.24332344, 0.2338228
 0.08605341, 0.2338228
 0.12166172, 0.2338228
 0.10682493, 0.2338228
 0.05637982, 0.2338228
 0.04747774, 0.23402259
 0.03264095, 0.23313851
 0.08011869, 0.22925391
 0.12166172, 0.22925391
 0.13649852, 0.22925391
 0.16320475, 0.22925391
 0.44510386, 0.22925391
 0.43916914, 0.26553287
 0.42136499, 0.26553287
 0.48367953, 0.2690352
 0.43620178, 0.28440636
 0.13649852, 0.28440636
 0.10089021, 0.28440636
 0.1958457, 0.28441193
 0.20178042, 0.28406466
 0.03264095, 0.2840158
 0.13946588, 0.28397716
 0.29970326, 0.28397716
 0.18991098, 0.28414092
 0.19287834, 0.28414092
 0.0504451, 0.28414092
 0.07418398, 0.28414092
 0.09495549, 0.28414092
 0.13946588, 0.28414092
 0.06231454, 0.28414092
 0.14243323, 0.28414092
 0.12166172, 0.28414092
 0.10979228, 0.28414092
 0.09198813, 0.28414092
 0.13649852, 0.28414092
 0.19881306, 0.28414092
 0.16617211, 0.28412879
 0.24332344, 0.28412879
 0.3264095, 0.28412879
 0.35905045, 0.28412879
 0.37091988, 0.28412879
 0.21661721, 0.28412879
 0.21068249, 0.28303299
 0.28486647, 0.26180573
 0.33827893, 0.23272254
 0.28486647, 0.23272254
 0.28486647, 0.23288694
 0.35014837, 0.23288694
 0.22848665, 0.23288694
 0.21661721, 0.23758938
 0.15727003, 0.23758938
 0.05934718, 0.23710819
 0.00890208, 0.23710819
 0.07121662, 0.229133
 0.10385757, 0.229133
 0.02373887, 0.22908765
 0.14243323, 0.22908765
 0.16320475, 0.22908765
 0.15430267, 0.22908765
 0.115727, 0.22908765
 0.16913947, 0.22908765
 0.59050445, 0.22908765
 0.17804154, 0.31355976
 0.36498516, 0.31355976
 0.25222552, 0.31384206
 0.09792285, 0.31384206
 0.0504451, 0.31375495
 0.0148368, 0.31375495
 0.04154303, 0.31375495
 0.06231454, 0.31296431
 0.0504451, 0.31296431
 0.02077151, 0.31343061
 0.09198813, 0.31343061
 0.24332344, 0.31343061
 0.15727003, 0.31343061
 0.08011869, 0.31409934
 0.16320475, 0.31409934
 0.10385757, 0.31409934
 0.08011869, 0.31465582
 0.12759644, 0.31465582
 0.09495549, 0.31465582
 0.16617211, 0.31524329
 0.27893175, 0.31524329
 0.43620178, 0.31458349
 0.3620178, 0.31981803
 0.32937685, 0.31981803
 0.05934718, 0.31981803
 0.05637982, 0.31981803
 0.15430267, 0.31981803
 0.05934718, 0.31981803
 0.02967359, 0.25781834
 0.02373887, 0.25890641
 0.01780415, 0.25857639
 0.04451039, 0.25857639
 0.05637982, 0.25865591
 0.04451039, 0.25865591
 0.04747774, 0.25897082
 0.02967359, 0.25897082
 0.11275964, 0.25897082
 0.10385757, 0.25897082
 0.08011869, 0.25897082
 0.08308605, 0.25897082
 0.14540059, 0.25897082
 0.07418398, 0.25897082
 0.13649852, 0.25897082
 0.16320475, 0.25897082
 0.12759644, 0.25897082
 0.30563798, 0.25897082
 0.43026706, 0.25942514
 0.32937685, 0.26103519
 0.29376855, 0.26138673
 0.34421365, 0.26138673
 0.30563798, 0.2571434
 0.1958457, 0.2571434
 0.15727003, 0.25507201
 0.52225519, 0.25507201
 0.52225519, 0.29794024
 0.20771513, 0.29794024
 0.21958457, 0.29794024
 0.27002967, 0.29794024
 0.13353116, 0.29794024
 0.04747774, 0.29977909
 0.1305638, 0.29977909
 0.06231454, 0.29977909
 0.07418398, 0.29977909
 0.0504451, 0.29977909
 0.15430267, 0.30440467
 0.2462908, 0.30440467
 0.25519288, 0.30572083
 0.33234421, 0.30572083
 0.45697329, 0.30762734
 0.5578635, 0.30762734
 0.79228487, 0.33120451
 0.89614243, 0.41653088
 0.72106825, 0.4764285
 0.64094955, 0.49139122
 0.54896142, 0.49156467
 0.35905045, 0.49453559
 0.25222552, 0.49262647
 0.12166172, 0.49262647
 0.06231454, 0.49139694
 0.13353116, 0.49385821
 0.12759644, 0.49401808
 0.14540059, 0.49401808
 0.09198813, 0.49401808
 0.21958457, 0.49143014
 0.12759644, 0.49283944
 0.09198813, 0.49283944
 0.13353116, 0.4933382
 0.0652819, 0.4933382
 0.11275964, 0.49432213
 0.0504451, 0.49432213
 0.11275964, 0.49432213
 0.21958457, 0.49432213
 0.4272997, 0.49432213
 0.22255193, 0.49298243
 0.30563798, 0.49298243
 0.4421365, 0.49002756
 0.43323442, 0.49002756
 0.40949555, 0.48994597
 0.23442136, 0.48903215
 0.115727, 0.46642574
 0.13649852, 0.39712644
 0.21661721, 0.35909274
 0.14836795, 0.31851805
 0.03560831, 0.2739819
 0.02967359, 0.2698395
 0.18991098, 0.26849001
 0.1958457, 0.26814104
 0.30267062, 0.26803285
 0.14836795, 0.26805747
 0.13946588, 0.26805747
 0.12166172, 0.26805747
 0.04154303, 0.26805747
 0.115727, 0.26805747
 0.05637982, 0.26805747
 0.13946588, 0.26850651
 0.12462908, 0.26850651
 0.20474777, 0.26850651
 0.32937685, 0.26850651
 0.32344214, 0.26850651
 0.31454006, 0.26889779
 0.14836795, 0.26889779
 0.08605341, 0.26889779
 0.17507418, 0.2686628
 0.18397626, 0.2686628
 0.12759644, 0.26287201
 0.05934718, 0.24493559
 0.10089021, 0.21130244
 0.06231454, 0.21052308
 0.04154303, 0.21052308
 0.08308605, 0.21052308
 0.10979228, 0.21052308
 0.15727003, 0.21052308
 0.06231454, 0.21052308
 0.04154303, 0.21330969
 0.08902077, 0.21330969
 0.10682493, 0.21331237
 0.10979228, 0.21269203
 0.05637982, 0.21269203
 0.0652819, 0.21269203
 0.15430267, 0.21269203
 0.10979228, 0.21269203
 0.16617211, 0.21269203
 0.29673591, 0.21269203
 0.4272997, 0.21329492
 0.39762611, 0.25805025
