Target,Output
 0.5578635, 0.26605655
 0.65875371, 0.31561876
 0.82195846, 0.36211059
 0.68249258, 0.44221922
 0.47774481, 0.44871647
 0.36795252, 0.45104052
 0.22255193, 0.45188737
 0.25222552, 0.45188737
 0.09495549, 0.45188737
 0.16320475, 0.44908482
 0.09792285, 0.44908482
 0.10979228, 0.44891722
 0.10682493, 0.44891722
 0.16617211, 0.44891722
 0.22255193, 0.45942932
 0.10089021, 0.46127465
 0.04154303, 0.46120329
 0.13353116, 0.4496784
 0.05637982, 0.4496784
 0.11275964, 0.45024649
 0.115727, 0.45438437
 0.15133531, 0.45591351
 0.27596439, 0.45218682
 0.29673591, 0.44421543
 0.42136499, 0.36777846
 0.67655786, 0.28616345
 0.77744807, 0.35299484
 0.6379822, 0.4149706
 0.30267062, 0.42653544
 0.28189911, 0.42652203
 0.32047478, 0.42652203
 0.34421365, 0.42652203
 0.46884273, 0.42652203
 0.39169139, 0.43090254
 0.38575668, 0.43070398
 0.35608309, 0.43070398
 0.30563798, 0.43805975
 0.18991098, 0.43907469
 0.10979228, 0.43460047
 0.12759644, 0.43412412
 0.07121662, 0.44100688
 0.06824926, 0.43794397
 0.115727, 0.43728998
 0.1810089, 0.43728998
 0.27002967, 0.43728998
 0.26706231, 0.43728998
 0.3264095, 0.43728998
 0.25519288, 0.42340867
 0.34421365, 0.36627021
 0.28783383, 0.2917781
 0.23145401, 0.29177188
 0.5578635, 0.29177188
 0.40652819, 0.33373993
 0.39169139, 0.33376619
 0.23442136, 0.32509525
 0.11869436, 0.32509525
 0.31454006, 0.32509525
 0.46290801, 0.32509525
 0.33234421, 0.33229314
 0.31750742, 0.33309384
 0.31750742, 0.33401605
 0.26409496, 0.33401605
 0.10089021, 0.33401605
 0.04154303, 0.33638823
 0.08308605, 0.32493803
 0.115727, 0.32670459
 0.20771513, 0.32670459
 0.17210682, 0.32413685
 0.14836795, 0.32413685
 0.18991098, 0.32413685
 0.1810089, 0.32413685
 0.24035608, 0.32417458
 0.32937685, 0.32417458
 0.38575668, 0.28152769
 0.45994065, 0.28147473
 0.33531157, 0.28104401
 0.40652819, 0.28104401
 0.34421365, 0.28152769
 0.26706231, 0.28148633
 0.18694362, 0.28033211
 0.22255193, 0.28033211
 0.29673591, 0.28033211
 0.20474777, 0.28047655
 0.25816024, 0.28041665
 0.19287834, 0.28161421
 0.11275964, 0.29177507
 0.19287834, 0.29247919
 0.29970326, 0.29247919
 0.26706231, 0.29248504
 0.25222552, 0.29248504
 0.13946588, 0.29248504
 0.10385757, 0.29248504
 0.15727003, 0.29175914
 0.17804154, 0.29175914
 0.22848665, 0.29175914
 0.13649852, 0.29175914
 0.30860534, 0.25578211
 0.15133531, 0.25578211
 0.22848665, 0.23443096
 0.63204748, 0.20831894
 0.4925816, 0.34519064
 0.50148368, 0.36635086
 0.40356083, 0.36652852
 0.56379822, 0.36982575
 0.3115727, 0.3699072
 0.18694362, 0.3699072
 0.05934718, 0.3699072
 0.17804154, 0.36403642
 0.08902077, 0.36443004
 0.11275964, 0.36453684
 0.0652819, 0.36453684
 0.10385757, 0.36453684
 0.05637982, 0.36453684
 0.09792285, 0.36362831
 0.05637982, 0.36353495
 0.10682493, 0.36353495
 0.07418398, 0.36353495
 0.13353116, 0.36353495
 0.14243323, 0.3636123
 0.14243323, 0.3636123
 0.48367953, 0.3636123
 0.34124629, 0.33675258
 0.1305638, 0.33675258
 0.17210682, 0.33578676
 0.3115727, 0.33095166
 0.32937685, 0.28277126
 0.16617211, 0.28277126
 0.03857567, 0.28346155
 0.10385757, 0.27798152
 0.0504451, 0.2786034
 0.07418398, 0.2786034
 0.0652819, 0.2786034
 0.09198813, 0.2786034
 0.10979228, 0.2786034
 0.09198813, 0.2786034
 0.04451039, 0.27868889
 0.15133531, 0.27868889
 0.03560831, 0.27868889
 0.09198813, 0.27796189
 0.1305638, 0.27796189
 0.09198813, 0.27796189
 0.15727003, 0.27796189
 0.27596439, 0.21992321
 0.8041543, 0.21190814
 0.31454006, 0.36913812
 0.12759644, 0.37076491
 0.05637982, 0.3709276
 0.08605341, 0.36862661
 0.16023739, 0.3717525
 0.15133531, 0.370529
 0.27596439, 0.37083455
 0.51038576, 0.37083455
 0.53115727, 0.40235007
 0.25816024, 0.41204641
 0.14243323, 0.41204641
 0.20771513, 0.41204641
 0.08902077, 0.40566809
 0.15430267, 0.40566809
 0.12759644, 0.40566809
 0.05341246, 0.4126218
 0.07121662, 0.41156575
 0.08308605, 0.41156575
 0.09495549, 0.41187726
 0.17210682, 0.4113784
 0.13649852, 0.4113784
 0.16913947, 0.30638894
 0.27596439, 0.30587357
 0.33827893, 0.30587357
 0.87240356, 0.30936817
 0.24332344, 0.4386492
 0.39465875, 0.4386492
 0.42136499, 0.43622596
 0.34421365, 0.43622596
 0.08902077, 0.43520724
 0.16023739, 0.41505537
 0.25222552, 0.41505537
 0.31750742, 0.41505537
 0.16617211, 0.41769006
 0.10385757, 0.41769006
 0.05341246, 0.41760897
 0.09792285, 0.41760897
 0.10385757, 0.41748741
 0.11869436, 0.41748741
 0.05934718, 0.41748741
 0.10385757, 0.41748741
 0.10385757, 0.4182643
 0.08605341, 0.4182643
 0.13649852, 0.41924678
 0.14540059, 0.41924678
 0.19881306, 0.41924678
 0.30563798, 0.25963226
 0.40356083, 0.25993719
 0.66172107, 0.26000722
 0.63501484, 0.35476896
 0.3768546, 0.36691017
 0.17507418, 0.36691017
 0.1958457, 0.36691017
 0.27002967, 0.36691017
 0.21661721, 0.36691017
 0.43916914, 0.36691017
 0.31750742, 0.37093692
 0.08605341, 0.3728157
 0.13649852, 0.37291383
 0.16023739, 0.37291383
 0.14243323, 0.37291383
 0.05341246, 0.37820025
 0.12166172, 0.37103385
 0.07715134, 0.37201676
 0.07715134, 0.37201676
 0.2462908, 0.37201676
 0.15727003, 0.37201676
 0.09495549, 0.37211976
 0.12759644, 0.37158767
 0.09792285, 0.37128478
 0.09198813, 0.35301418
 0.32047478, 0.27041584
 0.3768546, 0.26683039
 0.55192878, 0.27041584
 0.74183976, 0.31908425
 0.41543027, 0.40400361
 0.18694362, 0.4090879
 0.23145401, 0.40356784
 0.42136499, 0.40376176
 0.3115727, 0.40376176
 0.10682493, 0.40321922
 0.04451039, 0.40321922
 0.01780415, 0.40035812
 0.07715134, 0.39443731
 0.03264095, 0.39443731
 0.10682493, 0.39443731
 0.05637982, 0.39443731
 0.04747774, 0.39443731
 0.15727003, 0.39443731
 0.18694362, 0.39443731
 0.10385757, 0.39443731
 0.23442136, 0.39453418
 0.3620178, 0.39453418
 0.40356083, 0.39453418
 0.47774481, 0.39455705
 0.72403561, 0.38858542
 0.27002967, 0.38105104
 0.52818991, 0.38105104
 0.52818991, 0.38433211
 0.1810089, 0.38433211
 0.26706231, 0.38433211
 0.60237389, 0.38552162
 0.62017804, 0.40108181
 0.45697329, 0.40108181
 0.46290801, 0.40363188
 0.47181009, 0.40363188
 0.30860534, 0.4076635
 0.23442136, 0.40613632
 0.30860534, 0.40613632
 0.32344214, 0.41562188
 0.1810089, 0.41562188
 0.20474777, 0.41631067
 0.27596439, 0.45073456
 0.48071217, 0.45073456
 0.35311573, 0.45086508
 0.41543027, 0.45315813
 0.50148368, 0.45109446
 0.43620178, 0.40118334
 0.62017804, 0.40118334
 0.81305638, 0.40118334
 0.68545994, 0.47775836
 0.60534125, 0.49463678
 0.45400593, 0.49463678
 0.33531157, 0.49458222
 0.40652819, 0.49458222
 0.3768546, 0.4942572
 0.33234421, 0.4942572
 0.23738872, 0.4942572
 0.27596439, 0.4942572
 0.25519288, 0.4942572
 0.2462908, 0.49591299
 0.08605341, 0.49601499
 0.115727, 0.46026899
 0.07121662, 0.46610214
 0.10089021, 0.46380372
 0.14243323, 0.46256718
 0.04154303, 0.46256718
 0.09495549, 0.45405693
 0.13649852, 0.45244941
 0.17804154, 0.45244941
 0.18397626, 0.44868452
 0.16913947, 0.38498834
 0.13946588, 0.33724281
 0.29673591, 0.2775705
 0.46290801, 0.24471792
 0.24925816, 0.28203856
 0.21068249, 0.28056387
 0.23442136, 0.27023315
 0.12759644, 0.27023315
 0.16617211, 0.27023315
 0.21661721, 0.27023315
 0.16617211, 0.27023315
 0.18991098, 0.27023315
 0.22848665, 0.27019887
 0.1810089, 0.27019887
 0.0504451, 0.27019887
 0.04154303, 0.27039288
 0.14540059, 0.27039288
 0.1958457, 0.27039288
 0.09495549, 0.27374641
 0.06231454, 0.27027501
 0.06824926, 0.27027501
 0.07715134, 0.27027501
 0.14836795, 0.27027501
 0.20474777, 0.27027501
 0.13649852, 0.26803978
 0.10682493, 0.17707322
 0.26706231, 0.16838217
 0.34124629, 0.18418583
 0.59940653, 0.21838271
 0.33531157, 0.31483908
 0.34421365, 0.31483908
 0.17507418, 0.31551038
 0.07715134, 0.31551038
 0.08011869, 0.31551038
 0.13353116, 0.31551038
 0.18694362, 0.31551038
 0.13649852, 0.31551038
 0.00890208, 0.32237735
 0.07121662, 0.30940934
 0.15133531, 0.3094253
 0.19881306, 0.30951701
 0.115727, 0.30942118
 0.02373887, 0.30942118
 0.0504451, 0.30942118
 0.05934718, 0.30942118
 0.02077151, 0.30942118
 0.10385757, 0.30942118
 0.115727, 0.30926857
 0.10682493, 0.30930655
 0.29080119, 0.30930655
 0.34421365, 0.21737731
 0.09495549, 0.21737731
 0.32344214, 0.21737731
 0.29080119, 0.21737731
 0.34124629, 0.21737731
 0.16913947, 0.21737731
 0.24035608, 0.21737731
 0.1810089, 0.21737731
 0.13946588, 0.21737731
 0.22255193, 0.21853586
 0.12759644, 0.21853586
 0.15430267, 0.21853586
 0.0504451, 0.21874845
 0.07715134, 0.21874845
 0.03264095, 0.21874845
 0.08011869, 0.21874845
 0.05637982, 0.21874845
 0.02967359, 0.22089028
 0.04154303, 0.22027501
 0.09198813, 0.22027501
 0.08308605, 0.22027501
 0.08605341, 0.22027501
 0.20178042, 0.21848781
 0.27893175, 0.21839132
 0.30860534, 0.21839132
 0.36795252, 0.21840695
 0.48367953, 0.23124371
 0.33827893, 0.28212613
 0.2611276, 0.28212613
 0.22848665, 0.28212613
 0.17507418, 0.28212613
 0.15430267, 0.28212613
 0.15133531, 0.28212613
 0.15133531, 0.28212613
 0.18694362, 0.28212613
 0.09495549, 0.28212613
 0.04451039, 0.28199292
 0.07715134, 0.28199292
 0.04747774, 0.28199292
 0.0504451, 0.28480137
 0.0504451, 0.28567648
 0.12462908, 0.28567648
 0.06231454, 0.28567648
 0.07121662, 0.28567648
 0.07715134, 0.28605046
 0.25816024, 0.28605046
 0.23442136, 0.28554482
 0.3115727, 0.27766158
 0.27299703, 0.22005409
 0.14243323, 0.19997406
 0.15133531, 0.19997406
 0.10385757, 0.19997406
 0.18694362, 0.19993056
 0.36498516, 0.19993056
 0.10979228, 0.2337037
 0.04154303, 0.2337037
 0.02373887, 0.23283637
 0.1810089, 0.22907595
 0.16320475, 0.22907595
 0.20178042, 0.22907595
 0.03560831, 0.2289239
 0.05341246, 0.2289239
 0.08308605, 0.2289239
 0.01186944, 0.2289239
 0.06824926, 0.22751403
 0.08308605, 0.22751403
 0.04451039, 0.22751403
 0.08902077, 0.22751403
 0.14836795, 0.22751403
 0.09495549, 0.22618412
 0.23145401, 0.21877224
 0.3264095, 0.21877224
 0.34421365, 0.22625071
 0.27002967, 0.22629628
 0.3264095, 0.22629628
 0.27596439, 0.21598047
 0.25222552, 0.21630038
 0.19287834, 0.21630038
 0.17210682, 0.21630038
 0.08902077, 0.21630038
 0.14540059, 0.21630038
 0.20771513, 0.21632836
 0.22551929, 0.21632836
 0.20178042, 0.21632836
 0.12462908, 0.21630038
 0.1305638, 0.22242284
 0.07121662, 0.22242284
 0.17804154, 0.22242284
 0.1958457, 0.22987373
 0.10979228, 0.22987373
 0.08605341, 0.22987373
 0.07715134, 0.23008545
 0.16320475, 0.23008545
 0.29376855, 0.23008545
 0.32344214, 0.21965292
 0.24925816, 0.21965292
 0.10089021, 0.21744403
 0.22848665, 0.21706625
 0.26706231, 0.21706625
 0.24925816, 0.21706625
 0.26409496, 0.21706625
 0.11275964, 0.21706625
 0.0652819, 0.21706625
 0.12759644, 0.21566145
 0.03264095, 0.21566145
 0.03857567, 0.20671936
 0.14243323, 0.20671936
 0.21068249, 0.20671936
 0.16913947, 0.20671936
 0.11869436, 0.20671936
 0.10682493, 0.20673758
 0.05637982, 0.20673758
 0.16913947, 0.20673758
 0.32047478, 0.20673758
 0.17210682, 0.20673758
 0.08605341, 0.2055651
 0.11275964, 0.20327653
 0.10089021, 0.20327653
 0.10385757, 0.20327653
 0.15430267, 0.20327653
 0.46587537, 0.20327653
 0.26409496, 0.26822431
 0.1810089, 0.26822431
 0.24332344, 0.26822431
 0.36795252, 0.26822431
 0.1305638, 0.27753569
 0.05934718, 0.27892126
 0.06231454, 0.28421136
 0.09495549, 0.28421136
 0.06824926, 0.28476478
 0.12462908, 0.28476478
 0.02373887, 0.28476478
 0.09792285, 0.27635735
 0.03857567, 0.27635735
 0.11275964, 0.27635735
 0.34124629, 0.27580794
 0.28783383, 0.27580794
 0.16913947, 0.27651249
 0.19287834, 0.27651249
 0.21958457, 0.27599018
 0.23738872, 0.27599018
 0.15727003, 0.27599018
 0.13946588, 0.22992728
 0.29673591, 0.22992728
 0.56379822, 0.23020379
 0.30860534, 0.31207486
 0.24925816, 0.30699259
 0.19287834, 0.30699259
 0.13946588, 0.30699259
 0.29080119, 0.30699259
 0.08605341, 0.30699259
 0.13649852, 0.30699259
 0.16320475, 0.30699259
 0.51632047, 0.31025457
 0.20178042, 0.32584828
 0.22848665, 0.33754351
 0.39762611, 0.33774286
 0.40949555, 0.34219023
 0.26409496, 0.34219023
 0.3768546, 0.34219023
 0.38872404, 0.34219023
 0.20178042, 0.34219023
 0.37091988, 0.34219023
 0.36498516, 0.34219023
 0.45400593, 0.34219023
 0.55192878, 0.34223961
 0.57566766, 0.33651088
 0.48367953, 0.34623511
 0.30860534, 0.34623511
 0.49554896, 0.34622919
 0.28189911, 0.34703795
 0.27299703, 0.34703795
 0.24332344, 0.3540497
 0.21958457, 0.3688824
 0.13649852, 0.39705166
 0.2611276, 0.3540497
 0.27002967, 0.3540497
 0.28486647, 0.3540497
 0.10979228, 0.35397743
 0.09792285, 0.34706894
 0.04154303, 0.34658314
 0.02967359, 0.3355446
 0.06824926, 0.33175125
 0.0504451, 0.33277573
 0.11869436, 0.33220968
 0.06824926, 0.32981391
 0.03560831, 0.32684236
 0.10089021, 0.32684236
 0.26409496, 0.27230953
 0.27596439, 0.27159968
 0.16913947, 0.27132215
 0.37982196, 0.18489561
 0.51928783, 0.23416083
 0.56083086, 0.29999721
 0.5074184, 0.32696934
 0.37091988, 0.32967706
 0.33234421, 0.32967706
 0.19287834, 0.32967706
 0.29376855, 0.32723452
 0.24035608, 0.32712436
 0.05637982, 0.32712436
 0.20771513, 0.32712436
 0.4421365, 0.32712436
 0.47477745, 0.32846625
 0.22551929, 0.32846625
 0.1958457, 0.32846625
 0.10682493, 0.32838552
 0.17210682, 0.32838552
 0.05341246, 0.3342822
 0.12462908, 0.33368486
 0.24332344, 0.33368486
 0.1305638, 0.33368486
 0.11275964, 0.33368486
 0.17210682, 0.33304254
 0.41543027, 0.33304254
 0.47477745, 0.29808957
 0.48664688, 0.28869309
 0.46884273, 0.29109823
 0.47181009, 0.29109823
 0.48071217, 0.29109823
 0.42136499, 0.29037543
 0.16913947, 0.29037543
 0.16913947, 0.29037543
 0.10385757, 0.29037543
 0.09198813, 0.29022459
 0.06231454, 0.29022459
 0.05934718, 0.29022459
 0.0504451, 0.29207614
 0.02077151, 0.29109916
 0.05934718, 0.28354534
 0.0504451, 0.28354534
 0.07418398, 0.28354534
 0.16913947, 0.28267693
 0.13353116, 0.28267693
 0.03560831, 0.28267693
 0.12462908, 0.28305912
 0.115727, 0.28238485
 0.10979228, 0.28238485
 0.10979228, 0.28129145
 0.24332344, 0.28129145
 0.46290801, 0.28224312
 0.43323442, 0.27614024
 0.24925816, 0.2738541
 0.16617211, 0.27423996
 0.44510386, 0.27423996
 0.56083086, 0.27444019
 0.27002967, 0.323568
 0.35608309, 0.32266951
 0.08902077, 0.32266951
 0.10385757, 0.32266951
 0.08308605, 0.32539319
 0.09495549, 0.32539319
 0.09198813, 0.32539319
 0.01780415, 0.32539319
 0.08605341, 0.32257594
 0.10385757, 0.32257594
 0.10089021, 0.32257594
 0.10979228, 0.32242478
 0.05341246, 0.32242478
 0.05341246, 0.32242478
 0.10682493, 0.32242478
 0.19881306, 0.32242478
 0.34718101, 0.31282428
 0.27893175, 0.31112891
 0.27002967, 0.31101351
 0.3115727, 0.31101351
 0.34421365, 0.30864477
 0.33234421, 0.22429257
 0.42136499, 0.22429257
 0.19287834, 0.24997866
 0.16023739, 0.24997866
 0.22848665, 0.24997866
 0.21958457, 0.24997866
 0.04451039, 0.24997866
 0.08605341, 0.24997866
 0.21068249, 0.25546592
 0.18397626, 0.25546592
 0.13353116, 0.25546592
 0.04451039, 0.25572628
 0.05934718, 0.25572628
 0.08605341, 0.25572628
 0.03264095, 0.25572628
 0.05341246, 0.25334114
 0.11275964, 0.25342984
 0.12759644, 0.25327691
 0.3115727, 0.25327691
 0.32937685, 0.25327691
 0.24035608, 0.25327691
 0.18397626, 0.25327691
 0.28783383, 0.25327691
 0.18694362, 0.21147908
 0.26706231, 0.21149829
 0.29673591, 0.21149829
 0.36795252, 0.21184122
 0.24035608, 0.23250994
 0.30267062, 0.23250994
 0.25222552, 0.23252205
 0.21958457, 0.23259221
 0.14836795, 0.23259221
 0.09792285, 0.23259221
 0.00296736, 0.23194466
 0.02670623, 0.22849407
 0.05637982, 0.22849407
 0.05934718, 0.22849407
 0.13649852, 0.22849407
 0.01780415, 0.22849407
 0.0652819, 0.22849407
 0.08902077, 0.22849407
 0.24925816, 0.22849407
 0.22848665, 0.22849407
 0.27299703, 0.22849407
 0.32047478, 0.22849407
 0.41839763, 0.22866062
 0.4421365, 0.24786411
 0.54005935, 0.26466149
 0.61424332, 0.30690552
 0.52818991, 0.33933415
 0.34718101, 0.34225113
 0.29673591, 0.34225113
 0.21661721, 0.34317924
 0.38575668, 0.34166348
 0.4421365, 0.34233806
 0.32344214, 0.3433694
 0.21958457, 0.3433694
 0.26409496, 0.3433694
 0.4421365, 0.3433694
 0.1305638, 0.3433694
 0.10979228, 0.35501142
 0.1810089, 0.35882284
 0.14836795, 0.35930835
 0.13353116, 0.35930835
 0.09495549, 0.35930835
 0.18694362, 0.35885828
 0.24925816, 0.35850034
 0.38872404, 0.35850034
 0.32937685, 0.35857812
 0.44510386, 0.35857812
 0.58753709, 0.31903385
 0.8041543, 0.33960784
 0.90504451, 0.42855688
 0.91097923, 0.4861377
 0.78931751, 0.4864673
 0.68249258, 0.48688868
 0.92878338, 0.50168273
 0.74777448, 0.50522903
 0.6379822, 0.50522903
 0.46587537, 0.50522903
 0.41839763, 0.50509314
 0.51335312, 0.50509314
 0.36498516, 0.50501957
 0.24332344, 0.50501957
 0.14540059, 0.50501957
 0.07121662, 0.50501957
 0.1810089, 0.50684753
 0.29376855, 0.50765294
 0.09792285, 0.50521292
 0.14836795, 0.50074824
 0.19287834, 0.50074824
 0.16320475, 0.49945723
 0.1810089, 0.4975646
 0.38278932, 0.49721446
 0.27893175, 0.49669704
 0.3264095, 0.49245137
 0.34718101, 0.48021563
 0.34718101, 0.47331313
 0.30267062, 0.41606912
 0.24035608, 0.36834269
 0.21958457, 0.30669014
 0.16023739, 0.30669014
 0.1305638, 0.30669014
 0.40356083, 0.24560135
 0.32937685, 0.25012871
 0.1305638, 0.25012871
 0.24925816, 0.25012871
 0.24035608, 0.25313286
 0.0652819, 0.25313286
 0.05934718, 0.24875951
 0.16320475, 0.2514361
 0.12759644, 0.2514361
 0.08011869, 0.25116446
 0.15430267, 0.24940063
 0.14836795, 0.24942742
 0.24332344, 0.24942742
 0.46884273, 0.24942742
 0.33531157, 0.29181572
 0.69732938, 0.29181572
 1., 0.37506061
 0.9851632, 0.43189366
 0.78931751, 0.44347032
 0.60534125, 0.48516315
 0.42136499, 0.49389331
 0.58160237, 0.49389331
 0.55192878, 0.49452523
 0.37388724, 0.49575231
 0.20474777, 0.49575231
 0.14243323, 0.48972836
 0.20178042, 0.48972836
 0.25519288, 0.48959658
 0.25816024, 0.49422456
 0.21661721, 0.49422456
 0.18694362, 0.49422456
 0.10385757, 0.50466249
 0.09198813, 0.49353851
 0.115727, 0.4932355
 0.14836795, 0.4932355
 0.10979228, 0.49305409
 0.16023739, 0.49457634
 0.15133531, 0.47731964
 0.15133531, 0.47622112
 0.12462908, 0.42876295
 0.21661721, 0.34674574
 0.40949555, 0.3399175
 0.30563798, 0.34044401
 0.20771513, 0.32670475
 0.18397626, 0.2578076
 0.10385757, 0.2578076
 0.05934718, 0.2578076
 0.24035608, 0.25216368
 0.28783383, 0.2522547
 0.10385757, 0.2522547
 0.10385757, 0.2522547
 0.12462908, 0.2522547
 0.17507418, 0.2522547
 0.05637982, 0.2522547
 0.12166172, 0.25135657
 0.05341246, 0.25135657
 0.0652819, 0.25046543
 0.12166172, 0.25046543
 0.1305638, 0.25046543
 0.10979228, 0.25046543
 0.28486647, 0.25046543
 0.31750742, 0.25046543
 0.41543027, 0.25046543
 0.37091988, 0.25462205
 0.50445104, 0.25447959
 0.33531157, 0.29613708
 0.17210682, 0.29700736
 0.13353116, 0.29700736
 0.3115727, 0.29700736
 0.25519288, 0.29700868
 0.22848665, 0.29700868
 0.18694362, 0.29700868
 0.25519288, 0.29621431
 0.03857567, 0.29621431
 0.02670623, 0.29189507
 0.0652819, 0.28937754
 0.15133531, 0.28937754
 0.05637982, 0.28937754
 0.04747774, 0.28937754
 0.13946588, 0.28937754
 0.20771513, 0.28937754
 0.1958457, 0.29398574
 0.15727003, 0.29390398
 0.10979228, 0.29390398
 0.15430267, 0.28747359
 0.29673591, 0.27907698
 0.37982196, 0.21434726
 0.43026706, 0.23410993
 0.5578635, 0.25865739
 0.48961424, 0.31310123
 0.35608309, 0.32537474
 0.35014837, 0.32537474
 0.24035608, 0.32537474
 0.40059347, 0.32537474
 0.29673591, 0.32600716
 0.21068249, 0.32600716
 0.10385757, 0.33104837
 0.21661721, 0.33075563
 0.24332344, 0.33075563
 0.27893175, 0.33075563
 0.07418398, 0.34015784
 0.08902077, 0.33766311
 0.09495549, 0.33766311
 0.05341246, 0.33790065
 0.05637982, 0.33274767
 0.07121662, 0.33274767
 0.10682493, 0.33274767
 0.21661721, 0.33274767
 0.22551929, 0.33274767
 0.31454006, 0.33274767
 0.23442136, 0.29228403
 0.21364985, 0.24312722
 0.16617211, 0.24312722
 0.2611276, 0.24312722
 0.22551929, 0.24312722
 0.19881306, 0.2054959
 0.20474777, 0.20476841
 0.28189911, 0.20476841
 0.36795252, 0.20481404
 0.15727003, 0.23707489
 0.1958457, 0.23707489
 0.24332344, 0.23707489
 0.20178042, 0.23707489
 0.12759644, 0.23707489
 0.04451039, 0.2371506
 0.06824926, 0.2345171
 0.05341246, 0.2345171
 0.0504451, 0.2345171
 0.04154303, 0.23751526
 0.115727, 0.23662008
 0.33531157, 0.23448897
 0.24035608, 0.23427338
 0.17804154, 0.23427338
 0.21661721, 0.23427338
 0.40059347, 0.23427338
 0.34718101, 0.23994618
 0.39169139, 0.23994618
 0.32937685, 0.23995324
 0.46587537, 0.23995324
 0.35014837, 0.28365643
 0.1810089, 0.28365643
 0.24925816, 0.28365643
 0.27002967, 0.28365643
 0.16913947, 0.28365643
 0.11275964, 0.28425862
 0.19881306, 0.28383896
 0.1810089, 0.28322857
 0.12462908, 0.28322857
 0.06231454, 0.28322857
 0.21068249, 0.28322857
 0.08308605, 0.28941647
 0.08011869, 0.28941647
 0.13649852, 0.28941647
 0.07418398, 0.28941647
 0.15727003, 0.28941647
 0.1958457, 0.28941647
 0.19881306, 0.28919419
 0.37982196, 0.28919419
 0.39465875, 0.28824558
 0.38872404, 0.2892715
 0.29673591, 0.24390647
 0.17804154, 0.24538104
 0.11275964, 0.24538104
 0.07715134, 0.24538104
 0.07715134, 0.24538104
 0.05341246, 0.24538104
 0.18991098, 0.24284489
 0.21958457, 0.24284489
 0.22551929, 0.24284489
 0.26706231, 0.24284489
 0.18694362, 0.24284489
 0.31750742, 0.24284489
 0.19881306, 0.24284489
 0.20474777, 0.24284489
 0.09792285, 0.24284489
 0.10682493, 0.24215358
 0.14540059, 0.24215358
 0.10979228, 0.24215358
 0.115727, 0.24215358
 0.14243323, 0.24215358
 0.16320475, 0.24175242
 0.18397626, 0.20785812
 0.30563798, 0.20687741
 0.31750742, 0.20777932
 0.56973294, 0.20777932
 0.34124629, 0.3117227
 0.29673591, 0.31582252
 0.65875371, 0.32414853
 0.4272997, 0.37543009
 0.30267062, 0.37687346
 0.20474777, 0.37686385
 0.05637982, 0.37686385
 0.10979228, 0.36974669
 0.14540059, 0.36974669
 0.06824926, 0.36987159
 0.10089021, 0.36987159
 0.09495549, 0.36980542
 0.15133531, 0.36980542
 0.06231454, 0.36980542
 0.06824926, 0.36980542
 0.12166172, 0.36980542
 0.08308605, 0.36980542
 0.09198813, 0.36980542
 0.13946588, 0.36980542
 0.34421365, 0.36980542
 0.39465875, 0.36980542
 0.37982196, 0.35777065
 0.32937685, 0.35777065
 0.25816024, 0.35777065
 0.2611276, 0.2652185
 0.25222552, 0.24303802
 0.23442136, 0.24156131
 0.0652819, 0.24310319
 0.05341246, 0.24484682
 0.115727, 0.24216711
 0.1305638, 0.24216711
 0.08902077, 0.24216711
 0.19287834, 0.24235512
 0.05637982, 0.2410026
 0.03264095, 0.2410026
 0.03264095, 0.23533042
 0.08902077, 0.23533042
 0.08011869, 0.23533042
 0.10682493, 0.23533042
 0.06824926, 0.23528232
 0.11275964, 0.23528232
 0.12462908, 0.23528232
 0.13353116, 0.23351008
 0.1810089, 0.2088256
 0.53709199, 0.18018514
 0.32937685, 0.29782369
 0.38278932, 0.30012864
 0.5727003, 0.30900014
 0.41839763, 0.32835722
 0.43620178, 0.32835722
 0.34421365, 0.32835722
 0.20771513, 0.32835722
 0.17804154, 0.32835722
 0.05341246, 0.32835722
 0.08605341, 0.32837379
 0.06231454, 0.32837379
 0.09495549, 0.32837379
 0.10385757, 0.33414769
 0.0652819, 0.33408612
 0.06824926, 0.33408612
 0.04747774, 0.33408612
 0.09495549, 0.33225383
 0.14540059, 0.33225383
 0.13946588, 0.33225383
 0.08308605, 0.33225383
 0.1810089, 0.33225383
 0.16913947, 0.32342763
 0.115727, 0.32404669
 0.15727003, 0.32398227
 0.23145401, 0.26597642
 0.43026706, 0.26211094
 0.34124629, 0.25937161
 0.27002967, 0.25968939
 0.15133531, 0.26113936
 0.07715134, 0.26113936
 0.10385757, 0.26113936
 0.07121662, 0.26113936
 0.08902077, 0.26113936
 0.26706231, 0.26113936
 0.40059347, 0.26113936
 0.52818991, 0.26470191
 0.33827893, 0.31052574
 0.09792285, 0.31718557
 0.26409496, 0.31709156
 0.09495549, 0.31709156
 0.10089021, 0.31709156
 0.02967359, 0.31702894
 0.03857567, 0.30714095
 0.02967359, 0.30724654
 0.11869436, 0.30724654
 0.08605341, 0.30724654
 0.28189911, 0.31087112
 0.21068249, 0.310725
 0.25816024, 0.30498584
 0.24925816, 0.30498584
 0.32047478, 0.30498584
 0.22848665, 0.30498584
 0.10979228, 0.30498584
 0.12166172, 0.30498584
 0.11275964, 0.30498584
 0.13946588, 0.30498584
 0.10385757, 0.29665314
 0.39465875, 0.2156253
 0.6884273, 0.23545283
 0.45994065, 0.34531533
 0.35014837, 0.36194088
 0.09198813, 0.36194088
 0.06231454, 0.36209665
 0.05341246, 0.36209665
 0.08902077, 0.36209665
 0.09792285, 0.36880608
 0.03857567, 0.36870831
 0.14836795, 0.36414434
 0.17210682, 0.36424888
 0.14836795, 0.3665156
 0.20771513, 0.3665156
 0.32344214, 0.36410532
 0.35608309, 0.36429777
 0.27299703, 0.36429777
 0.53115727, 0.36429777
 0.37091988, 0.36982573
 0.30563798, 0.36982573
 0.25519288, 0.36912506
 0.24332344, 0.36912506
 0.20474777, 0.3686365
 0.19287834, 0.30642514
 0.20178042, 0.30642514
 0.19287834, 0.30635159
 0.18991098, 0.30635159
 0.05934718, 0.30635159
 0.08308605, 0.30635159
 0.16617211, 0.30635159
 0.12759644, 0.30773849
 0.07121662, 0.31403437
 0.08605341, 0.31403437
 0.0504451, 0.31357874
 0.09495549, 0.31081767
 0.14836795, 0.30998231
 0.17210682, 0.30998231
 0.18991098, 0.30998231
 0.33234421, 0.30998231
 0.2611276, 0.23749441
 0.29080119, 0.21803675
 0.37388724, 0.21793715
 0.68545994, 0.23816033
 0.37388724, 0.35100793
 0.41246291, 0.35100793
 0.18694362, 0.35216806
 0.13946588, 0.35234974
 0.1958457, 0.35245694
 0.10979228, 0.35224875
 0.0504451, 0.35224875
 0.03857567, 0.35224875
 0.05637982, 0.34845865
 0.05341246, 0.34845865
 0.15133531, 0.34845865
 0.14243323, 0.34845865
 0.08011869, 0.34845865
 0.05637982, 0.34871942
 0.06824926, 0.34871942
 0.06231454, 0.34871942
 0.09198813, 0.34871942
 0.16023739, 0.34862156
 0.3115727, 0.34862156
 0.23442136, 0.34868093
 0.3115727, 0.34868093
 0.23442136, 0.24829578
 0.09792285, 0.24829578
 0.40059347, 0.19823904
 0.36795252, 0.23852771
 0.06824926, 0.23852771
 0.21958457, 0.23989438
 0.16617211, 0.23892271
 0.24035608, 0.23892271
 0.22255193, 0.24320141
 0.17804154, 0.24320141
 0.08902077, 0.24409514
 0.09198813, 0.24409514
 0.0652819, 0.24409514
 0.07121662, 0.24409514
 0.10979228, 0.24575884
 0.02373887, 0.24575884
 0.0504451, 0.23594534
 0.05341246, 0.23594534
 0.06824926, 0.23594534
 0.17804154, 0.23594534
 0.21958457, 0.23594534
 0.13946588, 0.22928682
 0.17210682, 0.22928682
 0.22255193, 0.22953494
 0.27002967, 0.22297857
 0.45400593, 0.18126976
 0.55192878, 0.26423087
 0.38278932, 0.30963328
 0.27299703, 0.31491156
 0.21958457, 0.31486094
 0.32937685, 0.31486094
 0.40949555, 0.31486094
 0.33234421, 0.31528998
 0.16913947, 0.31537728
 0.27002967, 0.31537728
 0.10385757, 0.31537728
 0.09792285, 0.31508657
 0.04451039, 0.32171521
 0.08902077, 0.31986936
 0.0652819, 0.31986936
 0.07418398, 0.31986936
 0.12462908, 0.31986936
 0.18397626, 0.31986936
 0.18397626, 0.31957421
 0.21068249, 0.31957421
 0.16320475, 0.3191342
 0.20474777, 0.3191342
 0.43323442, 0.31669008
 0.43620178, 0.26501375
 0.48367953, 0.26703479
 0.48367953, 0.28802222
 0.27596439, 0.28802222
 0.24035608, 0.28810132
 0.20178042, 0.28517273
 0.06824926, 0.28510865
 0.04747774, 0.28510865
 0.39169139, 0.28510865
 0.28783383, 0.28806955
 0.39465875, 0.28869771
 0.17804154, 0.28965172
 0.24035608, 0.29202
 0.14243323, 0.29202
 0.08605341, 0.29202
 0.03560831, 0.29006735
 0.05341246, 0.28685927
 0.08011869, 0.28685927
 0.18694362, 0.28685927
 0.29080119, 0.28685927
 0.34421365, 0.28688256
 0.35311573, 0.28688256
 0.37091988, 0.28688256
 0.33827893, 0.28688256
 0.22848665, 0.23797012
 0.20771513, 0.23797012
 0.21364985, 0.23797012
 0.15133531, 0.23803656
 0.07121662, 0.23803656
 0.0652819, 0.23803656
 0.0504451, 0.23803656
 0.03560831, 0.23803656
 0.02967359, 0.23412057
 0.05934718, 0.23279078
 0.05934718, 0.23279078
 0.09198813, 0.23279078
 0.11869436, 0.23224191
 0.10089021, 0.23224191
 0.10682493, 0.231961
 0.14836795, 0.231961
 0.10979228, 0.231961
 0.08308605, 0.22902352
 0.07418398, 0.22902352
 0.09198813, 0.22902352
 0.10682493, 0.21233175
 0.09198813, 0.16136385
 0.10979228, 0.14940758
 0.23738872, 0.1490842
 0.28783383, 0.16531918
 0.28783383, 0.18468727
 0.29080119, 0.18468727
 0.14540059, 0.18501685
 0.33531157, 0.18501685
 0.4272997, 0.21501582
 0.1958457, 0.26591581
 0.13946588, 0.2633362
 0.1305638, 0.26677723
 0.19881306, 0.26677723
 0.09792285, 0.26672012
 0.11869436, 0.26677717
 0.10089021, 0.26677717
 0.04747774, 0.26672012
 0.10682493, 0.25968329
 0.27299703, 0.25968329
 0.10385757, 0.25968329
 0.09495549, 0.25968329
 0.16023739, 0.25968329
 0.20474777, 0.25968329
 0.15430267, 0.25968329
 0.24035608, 0.25968329
 0.16913947, 0.25968329
 0.29080119, 0.25968329
 0.42433234, 0.25968329
 0.56973294, 0.26026377
 0.59050445, 0.31944593
 0.61424332, 0.32470332
 0.33234421, 0.33780094
 0.06824926, 0.33780094
 0.19287834, 0.33780094
 0.10682493, 0.33790915
 0.09495549, 0.33790915
 0.0504451, 0.33790915
 0.10385757, 0.33806493
 0.18991098, 0.33899725
 0.10089021, 0.33899725
 0.10385757, 0.3388404
 0.2462908, 0.3388404
 0.05341246, 0.3388404
 0.17507418, 0.3388404
 0.12759644, 0.33891333
 0.05934718, 0.33891333
 0.09792285, 0.33891333
 0.17804154, 0.33891333
 0.16617211, 0.33976883
 0.10979228, 0.33394495
 0.16913947, 0.33050331
 0.30860534, 0.32919348
 0.45400593, 0.21781925
 0.4421365, 0.27078359
 0.50148368, 0.27450101
 0.30267062, 0.28812474
 0.16617211, 0.28814261
 0.27893175, 0.28814261
 0.1958457, 0.28904489
 0.09495549, 0.28890661
 0.12759644, 0.28890661
 0.13946588, 0.28896359
 0.1305638, 0.28896359
 0.01780415, 0.28896359
 0.06824926, 0.28073207
 0.14540059, 0.28073207
 0.03857567, 0.28073207
 0.06824926, 0.28073207
 0.07715134, 0.28086431
 0.15727003, 0.28086431
 0.07121662, 0.28086431
 0.12462908, 0.28086431
 0.13353116, 0.28086431
 0.16617211, 0.28086431
 0.29080119, 0.28086431
 0.20474777, 0.27072446
 0.27596439, 0.18696591
 0.49851632, 0.18415585
 0.56973294, 0.2691369
 0.3264095, 0.32178947
 0.25519288, 0.32304788
 0.17210682, 0.32554543
 0.37982196, 0.32554543
 0.26409496, 0.33157333
 0.29376855, 0.33157333
 0.09792285, 0.33546047
 0.12166172, 0.33288955
 0.115727, 0.33288955
 0.09495549, 0.34118401
 0.08308605, 0.34182601
 0.08605341, 0.34182601
 0.07715134, 0.34182601
 0.0652819, 0.34288084
 0.10682493, 0.34046353
 0.16913947, 0.34046353
 0.13946588, 0.34046353
 0.1305638, 0.34046353
 0.30860534, 0.34275031
 0.38278932, 0.34275031
 0.4421365, 0.32762306
 0.64391691, 0.27823854
 0.43323442, 0.36286098
 0.53115727, 0.36286098
 0.39762611, 0.36975394
 0.47181009, 0.36993638
 0.18991098, 0.37039465
 0.15133531, 0.36747708
 0.15727003, 0.36763748
 0.23442136, 0.36763748
 0.10682493, 0.36763748
 0.17210682, 0.36773381
 0.07715134, 0.36773381
 0.12759644, 0.36773381
 0.15727003, 0.36773381
 0.13946588, 0.37020318
 0.18694362, 0.37020318
 0.05637982, 0.37020318
 0.2611276, 0.36530566
 0.11275964, 0.36530566
 0.14836795, 0.36724284
 0.13353116, 0.36724284
 0.22848665, 0.36724284
 0.30860534, 0.31507873
 0.35311573, 0.31457538
 0.12759644, 0.28959485
 0.25222552, 0.28316033
 0.34124629, 0.23230675
 0.29673591, 0.23239983
 0.27596439, 0.23251649
 0.13946588, 0.23251649
 0.38575668, 0.23251649
 0.34421365, 0.24314303
 0.14836795, 0.24314303
 0.04747774, 0.24314303
 0.07121662, 0.24048418
 0.08011869, 0.24048418
 0.07418398, 0.24048418
 0.08011869, 0.24126991
 0.08902077, 0.24126991
 0.05341246, 0.24103881
 0.11869436, 0.24103881
 0.22848665, 0.24103881
 0.16320475, 0.24103881
 0.22551929, 0.24103881
 0.19287834, 0.24085316
 0.25519288, 0.24011353
 0.34421365, 0.24011353
 0.27299703, 0.24011353
 0.3620178, 0.24011353
 0.35905045, 0.23907546
 0.1810089, 0.23879891
 0.18694362, 0.23879891
 0.25816024, 0.23248774
 0.24925816, 0.23248774
 0.09792285, 0.23248774
 0.17210682, 0.23381911
 0.08308605, 0.23381911
 0.06231454, 0.23381911
 0.17507418, 0.23381911
 0.12462908, 0.23381911
 0.1958457, 0.23381911
 0.12166172, 0.23637589
 0.07418398, 0.23637589
 0.04747774, 0.23637589
 0.05934718, 0.23200177
 0.08902077, 0.23200177
 0.18694362, 0.23200177
 0.13649852, 0.23200177
 0.16023739, 0.23200177
 0.17804154, 0.2297436
 0.20771513, 0.22847184
 0.3620178, 0.18272782
 0.43026706, 0.2297436
 0.32344214, 0.25948081
 0.36795252, 0.2608493
 0.3620178, 0.2608493
 0.26706231, 0.26134518
 0.19881306, 0.26134518
 0.23738872, 0.26129355
 0.115727, 0.26129355
 0.11275964, 0.26129355
 0.05637982, 0.26129355
 0.0652819, 0.26129355
 0.09792285, 0.26129355
 0.04451039, 0.26079825
 0.02670623, 0.25990226
 0.0652819, 0.25565925
 0.09792285, 0.25565925
 0.1305638, 0.25565925
 0.13353116, 0.25565925
 0.1305638, 0.25565925
 0.13946588, 0.25565925
 0.12462908, 0.25565925
 0.22848665, 0.25565925
 0.37388724, 0.22949717
 0.5578635, 0.23010595
 0.38575668, 0.31236445
 0.30267062, 0.31333331
 0.33827893, 0.31300891
 0.31454006, 0.315118
 0.29376855, 0.315118
 0.33827893, 0.315118
 0.10979228, 0.315118
 0.09495549, 0.315118
 0.19287834, 0.315118
 0.27893175, 0.31316035
 0.06231454, 0.31316035
 0.05341246, 0.32280829
 0.09495549, 0.32017898
 0.10979228, 0.32033014
 0.01186944, 0.32033014
 0.06231454, 0.31133532
 0.07418398, 0.31133532
 0.17804154, 0.31133532
 0.23145401, 0.31133532
 0.14836795, 0.31133532
 0.13946588, 0.31133532
 0.53115727, 0.23296459
 0.41543027, 0.29572268
 0.41246291, 0.30342025
 0.41246291, 0.30361477
 0.29970326, 0.30361477
 0.64688427, 0.30360992
 0.17210682, 0.35529606
 0.09495549, 0.35529606
 0.25222552, 0.35529606
 0.2611276, 0.35660348
 0.3115727, 0.35660348
 0.21364985, 0.35660348
 0.07715134, 0.35571735
 0.08308605, 0.35571735
 0.10385757, 0.35571735
 0.06231454, 0.36729761
 0.04451039, 0.36729761
 0.10089021, 0.36193209
 0.13649852, 0.36177691
 0.0504451, 0.36177691
 0.11869436, 0.36177691
 0.32937685, 0.36177691
 0.38575668, 0.35057169
 0.50148368, 0.35028404
 0.31454006, 0.36439263
 0.29673591, 0.36435534
 0.29970326, 0.3643928
 0.29376855, 0.29090679
 0.24925816, 0.29090679
 0.45103858, 0.29090679
 0.20178042, 0.29090679
 0.1958457, 0.2904856
 0.20771513, 0.2904856
 0.0652819, 0.2904856
 0.23442136, 0.2904856
 0.11869436, 0.2904856
 0.10682493, 0.2904856
 0.09198813, 0.2904856
 0.08011869, 0.29222606
 0.12759644, 0.29250398
 0.15727003, 0.29250398
 0.12759644, 0.29663115
 0.26706231, 0.29663115
 0.25222552, 0.29663115
 0.20771513, 0.2902058
 0.11869436, 0.27460029
 0.11869436, 0.27460029
 0.15430267, 0.27460029
 0.18397626, 0.27455778
 0.15133531, 0.27378667
 0.46587537, 0.27378667
 0.52225519, 0.27732439
 0.45994065, 0.30295668
 0.28189911, 0.30412689
 0.19881306, 0.30404503
 0.29673591, 0.3070345
 0.12462908, 0.30697764
 0.32344214, 0.30697764
 0.43026706, 0.30704163
 0.15430267, 0.31414443
 0.14243323, 0.31565352
 0.05637982, 0.31565352
 0.02077151, 0.30865021
 0.04747774, 0.29972113
 0.04747774, 0.29972113
 0.0504451, 0.29972113
 0.11869436, 0.29972113
 0.08902077, 0.29972113
 0.0504451, 0.29864362
 0.12759644, 0.29864362
 0.09198813, 0.29864362
 0.19881306, 0.2984158
 0.29970326, 0.2984158
 0.49554896, 0.27378198
 0.42433234, 0.28234739
 0.31750742, 0.28320328
 0.37982196, 0.28320328
 0.35014837, 0.28378461
 0.28783383, 0.28378461
 0.08902077, 0.28378461
 0.11869436, 0.28378461
 0.32344214, 0.28378461
 0.11869436, 0.28378461
 0.13946588, 0.28378461
 0.03560831, 0.28975296
 0.04154303, 0.28656382
 0.0504451, 0.28656382
 0.06231454, 0.28656382
 0.01780415, 0.28656382
 0.06824926, 0.28344189
 0.04154303, 0.28344189
 0.03857567, 0.28344189
 0.18694362, 0.2836584
 0.1810089, 0.28402041
 0.09495549, 0.28395787
 0.16023739, 0.25285489
 0.23145401, 0.2325064
 0.38278932, 0.2325064
 0.43323442, 0.23296102
 0.29080119, 0.25960441
 0.3768546, 0.25968303
 0.35311573, 0.25968303
 0.18991098, 0.25968303
 0.18694362, 0.25954171
 0.16320475, 0.25954171
 0.21661721, 0.25954171
 0.05934718, 0.25954171
 0.0504451, 0.25954171
 0.12759644, 0.25954171
 0.07418398, 0.25954171
 0.05637982, 0.26339517
 0.03560831, 0.26339517
 0.09198813, 0.26270744
 0.04747774, 0.26270744
 0.07418398, 0.26270744
 0.09495549, 0.26270744
 0.08308605, 0.26270744
 0.09792285, 0.26270744
 0.115727, 0.26257746
 0.10682493, 0.26168023
 0.21068249, 0.23482298
 0.22848665, 0.22915095
 0.31750742, 0.21943482
 0.47774481, 0.20191597
 0.46587537, 0.2709382
 0.39762611, 0.27329205
 0.28783383, 0.28503996
 0.19287834, 0.28509842
 0.44807122, 0.28499633
 0.23738872, 0.28499633
 0.1810089, 0.28499633
 0.18397626, 0.28499633
 0.115727, 0.28499633
 0.0652819, 0.28818579
 0.07121662, 0.28818579
 0.05341246, 0.29320017
 0.0504451, 0.28994571
 0.02077151, 0.28906285
 0.03857567, 0.28221683
 0.04747774, 0.2824256
 0.11869436, 0.2824256
 0.14243323, 0.28332614
 0.10979228, 0.28332614
 0.21661721, 0.28255632
 0.30267062, 0.28255632
 0.29376855, 0.27901917
 0.40949555, 0.27055159
 0.34124629, 0.270317
 0.37388724, 0.270317
 0.40652819, 0.27069387
 0.17507418, 0.24340964
 0.15727003, 0.24340964
 0.29673591, 0.24340964
 0.10682493, 0.24343157
 0.20771513, 0.2433109
 0.1810089, 0.24304077
 0.26706231, 0.24304077
 0.20178042, 0.24304077
 0.115727, 0.24296893
 0.10385757, 0.24641745
 0.05934718, 0.24879387
 0.14540059, 0.2523338
 0.23145401, 0.2523338
 0.10979228, 0.2523338
 0.19881306, 0.2523338
 0.1305638, 0.2523247
 0.16320475, 0.25231641
 0.21958457, 0.25231641
 0.15430267, 0.24974946
 0.28189911, 0.24974946
 0.35311573, 0.24974946
 0.44510386, 0.23310476
 0.40652819, 0.27100942
 0.22551929, 0.27783367
 0.32344214, 0.27764962
 0.46884273, 0.27764962
 0.18991098, 0.28905014
 0.18694362, 0.28905014
 0.08902077, 0.28905014
 0.05341246, 0.28905014
 0.16913947, 0.28725572
 0.10089021, 0.28753638
 0.10682493, 0.28711571
 0.03857567, 0.28711571
 0.07418398, 0.28282489
 0.06824926, 0.28282489
 0.12462908, 0.28301174
 0.115727, 0.28301174
 0.115727, 0.28301174
 0.10385757, 0.28301174
 0.07715134, 0.28301174
 0.13649852, 0.2829145
 0.31454006, 0.2829145
 0.19881306, 0.28305671
 0.27893175, 0.27018019
 0.47774481, 0.27018019
 0.45697329, 0.27309171
 0.53115727, 0.27608029
 0.31454006, 0.30332044
 0.43620178, 0.30332044
 0.34124629, 0.30737528
 0.17804154, 0.30737528
 0.15727003, 0.30737528
 0.1305638, 0.30751929
 0.14540059, 0.30751929
 0.14243323, 0.3160649
 0.1305638, 0.3160649
 0.1305638, 0.31782306
 0.02077151, 0.31782306
 0.08902077, 0.30393564
 0.10385757, 0.30393564
 0.09792285, 0.30393564
 0.05341246, 0.30385174
 0.09495549, 0.30385174
 0.10979228, 0.30385174
 0.13649852, 0.30503127
 0.20178042, 0.30503127
 0.115727, 0.30172053
 0.43026706, 0.30172053
 0.26409496, 0.25923606
 0.2611276, 0.25802076
 0.54302671, 0.25372916
 0.56083086, 0.30725193
 0.34718101, 0.31832164
 0.05934718, 0.31832164
 0.10979228, 0.31832164
 0.115727, 0.31832164
 0.14243323, 0.31832164
 0.08308605, 0.31832164
 0.04154303, 0.31832164
 0.04154303, 0.32283989
 0.03560831, 0.32283989
 0.08308605, 0.32128813
 0.04451039, 0.3214386
 0.17804154, 0.3214386
 0.10682493, 0.32167978
 0.10089021, 0.32152898
 0.16913947, 0.321228
 0.17210682, 0.32257529
 0.19287834, 0.32257529
 0.18991098, 0.31792422
 0.1810089, 0.31801375
 0.30860534, 0.31833348
 0.56083086, 0.31032985
 0.36795252, 0.31032985
 0.25519288, 0.31397595
 0.15430267, 0.31397595
 0.15133531, 0.31397595
 0.14540059, 0.31397595
 0.13649852, 0.31397595
 0.09792285, 0.31397595
 0.08605341, 0.31397595
 0.18694362, 0.31397595
 0.22255193, 0.31642278
 0.02967359, 0.31642278
 0.06231454, 0.31257727
 0.05934718, 0.31257727
 0.02967359, 0.31257727
 0.05934718, 0.31263549
 0.04154303, 0.31263549
 0.04747774, 0.31263549
 0.10089021, 0.3127173
 0.14243323, 0.31289101
 0.40059347, 0.31289101
 0.29673591, 0.31561932
 0.17804154, 0.23687066
 0.22551929, 0.23687066
 0.20474777, 0.23687066
 0.21068249, 0.23671663
 0.1958457, 0.23671663
 0.43916914, 0.23671032
 0.13649852, 0.26619344
 0.15133531, 0.26619344
 0.06824926, 0.26619344
 0.05637982, 0.26619344
 0.09198813, 0.26619344
 0.13353116, 0.26619344
 0.115727, 0.26619344
 0.20474777, 0.26619344
 0.15430267, 0.26898556
 0.10089021, 0.26898556
 0.05934718, 0.27073138
 0.14540059, 0.27339699
 0.07418398, 0.27339699
 0.10979228, 0.27339699
 0.13353116, 0.26795857
 0.14243323, 0.26358835
 0.37982196, 0.26358835
 0.32937685, 0.26806792
 0.13649852, 0.27136484
 0.14243323, 0.27136484
 0.14243323, 0.27137659
 0.0148368, 0.23980826
 0.06231454, 0.23048808
 0.12166172, 0.23048808
 0.02077151, 0.23048808
 0.18991098, 0.23048808
 0.03857567, 0.23048808
 0.07715134, 0.23048808
 0.07121662, 0.23048808
 0.07715134, 0.23053833
 0.06231454, 0.23053833
 0.16617211, 0.23088626
 0.12462908, 0.23088626
 0.06231454, 0.23088626
 0.15430267, 0.23088626
 0.16320475, 0.23241327
 0.03857567, 0.23241327
 0.08902077, 0.23241327
 0.12462908, 0.20624622
 0.13649852, 0.13399899
 0.28189911, 0.13399899
 0.29970326, 0.18298961
 0.38872404, 0.1844556
 0.49851632, 0.23469984
 0.48961424, 0.2850862
 0.30563798, 0.2850862
 0.27893175, 0.28854666
 0.24925816, 0.29088749
 0.16320475, 0.29088749
 0.24925816, 0.29088749
 0.22848665, 0.29088749
 0.10979228, 0.29011902
 0.26706231, 0.28997198
 0.19881306, 0.28997198
 0.13353116, 0.28820988
 0.03560831, 0.28820988
 0.03560831, 0.28753414
 0.10089021, 0.28753414
 0.04747774, 0.28713357
 0.06231454, 0.28713357
 0.07418398, 0.28713357
 0.14243323, 0.28713357
 0.09495549, 0.28713357
 0.11869436, 0.28711706
 0.38872404, 0.27257508
 0.51928783, 0.28662115
 0.41839763, 0.30109174
 0.36795252, 0.30110187
 0.29673591, 0.30111892
 0.18694362, 0.30109114
 0.49851632, 0.30109114
 0.23442136, 0.30275175
 0.15133531, 0.30275175
 0.14243323, 0.30275175
 0.1958457, 0.30275175
 0.44510386, 0.30282176
 0.38575668, 0.30282176
 0.29376855, 0.30282176
 0.20771513, 0.30603002
 0.08902077, 0.306229
 0.10385757, 0.31055304
 0.1305638, 0.31311101
 0.05934718, 0.31514803
 0.04154303, 0.30973668
 0.2462908, 0.30442281
 0.37388724, 0.30442281
 0.27596439, 0.30422588
 0.21068249, 0.28852676
 0.29376855, 0.28852676
 0.29080119, 0.28852676
 0.30267062, 0.2885185
 0.41543027, 0.28852841
 0.35311573, 0.27204234
 0.43620178, 0.27204234
 0.47477745, 0.27204234
 0.26409496, 0.28516502
 0.10979228, 0.28523972
 0.08308605, 0.28523972
 0.13946588, 0.28513898
 0.23145401, 0.28513898
 0.08308605, 0.28523001
 0.09495549, 0.28523001
 0.02077151, 0.28528428
 0.06824926, 0.28103687
 0.09198813, 0.28103687
 0.09495549, 0.28103687
 0.04747774, 0.28103687
 0.03264095, 0.28103687
 0.02077151, 0.28103687
 0.09495549, 0.28281001
 0.17804154, 0.28281001
 0.115727, 0.28178689
 0.20474777, 0.28119356
 0.3264095, 0.27697892
 0.4272997, 0.27732474
 0.35608309, 0.27906865
 0.43026706, 0.25305678
 0.40949555, 0.25527708
 0.3264095, 0.25790538
 0.30267062, 0.25790538
 0.14243323, 0.25868233
 0.20178042, 0.25868233
 0.29970326, 0.25863604
 0.32937685, 0.25866213
 0.08902077, 0.25866213
 0.10979228, 0.25866213
 0.05341246, 0.25866213
 0.18694362, 0.25866213
 0.08011869, 0.25866213
 0.0652819, 0.25866213
 0.05934718, 0.26644121
 0.09198813, 0.26665825
 0.08308605, 0.26657679
 0.05934718, 0.26657679
 0.115727, 0.26657679
 0.1810089, 0.26657679
 0.14540059, 0.26657679
 0.24035608, 0.26657679
 0.45103858, 0.25063724
 0.35608309, 0.27126266
 0.31750742, 0.2735149
 0.21958457, 0.2735149
 0.30267062, 0.2735149
 0.44807122, 0.27386548
 0.23442136, 0.27384846
 0.20474777, 0.27384846
 0.24925816, 0.27355734
 0.05934718, 0.27355734
 0.0652819, 0.2754029
 0.18694362, 0.2754029
 0.15133531, 0.2754029
 0.15430267, 0.2754029
 0.06824926, 0.2754029
 0.05934718, 0.27633366
 0.07121662, 0.27633366
 0.18991098, 0.27633366
 0.08011869, 0.2791473
 0.14540059, 0.27694412
 0.13649852, 0.27694412
 0.18397626, 0.27694412
 0.17804154, 0.27512865
 0.33531157, 0.27380752
 0.35608309, 0.27380752
 0.35014837, 0.27512865
 0.25222552, 0.27423022
 0.3620178, 0.23345839
 0.16320475, 0.23618541
 0.02373887, 0.23625176
 0.16023739, 0.22679924
 0.07715134, 0.22679924
 0.14836795, 0.22679924
 0.21364985, 0.22679924
 0.28486647, 0.22679924
 0.115727, 0.22909205
 0.03560831, 0.22859883
 0.10682493, 0.22859883
 0.06231454, 0.22780128
 0.09495549, 0.22789206
 0.14540059, 0.2278225
 0.05637982, 0.2278225
 0.06231454, 0.2278225
 0.16023739, 0.2278225
 0.18991098, 0.2278225
 0.23442136, 0.227732
 0.21068249, 0.227732
 0.18694362, 0.227732
 0.38575668, 0.227732
 0.16913947, 0.23395821
 0.1305638, 0.23395821
 0.09198813, 0.23624484
 0.19881306, 0.23624484
 0.17507418, 0.2361475
 0.25222552, 0.2361475
 0.46587537, 0.2361475
 0.34718101, 0.279735
 0.09495549, 0.27976339
 0.02373887, 0.28593587
 0.06231454, 0.27733979
 0.07418398, 0.27733979
 0.08902077, 0.27733979
 0.10682493, 0.27733979
 0.07715134, 0.27733979
 0.05934718, 0.27733979
 0.08011869, 0.27733979
 0.13649852, 0.27733979
 0.26409496, 0.27733979
 0.20771513, 0.27787615
 0.15133531, 0.27787615
 0.15133531, 0.26951215
 0.17804154, 0.26951215
 0.25519288, 0.26951215
 0.37388724, 0.26951215
 0.18694362, 0.27650412
 0.27596439, 0.27650412
 0.34718101, 0.2769265
 0.35608309, 0.2308547
 0.30267062, 0.2308547
 0.27002967, 0.23209901
 0.22255193, 0.24109136
 0.3620178, 0.24109136
 0.41543027, 0.24109136
 0.12759644, 0.25659377
 0.03560831, 0.25810047
 0.05637982, 0.25121239
 0.03560831, 0.25121239
 0.08011869, 0.25288065
 0.20771513, 0.25121239
 0.1305638, 0.25121239
 0.07121662, 0.25121239
 0.05637982, 0.25121239
 0.07418398, 0.25121239
 0.10979228, 0.25121239
 0.12462908, 0.24993842
 0.32047478, 0.24993842
 0.18991098, 0.24993842
 0.39762611, 0.24993842
 0.24925816, 0.25094455
 0.08605341, 0.25094455
 0.13649852, 0.2503924
 0.05637982, 0.2503924
 0.04154303, 0.2503924
 0.08902077, 0.2503924
 0.03560831, 0.23707661
 0.03857567, 0.23707661
 0.0148368, 0.23707661
 0.03857567, 0.23366283
 0.08011869, 0.23366283
 0.06231454, 0.23366283
 0.0652819, 0.23368793
 0.04747774, 0.23368793
 0.05341246, 0.23368793
 0.0652819, 0.23368793
 0.15727003, 0.23368793
 0.15430267, 0.23381089
 0.17507418, 0.23381089
 0.37982196, 0.22938582
 0.45994065, 0.22989277
 0.48071217, 0.27450748
 0.47477745, 0.28071919
 0.38278932, 0.28071919
 0.23442136, 0.28102328
 0.08011869, 0.28143261
 0.16023739, 0.28143261
 0.13353116, 0.28274753
 0.13353116, 0.28274753
 0.04747774, 0.28274753
 0.13946588, 0.28739651
 0.16617211, 0.29025835
 0.18991098, 0.29025835
 0.21068249, 0.2889096
 0.18397626, 0.2889096
 0.02077151, 0.2889096
 0.04154303, 0.28225208
 0.03560831, 0.28225208
 0.16913947, 0.28225208
 0.21068249, 0.28225208
 0.24925816, 0.28225208
 0.43026706, 0.28281592
 0.52225519, 0.28281592
 0.5727003, 0.30158922
 0.62611276, 0.33228559
 0.54599407, 0.35412509
 0.53412463, 0.35412509
 0.54599407, 0.35823338
 0.56083086, 0.35823338
 0.51632047, 0.35823338
 0.27299703, 0.36123716
 0.17804154, 0.35892258
 0.18991098, 0.36840803
 0.16023739, 0.36840803
 0.1958457, 0.36840803
 0.20178042, 0.36818629
 0.21958457, 0.36810034
 0.33531157, 0.37137701
 0.18397626, 0.372297
 0.10385757, 0.38803409
 0.03857567, 0.36673878
 0.11275964, 0.35432828
 0.18397626, 0.35432828
 0.16913947, 0.35155877
 0.05934718, 0.35155877
 0.1810089, 0.35155877
 0.24332344, 0.32327516
 0.23145401, 0.32327516
 0.23442136, 0.32327516
 0.2462908, 0.32327516
 0.33234421, 0.29072588
 0.2462908, 0.21458718
 0.70029674, 0.21366761
 0.50445104, 0.33821363
 0.18991098, 0.36740204
 0.15430267, 0.36740204
 0.35608309, 0.36740204
 0.07121662, 0.3688848
 0.02670623, 0.3688848
 0.21364985, 0.36613457
 0.11869436, 0.36613457
 0.08011869, 0.36692014
 0.05934718, 0.36692014
 0.14540059, 0.36789639
 0.16320475, 0.36789639
 0.115727, 0.36789639
 0.1305638, 0.36740737
 0.23442136, 0.36740737
 0.22551929, 0.36740737
 0.23145401, 0.36740737
 0.09495549, 0.36740737
 0.0652819, 0.36619905
 0.28783383, 0.36868011
 0.43323442, 0.36500599
 0.38278932, 0.28663566
 0.26706231, 0.26079378
 0.18397626, 0.26096829
 0.54896142, 0.26096829
 0.35608309, 0.31162084
 0.16913947, 0.31162084
 0.13353116, 0.32052579
 0.16617211, 0.32072772
 0.09495549, 0.32072772
 0.12166172, 0.32072772
 0.15430267, 0.32225974
 0.08308605, 0.32225974
 0.11275964, 0.32225974
 0.1305638, 0.32225974
 0.10979228, 0.32225974
 0.08605341, 0.32225974
 0.0504451, 0.32225974
 0.0504451, 0.31794424
 0.07418398, 0.31794424
 0.08902077, 0.31794424
 0.10385757, 0.31834645
 0.16913947, 0.31828471
 0.24035608, 0.31497049
 0.24035608, 0.31572753
 0.26409496, 0.31781231
 0.46290801, 0.22991332
 0.37091988, 0.2739218
 0.41246291, 0.28337595
 0.26409496, 0.28549974
 0.32344214, 0.28549974
 0.16320475, 0.28578193
 0.08605341, 0.28578193
 0.03857567, 0.28578193
 0.14836795, 0.28223156
 0.13649852, 0.28223156
 0.04154303, 0.28223156
 0.08308605, 0.28223156
 0.40356083, 0.28223156
 0.35608309, 0.28265185
 0.2611276, 0.28265185
 0.04451039, 0.28265185
 0.0504451, 0.28265185
 0.07715134, 0.28350347
 0.0652819, 0.28441274
 0.11275964, 0.28441274
 0.10979228, 0.28424078
 0.21958457, 0.28383223
 0.20771513, 0.24882937
 0.35014837, 0.24839277
 0.39465875, 0.24065904
 0.29376855, 0.24065904
 0.26409496, 0.24154016
 0.17507418, 0.24154016
 0.29080119, 0.24154016
 0.23145401, 0.24231078
 0.25519288, 0.24231078
 0.26409496, 0.24231078
 0.04154303, 0.24317167
 0.08308605, 0.24231078
 0.18991098, 0.23904273
 0.30563798, 0.23904273
 0.11275964, 0.23905342
 0.14243323, 0.23905342
 0.03264095, 0.23905342
 0.04747774, 0.23694459
 0.09198813, 0.23694459
 0.10089021, 0.23687328
 0.15133531, 0.23658878
 0.09198813, 0.23658878
 0.16617211, 0.23661605
 0.17210682, 0.23661605
 0.12759644, 0.19186235
 0.24035608, 0.19186235
 0.26409496, 0.19186235
 0.24925816, 0.19186235
 0.08605341, 0.19186235
 0.1958457, 0.19186235
 0.05934718, 0.1918805
 0.0652819, 0.1918805
 0.02967359, 0.1918805
 0.09792285, 0.19124194
 0.14836795, 0.19124194
 0.08308605, 0.18035339
 0.09198813, 0.18035339
 0.11275964, 0.18035339
 0.10682493, 0.18035339
 0.01780415, 0.18035339
 0.20178042, 0.17857291
 0.45400593, 0.17862838
 0.26409496, 0.2619993
 0.21068249, 0.2619993
 0.13353116, 0.2619993
 0.09198813, 0.2619993
 0.23145401, 0.2619993
 0.37388724, 0.2619993
 0.28189911, 0.26979712
 0.21958457, 0.27054653
 0.23442136, 0.27054653
 0.25519288, 0.27054653
 0.19287834, 0.27054653
 0.18991098, 0.27054653
 0.1958457, 0.27054653
 0.15133531, 0.27075384
 0.01780415, 0.27075384
 0.1305638, 0.27075384
 0.10979228, 0.27075384
 0.17507418, 0.27075384
 0.1810089, 0.27080575
 0.23738872, 0.27080575
 0.15133531, 0.27084882
 0.13353116, 0.23064479
 0.12166172, 0.23064479
 0.14836795, 0.23064479
 0.07121662, 0.23064479
 0.10089021, 0.23071392
 0.05341246, 0.23036898
 0.10089021, 0.18294656
 0.29080119, 0.17511384
 0.3620178, 0.18402727
 0.3620178, 0.22705072
 0.29080119, 0.22705072
 0.27002967, 0.22705072
 0.21068249, 0.22705072
 0.22255193, 0.22711512
 0.09792285, 0.22711512
 0.10385757, 0.23518629
 0.39465875, 0.23518629
 0.25816024, 0.24213731
 0.05341246, 0.24213731
 0.04747774, 0.24213731
 0.18694362, 0.24039172
 0.33234421, 0.24039172
 0.09198813, 0.24039172
 0.05341246, 0.24039172
 0.10979228, 0.24039172
 0.0504451, 0.24039172
 0., 0.24039172
 0.115727, 0.2330502
 0.09792285, 0.23309569
 0.07418398, 0.23309569
 0.08902077, 0.23309569
 0.20771513, 0.23309569
 0.30267062, 0.23146407
 0.35608309, 0.23317995
 0.28189911, 0.23317995
 0.47477745, 0.23317995
 0.38575668, 0.27998046
 0.05637982, 0.27998046
 0.12462908, 0.27947741
 0.17804154, 0.27947741
 0.15430267, 0.27947741
 0.21068249, 0.27947741
 0.05934718, 0.27947741
 0.05637982, 0.27947741
 0.02670623, 0.27947741
 0.02967359, 0.27947741
 0.07418398, 0.27947741
 0.04747774, 0.27947741
 0.06824926, 0.28189221
 0.02373887, 0.28189221
 0.0652819, 0.28188691
 0.0652819, 0.28188691
 0.04747774, 0.28413715
 0.06231454, 0.28422707
 0.17804154, 0.28410303
 0.25519288, 0.28410303
 0.21958457, 0.28340598
 0.18694362, 0.23272681
 0.25519288, 0.1777956
 0.11275964, 0.1777956
 0.23145401, 0.17639217
 0.26706231, 0.17639217
 0.10682493, 0.18083385
 0.27893175, 0.18042273
 0.08605341, 0.18336656
 0.07418398, 0.18336656
 0.06231454, 0.18336656
 0.09198813, 0.18336656
 0.06231454, 0.18336656
 0.09792285, 0.18336656
 0.08902077, 0.18321743
 0.0504451, 0.18861503
 0.07121662, 0.18861503
 0.10682493, 0.18861503
 0.24332344, 0.18948223
 0.10682493, 0.18948223
 0.32047478, 0.18948223
 0.2462908, 0.20813178
 0.21958457, 0.20813178
 0.24035608, 0.20818981
 0.3620178, 0.20818981
 0.35311573, 0.23394935
 0.20771513, 0.23394935
 0.24332344, 0.23361746
 0.25222552, 0.23361746
 0.31750742, 0.23361746
 0.34718101, 0.2338228
 0.32047478, 0.2338228
 0.26706231, 0.2338228
 0.35905045, 0.2338228
 0.21364985, 0.2338228
 0.26706231, 0.23402259
 0.17210682, 0.23402259
 0.24332344, 0.23961735
 0.08605341, 0.24277152
 0.12166172, 0.24192786
 0.10682493, 0.24192786
 0.05637982, 0.24192786
 0.04747774, 0.23581323
 0.03264095, 0.23313851
 0.08011869, 0.22925391
 0.12166172, 0.22925391
 0.13649852, 0.22805554
 0.16320475, 0.22805554
 0.44510386, 0.22817096
 0.43916914, 0.26493822
 0.42136499, 0.265465
 0.48367953, 0.26919621
 0.43620178, 0.28464426
 0.13649852, 0.28438127
 0.10089021, 0.28438127
 0.1958457, 0.28410686
 0.20178042, 0.28375409
 0.03264095, 0.28285047
 0.13946588, 0.28285047
 0.29970326, 0.28195898
 0.18991098, 0.28414092
 0.19287834, 0.28414092
 0.0504451, 0.28414092
 0.07418398, 0.28414092
 0.09495549, 0.28414092
 0.13946588, 0.28414092
 0.06231454, 0.28414092
 0.14243323, 0.28414092
 0.12166172, 0.28414092
 0.10979228, 0.28414092
 0.09198813, 0.28414092
 0.13649852, 0.28414092
 0.19881306, 0.28165186
 0.16617211, 0.25999881
 0.24332344, 0.18680537
 0.3264095, 0.18680537
 0.35905045, 0.20924335
 0.37091988, 0.22863869
 0.21661721, 0.23288694
 0.21068249, 0.23758938
 0.28486647, 0.23758938
 0.33827893, 0.23710819
 0.28486647, 0.23710819
 0.28486647, 0.23710819
 0.35014837, 0.24054097
 0.22848665, 0.24054097
 0.21661721, 0.24067121
 0.15727003, 0.24067121
 0.05934718, 0.24559442
 0.00890208, 0.23990943
 0.07121662, 0.22924652
 0.10385757, 0.22924652
 0.02373887, 0.22908765
 0.14243323, 0.22908765
 0.16320475, 0.22918142
 0.15430267, 0.22918142
 0.115727, 0.22918142
 0.16913947, 0.22918142
 0.59050445, 0.22918142
 0.17804154, 0.31049734
 0.36498516, 0.31049734
 0.25222552, 0.31351875
 0.09792285, 0.31351875
 0.0504451, 0.31343061
 0.0148368, 0.31343061
 0.04154303, 0.31409934
 0.06231454, 0.31409934
 0.0504451, 0.31409934
 0.02077151, 0.31465582
 0.09198813, 0.31465582
 0.24332344, 0.31465582
 0.15727003, 0.31524329
 0.08011869, 0.31524329
 0.16320475, 0.31524329
 0.10385757, 0.31524329
 0.08011869, 0.31524329
 0.12759644, 0.31524329
 0.09495549, 0.31524329
 0.16617211, 0.31524329
 0.27893175, 0.31524329
 0.43620178, 0.22746879
 0.3620178, 0.25890641
 0.32937685, 0.25857639
 0.05934718, 0.25857639
 0.05637982, 0.25865591
 0.15430267, 0.25865591
 0.05934718, 0.25933867
 0.02967359, 0.25933867
 0.02373887, 0.25933867
 0.01780415, 0.25933867
 0.04451039, 0.25897082
 0.05637982, 0.25897082
 0.04451039, 0.25897082
 0.04747774, 0.25897082
 0.02967359, 0.25897082
 0.11275964, 0.25897082
 0.10385757, 0.25902406
 0.08011869, 0.25897082
 0.08308605, 0.25897082
 0.14540059, 0.25897082
 0.07418398, 0.26058512
 0.13649852, 0.26010492
 0.16320475, 0.22715373
 0.12759644, 0.20650127
 0.30563798, 0.12957479
 0.43026706, 0.18903933
 0.32937685, 0.2571434
 0.29376855, 0.2571434
 0.34421365, 0.2571434
 0.30563798, 0.2571434
 0.1958457, 0.2571434
 0.15727003, 0.2568998
 0.52225519, 0.2568998
 0.52225519, 0.29977909
 0.20771513, 0.29977909
 0.21958457, 0.29977909
 0.27002967, 0.31146982
 0.13353116, 0.31146982
 0.04747774, 0.31286551
 0.1305638, 0.30572083
 0.06231454, 0.30762734
 0.07418398, 0.30762734
 0.0504451, 0.30762734
 0.15430267, 0.30762734
 0.2462908, 0.30762734
 0.25519288, 0.30762734
 0.33234421, 0.30762734
 0.45697329, 0.30268233
 0.5578635, 0.30268233
 0.79228487, 0.32782166
 0.89614243, 0.41722453
 0.72106825, 0.48178443
 0.64094955, 0.49725394
 0.54896142, 0.49742597
 0.35905045, 0.49742597
 0.25222552, 0.49517188
 0.12166172, 0.49661299
 0.06231454, 0.50353152
 0.13353116, 0.50407603
 0.12759644, 0.50407603
 0.14540059, 0.50511709
 0.09198813, 0.50511709
 0.21958457, 0.50249084
 0.12759644, 0.49432213
 0.09198813, 0.49813196
 0.13353116, 0.49813196
 0.0652819, 0.49813196
 0.11275964, 0.49813196
 0.0504451, 0.50207172
 0.11275964, 0.49813875
 0.21958457, 0.49813875
 0.4272997, 0.47473495
 0.22255193, 0.40142339
 0.30563798, 0.36141915
 0.4421365, 0.31748
 0.43323442, 0.27185802
 0.40949555, 0.27185802
 0.23442136, 0.27415835
 0.115727, 0.27415835
 0.13649852, 0.27415835
 0.21661721, 0.27415835
 0.14836795, 0.2739819
 0.03560831, 0.2739819
 0.02967359, 0.2698395
 0.18991098, 0.26849001
 0.1958457, 0.26814104
 0.30267062, 0.26848217
 0.14836795, 0.26850651
 0.13946588, 0.26850651
 0.12166172, 0.26850651
 0.04154303, 0.26850651
 0.115727, 0.26889779
 0.05637982, 0.26889779
 0.13946588, 0.26889779
 0.12462908, 0.26889779
 0.20474777, 0.26889779
 0.32937685, 0.26310432
 0.32344214, 0.24515631
 0.31454006, 0.2115029
 0.14836795, 0.2115029
 0.08605341, 0.2115029
 0.17507418, 0.21130244
 0.18397626, 0.21130244
 0.12759644, 0.21130244
 0.05934718, 0.21130244
 0.10089021, 0.21412036
 0.06231454, 0.21330969
 0.04154303, 0.21331237
 0.08308605, 0.21269203
 0.10979228, 0.21269203
 0.15727003, 0.21269203
 0.06231454, 0.21269203
 0.04154303, 0.21269203
 0.08902077, 0.21269203
 0.10682493, 0.21269203
 0.10979228, 0.21269203
 0.05637982, 0.21269203
 0.0652819, 0.21279396
 0.15430267, 0.20836715
 0.10979228, 0.20117131
 0.16617211, 0.13785922
 0.29673591, 0.13785922
 0.4272997, 0.18863266
 0.39762611, 0.25842872
