Target,Output
 0.24332344, 0.40732228
 0.34421365, 0.3054586
 0.14540059, 0.29330236
 0.10682493, 0.24531932
 0.33531157, 0.13985032
 0.25519288, 0.23139547
 0.16023739, 0.29376396
 0.07418398, 0.20864859
 0.07121662, 0.14401048
 0.05934718, 0.09611013
 0.15430267, 0.09283225
 0.03857567, 0.14067333
 0.07715134, 0.13653492
 0.16320475, 0.08723106
 0.26706231, 0.14494681
 0.22848665, 0.21504372
 0.21958457, 0.24909664
 0.29376855, 0.230983
 0.34124629, 0.25095372
 0.5578635, 0.3301475
 0.65875371, 0.44964267
 0.82195846, 0.60886091
 0.68249258, 0.73776827
 0.47774481, 0.75347909
 0.36795252, 0.57641994
 0.22255193, 0.42063737
 0.25222552, 0.2973515
 0.09495549, 0.24396121
 0.16320475, 0.18849117
 0.09792285, 0.14565439
 0.10979228, 0.14570136
 0.10682493, 0.11285315
 0.16617211, 0.11301333
 0.22255193, 0.14661917
 0.10089021, 0.19092534
 0.04154303, 0.17074668
 0.13353116, 0.08969171
 0.05637982, 0.12254784
 0.11275964, 0.12761554
 0.115727, 0.10832041
 0.15133531, 0.11951855
 0.27596439, 0.14290154
 0.29673591, 0.21051556
 0.42136499, 0.27328856
 0.67655786, 0.366363
 0.77744807, 0.54952298
 0.6379822, 0.72663253
 0.30267062, 0.70478193
 0.28189911, 0.48766131
 0.32047478, 0.28210539
 0.34421365, 0.3023362
 0.46884273, 0.34030993
 0.39169139, 0.40524854
 0.38575668, 0.43801664
 0.35608309, 0.38216379
 0.30563798, 0.36038463
 0.18991098, 0.3438799
 0.10979228, 0.24553805
 0.12759644, 0.14998628
 0.07121662, 0.12961331
 0.06824926, 0.12718773
 0.115727, 0.09529079
 0.1810089, 0.11496479
 0.27002967, 0.14970957
 0.26706231, 0.22861246
 0.3264095, 0.26460069
 0.25519288, 0.29482954
 0.34421365, 0.28717434
 0.28783383, 0.29963177
 0.23145401, 0.3252052
 0.5578635, 0.25256163
 0.40652819, 0.39734731
 0.39169139, 0.49133671
 0.23442136, 0.39773909
 0.11869436, 0.30565554
 0.31454006, 0.18022533
 0.46290801, 0.21716268
 0.33234421, 0.39412948
 0.31750742, 0.3982449
 0.31750742, 0.33346129
 0.26409496, 0.3215614
 0.10089021, 0.28491226
 0.04154303, 0.19347484
 0.08308605, 0.08969171
 0.115727, 0.08819894
 0.20771513, 0.11815139
 0.17210682, 0.15893723
 0.14836795, 0.18021347
 0.18991098, 0.15542932
 0.1810089, 0.15747944
 0.24035608, 0.17741862
 0.32937685, 0.21653449
 0.38575668, 0.2824615
 0.45994065, 0.35195546
 0.33531157, 0.42996667
 0.40652819, 0.3982191
 0.34421365, 0.36115778
 0.26706231, 0.3638436
 0.18694362, 0.30755351
 0.22255193, 0.2330229
 0.29673591, 0.20939761
 0.20474777, 0.25146093
 0.25816024, 0.25004259
 0.19287834, 0.24452379
 0.11275964, 0.23634593
 0.19287834, 0.15032347
 0.29970326, 0.15032347
 0.26706231, 0.2425317
 0.25222552, 0.26698593
 0.13946588, 0.2559947
 0.10385757, 0.19600219
 0.15727003, 0.13694687
 0.17804154, 0.14421378
 0.22848665, 0.16016975
 0.13649852, 0.20560973
 0.30860534, 0.18054825
 0.15133531, 0.21625625
 0.22848665, 0.22245766
 0.63204748, 0.18668529
 0.4925816, 0.43481584
 0.50148368, 0.56946314
 0.40356083, 0.49208731
 0.56379822, 0.45170306
 0.3115727, 0.49349584
 0.18694362, 0.44467405
 0.05934718, 0.24871471
 0.17804154, 0.14758946
 0.08902077, 0.14659707
 0.11275964, 0.14835573
 0.0652819, 0.11570448
 0.10385757, 0.11094533
 0.05637982, 0.10016701
 0.09792285, 0.09770038
 0.05637982, 0.09251119
 0.10682493, 0.09251119
 0.07418398, 0.10146995
 0.13353116, 0.10616776
 0.14243323, 0.13184597
 0.14243323, 0.14165723
 0.48367953, 0.14390972
 0.34124629, 0.30415886
 0.1305638, 0.40721727
 0.17210682, 0.2387409
 0.3115727, 0.15045924
 0.32937685, 0.23723897
 0.16617211, 0.33105512
 0.03857567, 0.24728651
 0.10385757, 0.14218143
 0.0504451, 0.09279393
 0.07418398, 0.09596779
 0.0652819, 0.09026335
 0.09198813, 0.09454836
 0.10979228, 0.09486438
 0.09198813, 0.1126258
 0.04451039, 0.1126258
 0.15133531, 0.08920121
 0.03560831, 0.13670271
 0.09198813, 0.13381391
 0.1305638, 0.0871184
 0.09198813, 0.1313154
 0.15727003, 0.1313154
 0.27596439, 0.14396997
 0.8041543, 0.21377232
 0.31454006, 0.5217176
 0.12759644, 0.5525727
 0.05637982, 0.21913739
 0.08605341, 0.12263911
 0.16023739, 0.09237344
 0.15133531, 0.14468591
 0.27596439, 0.15400322
 0.51038576, 0.21051556
 0.53115727, 0.38822132
 0.25816024, 0.53216731
 0.14243323, 0.39391618
 0.20771513, 0.20029292
 0.08902077, 0.16450575
 0.15430267, 0.15792259
 0.12759644, 0.14291296
 0.05341246, 0.14543746
 0.07121662, 0.12161746
 0.08308605, 0.09100346
 0.09495549, 0.09625761
 0.17210682, 0.09857495
 0.13649852, 0.14754738
 0.16913947, 0.15182482
 0.27596439, 0.15129951
 0.33827893, 0.22102213
 0.87240356, 0.31086156
 0.24332344, 0.60060376
 0.39465875, 0.55087028
 0.42136499, 0.3092532
 0.34421365, 0.41740593
 0.08902077, 0.377892
 0.16023739, 0.23614076
 0.25222552, 0.14481939
 0.31750742, 0.20726189
 0.16617211, 0.27807303
 0.10385757, 0.23854624
 0.05341246, 0.14653427
 0.09792285, 0.09682398
 0.10385757, 0.09166823
 0.11869436, 0.10529434
 0.05934718, 0.12217708
 0.10385757, 0.11546173
 0.10385757, 0.09859773
 0.08605341, 0.10540579
 0.13649852, 0.10436498
 0.14540059, 0.13466895
 0.19881306, 0.14373903
 0.30563798, 0.15673346
 0.40356083, 0.25466869
 0.66172107, 0.35396726
 0.63501484, 0.54353905
 0.3768546, 0.64922649
 0.17507418, 0.50802536
 0.1958457, 0.27336258
 0.27002967, 0.17256673
 0.21661721, 0.24270369
 0.43916914, 0.24815984
 0.31750742, 0.33476208
 0.08605341, 0.3830161
 0.13649852, 0.21827375
 0.16023739, 0.13466895
 0.14243323, 0.14921545
 0.05341246, 0.15083563
 0.12166172, 0.1335239
 0.07715134, 0.1163145
 0.07715134, 0.12307832
 0.2462908, 0.097442
 0.15727003, 0.18543999
 0.09495549, 0.20219207
 0.12759644, 0.14402
 0.09792285, 0.12925279
 0.09198813, 0.12933124
 0.32047478, 0.09961351
 0.3768546, 0.22077691
 0.55192878, 0.34959583
 0.74183976, 0.46655438
 0.41543027, 0.64693979
 0.18694362, 0.5891741
 0.23145401, 0.30217311
 0.42136499, 0.21651267
 0.3115727, 0.32603188
 0.10682493, 0.3703897
 0.04451039, 0.21304446
 0.01780415, 0.09799134
 0.07715134, 0.0789477
 0.03264095, 0.08365598
 0.10682493, 0.08596437
 0.05637982, 0.09512742
 0.04747774, 0.10146995
 0.15727003, 0.08803176
 0.18694362, 0.14040905
 0.10385757, 0.16103595
 0.23442136, 0.14955669
 0.3620178, 0.17891259
 0.40356083, 0.29867349
 0.47774481, 0.36846995
 0.72403561, 0.44859261
 0.27002967, 0.60132502
 0.52818991, 0.49441299
 0.52818991, 0.3987076
 0.1810089, 0.5318393
 0.26706231, 0.35798729
 0.60237389, 0.22778753
 0.62017804, 0.41872864
 0.45697329, 0.62353043
 0.46290801, 0.53557868
 0.47181009, 0.45724698
 0.30860534, 0.46228147
 0.23442136, 0.39636716
 0.30860534, 0.2631249
 0.32344214, 0.2631249
 0.1810089, 0.32635197
 0.20474777, 0.25330666
 0.27596439, 0.18397448
 0.48071217, 0.24835526
 0.35311573, 0.37484212
 0.41543027, 0.41249867
 0.50148368, 0.37658044
 0.43620178, 0.45237961
 0.62017804, 0.45582206
 0.81305638, 0.52668012
 0.68545994, 0.71603424
 0.60534125, 0.74872817
 0.45400593, 0.64946896
 0.33531157, 0.52042898
 0.40652819, 0.39536711
 0.3768546, 0.36115778
 0.33234421, 0.3825874
 0.23738872, 0.35159593
 0.27596439, 0.28349211
 0.25519288, 0.25263365
 0.2462908, 0.25889635
 0.08605341, 0.25050195
 0.115727, 0.1854778
 0.07121662, 0.11849538
 0.10089021, 0.11573919
 0.14243323, 0.0976251
 0.04154303, 0.13832604
 0.09495549, 0.12930821
 0.13649852, 0.08846082
 0.17804154, 0.13503176
 0.18397626, 0.15273843
 0.16913947, 0.17444588
 0.13946588, 0.16759976
 0.29673591, 0.15201098
 0.46290801, 0.20766236
 0.24925816, 0.38933908
 0.21068249, 0.3546095
 0.23442136, 0.24168838
 0.12759644, 0.23421838
 0.16617211, 0.18199887
 0.21661721, 0.14875217
 0.16617211, 0.1854409
 0.18991098, 0.1854409
 0.22848665, 0.1661885
 0.1810089, 0.2174397
 0.0504451, 0.20832542
 0.04154303, 0.14625137
 0.14540059, 0.085429
 0.1958457, 0.13145862
 0.09495549, 0.15664994
 0.06231454, 0.14981333
 0.06824926, 0.09412668
 0.07715134, 0.09353786
 0.14836795, 0.09543097
 0.20474777, 0.14002431
 0.13649852, 0.16334667
 0.10682493, 0.15953106
 0.26706231, 0.13532226
 0.34124629, 0.1947953
 0.59940653, 0.30578091
 0.33531157, 0.45761287
 0.34421365, 0.45568694
 0.17507418, 0.34290969
 0.07715134, 0.26158702
 0.08011869, 0.14736831
 0.13353116, 0.09747982
 0.18694362, 0.13246744
 0.13649852, 0.15295614
 0.00890208, 0.15364563
 0.07121662, 0.11869112
 0.15133531, 0.08243586
 0.19881306, 0.1407585
 0.115727, 0.15886936
 0.02373887, 0.15075493
 0.0504451, 0.10302138
 0.05934718, 0.08137774
 0.02077151, 0.08927866
 0.10385757, 0.08230249
 0.115727, 0.08954319
 0.10682493, 0.1192745
 0.29080119, 0.11932422
 0.34421365, 0.1998809
 0.09495549, 0.32825452
 0.32344214, 0.23606835
 0.29080119, 0.22300658
 0.34124629, 0.31439739
 0.16913947, 0.32673149
 0.24035608, 0.25601328
 0.1810089, 0.20673472
 0.13946588, 0.21653449
 0.22255193, 0.15383127
 0.12759644, 0.17696914
 0.15430267, 0.17370313
 0.0504451, 0.14543746
 0.07715134, 0.1396339
 0.03264095, 0.09039852
 0.08011869, 0.08596437
 0.05637982, 0.08614161
 0.02967359, 0.09224494
 0.04154303, 0.08336555
 0.09198813, 0.08016927
 0.08308605, 0.08843117
 0.08605341, 0.09857076
 0.20178042, 0.09855086
 0.27893175, 0.15165204
 0.30860534, 0.24872096
 0.36795252, 0.28691315
 0.48367953, 0.34707626
 0.33827893, 0.42155155
 0.2611276, 0.40603697
 0.22848665, 0.29957963
 0.17507418, 0.24770124
 0.15430267, 0.20302896
 0.15133531, 0.15835642
 0.15133531, 0.152094
 0.18694362, 0.15106939
 0.09495549, 0.15836535
 0.04451039, 0.14937733
 0.07715134, 0.08922921
 0.04747774, 0.08874547
 0.0504451, 0.0895618
 0.0504451, 0.08731378
 0.12462908, 0.08829922
 0.06231454, 0.11801084
 0.07121662, 0.12192781
 0.07715134, 0.09365781
 0.25816024, 0.09616856
 0.23442136, 0.19116405
 0.3115727, 0.24808576
 0.27299703, 0.26602319
 0.14243323, 0.28531729
 0.15133531, 0.20555247
 0.10385757, 0.1478918
 0.18694362, 0.14223807
 0.36498516, 0.14955669
 0.10979228, 0.27997723
 0.04154303, 0.24481756
 0.02373887, 0.10066841
 0.1810089, 0.07903899
 0.16320475, 0.14399187
 0.20178042, 0.1637
 0.03560831, 0.1669554
 0.05341246, 0.14840893
 0.08308605, 0.08430128
 0.01186944, 0.09144687
 0.06824926, 0.08341547
 0.08308605, 0.08237505
 0.04451039, 0.0955362
 0.08902077, 0.08898185
 0.14836795, 0.08915442
 0.09495549, 0.14073052
 0.23145401, 0.14087515
 0.3264095, 0.1768995
 0.34421365, 0.27748465
 0.27002967, 0.34118297
 0.3264095, 0.30966195
 0.27596439, 0.29701623
 0.25222552, 0.30205457
 0.19287834, 0.25755882
 0.17210682, 0.23419968
 0.08902077, 0.17022632
 0.14540059, 0.14743481
 0.20771513, 0.13941303
 0.22551929, 0.1655752
 0.20178042, 0.22797574
 0.12462908, 0.22784328
 0.1305638, 0.15384059
 0.07121662, 0.1331176
 0.17804154, 0.12956762
 0.1958457, 0.14748164
 0.10979228, 0.17494873
 0.08605341, 0.15016238
 0.07715134, 0.11198265
 0.16320475, 0.09752445
 0.29376855, 0.14494681
 0.32344214, 0.21953359
 0.24925816, 0.31802943
 0.10089021, 0.2816704
 0.22848665, 0.18714455
 0.26706231, 0.17499278
 0.24925816, 0.24909664
 0.26409496, 0.25475462
 0.11275964, 0.25407129
 0.0652819, 0.19429504
 0.12759644, 0.11094533
 0.03264095, 0.12547461
 0.03857567, 0.11540725
 0.14243323, 0.07987343
 0.21068249, 0.12839261
 0.16913947, 0.1675931
 0.11869436, 0.18142471
 0.10682493, 0.14814757
 0.05637982, 0.12223284
 0.16913947, 0.10146995
 0.32047478, 0.14474797
 0.17210682, 0.24274972
 0.08605341, 0.24473085
 0.11275964, 0.14731469
 0.10089021, 0.11535053
 0.10385757, 0.11617593
 0.15430267, 0.10539033
 0.46587537, 0.14324311
 0.26409496, 0.30675812
 0.1810089, 0.36321363
 0.24332344, 0.22694086
 0.36795252, 0.21818947
 0.1305638, 0.30451443
 0.05934718, 0.24953136
 0.06231454, 0.1262528
 0.09495549, 0.09237522
 0.06824926, 0.09412668
 0.12462908, 0.09564586
 0.02373887, 0.12368322
 0.09792285, 0.11113836
 0.03857567, 0.08510528
 0.11275964, 0.08779897
 0.34124629, 0.10304822
 0.28783383, 0.23536476
 0.16913947, 0.323645
 0.19287834, 0.22279478
 0.21958457, 0.1681213
 0.23738872, 0.2135822
 0.15727003, 0.23669823
 0.13946588, 0.19646306
 0.29673591, 0.14899556
 0.56379822, 0.20766236
 0.30860534, 0.44004389
 0.24925816, 0.44439977
 0.19287834, 0.26800131
 0.13946588, 0.23301563
 0.29080119, 0.15469992
 0.08605341, 0.20738709
 0.13649852, 0.19956906
 0.16320475, 0.13466895
 0.51632047, 0.14992968
 0.20178042, 0.33320952
 0.22848665, 0.37015898
 0.39762611, 0.23009019
 0.40949555, 0.30400772
 0.26409496, 0.4092504
 0.3768546, 0.33030462
 0.38872404, 0.31802118
 0.20178042, 0.37377541
 0.37091988, 0.29939709
 0.36498516, 0.29581527
 0.45400593, 0.36341795
 0.55192878, 0.41126472
 0.57566766, 0.50336979
 0.48367953, 0.55738363
 0.30860534, 0.53198825
 0.49554896, 0.3989778
 0.28189911, 0.40020818
 0.27299703, 0.3811097
 0.24332344, 0.27025742
 0.21958457, 0.25386836
 0.13649852, 0.23979231
 0.2611276, 0.17374588
 0.27002967, 0.19910876
 0.28486647, 0.26096363
 0.10979228, 0.26824702
 0.09792285, 0.19921574
 0.04154303, 0.11285315
 0.02967359, 0.08849031
 0.06824926, 0.08016927
 0.0504451, 0.08472708
 0.11869436, 0.0899469
 0.06824926, 0.11254125
 0.03560831, 0.11803894
 0.10089021, 0.08599755
 0.26409496, 0.08837299
 0.27596439, 0.19347484
 0.16913947, 0.26359088
 0.37982196, 0.22102213
 0.51928783, 0.26979239
 0.56083086, 0.4492847
 0.5074184, 0.54626688
 0.37091988, 0.54538007
 0.33234421, 0.4324321
 0.19287834, 0.35067414
 0.29376855, 0.2699477
 0.24035608, 0.24234304
 0.05637982, 0.25496574
 0.20771513, 0.18221213
 0.4421365, 0.15654555
 0.47477745, 0.33533616
 0.22551929, 0.45375885
 0.1958457, 0.35006782
 0.10682493, 0.2223393
 0.17210682, 0.15007679
 0.05341246, 0.1478169
 0.12462908, 0.14505469
 0.24332344, 0.11899641
 0.1305638, 0.18668732
 0.11275964, 0.18809308
 0.17210682, 0.1319634
 0.41543027, 0.14814838
 0.47477745, 0.29004029
 0.48664688, 0.4487988
 0.46884273, 0.47197765
 0.47181009, 0.46761097
 0.48071217, 0.46600839
 0.42136499, 0.46926343
 0.16913947, 0.45026906
 0.16913947, 0.29312473
 0.10385757, 0.16578406
 0.09198813, 0.14720729
 0.06231454, 0.10501214
 0.05934718, 0.0941103
 0.0504451, 0.09237522
 0.02077151, 0.08927866
 0.05934718, 0.08085871
 0.0504451, 0.08230249
 0.07418398, 0.08927866
 0.16913947, 0.09026335
 0.13353116, 0.14616491
 0.03560831, 0.15060725
 0.12462908, 0.12090704
 0.115727, 0.11360603
 0.10979228, 0.12771395
 0.10979228, 0.11937419
 0.24332344, 0.11304881
 0.46290801, 0.1843556
 0.43323442, 0.35224074
 0.24925816, 0.44909853
 0.16617211, 0.34078124
 0.44510386, 0.20981234
 0.56083086, 0.30600789
 0.27002967, 0.50280368
 0.35608309, 0.41430477
 0.08902077, 0.315591
 0.10385757, 0.24143055
 0.08308605, 0.10477789
 0.09495549, 0.10395558
 0.09198813, 0.09857495
 0.01780415, 0.09961236
 0.08605341, 0.08427266
 0.10385757, 0.08409314
 0.10089021, 0.10436498
 0.10979228, 0.10539033
 0.05341246, 0.11294293
 0.05341246, 0.10415005
 0.10682493, 0.08963562
 0.19881306, 0.10057055
 0.34718101, 0.15016183
 0.27893175, 0.28468558
 0.27002967, 0.31844958
 0.3115727, 0.26774224
 0.34421365, 0.28298026
 0.33234421, 0.33952894
 0.42136499, 0.34224241
 0.19287834, 0.3739547
 0.16023739, 0.31329175
 0.22848665, 0.16279983
 0.21958457, 0.19180112
 0.04451039, 0.230983
 0.08605341, 0.16732687
 0.21068249, 0.08906882
 0.18397626, 0.16072982
 0.13353116, 0.1942545
 0.04451039, 0.15269557
 0.05934718, 0.12352188
 0.08605341, 0.08746846
 0.03264095, 0.09325158
 0.05341246, 0.08635179
 0.11275964, 0.08359204
 0.12759644, 0.10738131
 0.3115727, 0.12981314
 0.32937685, 0.21643128
 0.24035608, 0.33105512
 0.18397626, 0.2824615
 0.28783383, 0.21936662
 0.18694362, 0.23388497
 0.26706231, 0.23643784
 0.29673591, 0.2330229
 0.36795252, 0.26691206
 0.24035608, 0.34318323
 0.30267062, 0.30310563
 0.25222552, 0.2582159
 0.21958457, 0.26251729
 0.14836795, 0.24354554
 0.09792285, 0.17814924
 0.00296736, 0.14093099
 0.02670623, 0.08340079
 0.05637982, 0.06928682
 0.05934718, 0.08285169
 0.13649852, 0.09119279
 0.01780415, 0.13109687
 0.0652819, 0.11962201
 0.08902077, 0.08264343
 0.24925816, 0.09484025
 0.22848665, 0.18707799
 0.27299703, 0.2437692
 0.32047478, 0.25023291
 0.41839763, 0.29430312
 0.4421365, 0.36906619
 0.54005935, 0.43913174
 0.61424332, 0.49032773
 0.52818991, 0.57003333
 0.34718101, 0.56691744
 0.29673591, 0.43670927
 0.21661721, 0.33650919
 0.38575668, 0.2507743
 0.4421365, 0.30036018
 0.32344214, 0.42207225
 0.21958457, 0.38576917
 0.26409496, 0.27282334
 0.4421365, 0.24707004
 0.1305638, 0.3534568
 0.10979228, 0.29073572
 0.1810089, 0.13175406
 0.14836795, 0.14920208
 0.13353116, 0.15671098
 0.09495549, 0.14440326
 0.18694362, 0.13325133
 0.24925816, 0.14937733
 0.38872404, 0.22686758
 0.32937685, 0.31155467
 0.44510386, 0.35221479
 0.58753709, 0.38875783
 0.8041543, 0.50950998
 0.90504451, 0.69124028
 0.91097923, 0.85018667
 0.78931751, 0.90061791
 0.68249258, 0.83919393
 0.92878338, 0.7327892
 0.74777448, 0.7812902
 0.6379822, 0.81153477
 0.46587537, 0.69311558
 0.41839763, 0.55227294
 0.51335312, 0.44737835
 0.36498516, 0.4644726
 0.24332344, 0.43428598
 0.14540059, 0.30345657
 0.07121662, 0.1937526
 0.1810089, 0.13816178
 0.29376855, 0.14788452
 0.09792285, 0.23175973
 0.14836795, 0.19969
 0.19287834, 0.14093099
 0.16320475, 0.15756815
 0.1810089, 0.16449629
 0.38278932, 0.1637
 0.27893175, 0.27905422
 0.3264095, 0.3291985
 0.34718101, 0.30467076
 0.34718101, 0.34253583
 0.30267062, 0.34773971
 0.24035608, 0.34052717
 0.21958457, 0.2582159
 0.16023739, 0.23837457
 0.1305638, 0.18437798
 0.40356083, 0.14785034
 0.32937685, 0.25863068
 0.1305638, 0.35655382
 0.24925816, 0.23163018
 0.24035608, 0.19140074
 0.0652819, 0.24642857
 0.05934718, 0.18217316
 0.16320475, 0.09254021
 0.12759644, 0.14353239
 0.08011869, 0.14805844
 0.15430267, 0.1283768
 0.14836795, 0.14247947
 0.24332344, 0.15092203
 0.46884273, 0.19517681
 0.33531157, 0.35409259
 0.69732938, 0.401529
 1., 0.50104716
 0.9851632, 0.78494613
 0.78931751, 0.94185965
 0.60534125, 0.84230472
 0.42136499, 0.69966379
 0.58160237, 0.50841495
 0.55192878, 0.50059202
 0.37388724, 0.55816398
 0.20474777, 0.46441034
 0.14243323, 0.29670137
 0.20178042, 0.1612462
 0.25519288, 0.15787674
 0.25816024, 0.2434793
 0.21661721, 0.25513419
 0.18694362, 0.24524789
 0.10385757, 0.20376272
 0.09198813, 0.14955669
 0.115727, 0.10501214
 0.14836795, 0.11894121
 0.10979228, 0.14173458
 0.16023739, 0.1412422
 0.15133531, 0.14530473
 0.15133531, 0.15400322
 0.12462908, 0.15106939
 0.21661721, 0.14396645
 0.40949555, 0.16832327
 0.30563798, 0.31213147
 0.20771513, 0.36001378
 0.18397626, 0.25618949
 0.10385757, 0.19069257
 0.05934718, 0.14929532
 0.24035608, 0.09859773
 0.28783383, 0.18217849
 0.10385757, 0.25467129
 0.10385757, 0.19936673
 0.12462908, 0.10540579
 0.17507418, 0.12719369
 0.05637982, 0.14995427
 0.12166172, 0.14583956
 0.05341246, 0.11730413
 0.0652819, 0.1163145
 0.12166172, 0.09064684
 0.1305638, 0.12005718
 0.10979228, 0.1327268
 0.28486647, 0.13175406
 0.31750742, 0.19921574
 0.41543027, 0.30246328
 0.37091988, 0.36617867
 0.50445104, 0.38765215
 0.33531157, 0.42937157
 0.17210682, 0.41136145
 0.13353116, 0.25462686
 0.3115727, 0.15113292
 0.25519288, 0.21817976
 0.22848665, 0.2739043
 0.18694362, 0.24587412
 0.25519288, 0.21431122
 0.03857567, 0.22927844
 0.02670623, 0.19072495
 0.0652819, 0.0785438
 0.15133531, 0.08394574
 0.05637982, 0.14018698
 0.04747774, 0.13920771
 0.13946588, 0.08803176
 0.20771513, 0.12916208
 0.1958457, 0.16351139
 0.15727003, 0.20463259
 0.10979228, 0.16144704
 0.15430267, 0.14438245
 0.29673591, 0.14341097
 0.37982196, 0.21465113
 0.43026706, 0.34525663
 0.5578635, 0.4085986
 0.48961424, 0.49542175
 0.35608309, 0.5327967
 0.35014837, 0.41526736
 0.24035608, 0.35216302
 0.40059347, 0.29534733
 0.29673591, 0.30883397
 0.21068249, 0.34715687
 0.10385757, 0.25025317
 0.21661721, 0.16105595
 0.24332344, 0.16617144
 0.27893175, 0.2395399
 0.07418398, 0.25477207
 0.08902077, 0.19785464
 0.09495549, 0.09692982
 0.05341246, 0.09938209
 0.05637982, 0.09164585
 0.07121662, 0.08993744
 0.10682493, 0.09190579
 0.21661721, 0.10553912
 0.22551929, 0.16627591
 0.31454006, 0.22848114
 0.23442136, 0.26668229
 0.21364985, 0.2687143
 0.16617211, 0.23444858
 0.2611276, 0.18247745
 0.22551929, 0.21505309
 0.19881306, 0.24723876
 0.20474777, 0.22620956
 0.28189911, 0.20487942
 0.36795252, 0.2491363
 0.15727003, 0.32880569
 0.1958457, 0.26006086
 0.24332344, 0.16144704
 0.20178042, 0.233636
 0.12759644, 0.23876451
 0.04451039, 0.15431382
 0.06824926, 0.11867399
 0.05341246, 0.0882296
 0.0504451, 0.09083969
 0.04154303, 0.088645
 0.115727, 0.085429
 0.33531157, 0.10685843
 0.24035608, 0.23230997
 0.17804154, 0.28644519
 0.21661721, 0.21393572
 0.40059347, 0.19482645
 0.34718101, 0.30218408
 0.39169139, 0.35807405
 0.32937685, 0.35712958
 0.46587537, 0.35237416
 0.35014837, 0.39832796
 0.1810089, 0.40705406
 0.24925816, 0.26897345
 0.27002967, 0.22132037
 0.16913947, 0.25541605
 0.11275964, 0.21977072
 0.19881306, 0.1476235
 0.1810089, 0.15049384
 0.12462908, 0.17759111
 0.06231454, 0.15079315
 0.21068249, 0.12192781
 0.08308605, 0.15986487
 0.08011869, 0.16065319
 0.13649852, 0.09812933
 0.07418398, 0.13428807
 0.15727003, 0.1337006
 0.1958457, 0.14305111
 0.19881306, 0.16144704
 0.37982196, 0.19420993
 0.39465875, 0.2965791
 0.38872404, 0.37641121
 0.29673591, 0.38535102
 0.17804154, 0.34609573
 0.11275964, 0.22959806
 0.07715134, 0.14906318
 0.07715134, 0.11384755
 0.05341246, 0.097442
 0.18991098, 0.09125641
 0.21958457, 0.14738717
 0.22551929, 0.20996448
 0.26706231, 0.22868956
 0.18694362, 0.24863321
 0.31750742, 0.2330229
 0.19881306, 0.25377593
 0.20474777, 0.26550383
 0.09792285, 0.20487942
 0.10682493, 0.15500773
 0.14540059, 0.10917883
 0.10979228, 0.13985032
 0.115727, 0.1399322
 0.14243323, 0.11937419
 0.16320475, 0.13904723
 0.18397626, 0.1515495
 0.30563798, 0.16394118
 0.31750742, 0.24041434
 0.56973294, 0.32106572
 0.34124629, 0.44731558
 0.29673591, 0.45354032
 0.65875371, 0.33369006
 0.4272997, 0.49309984
 0.30267062, 0.54577386
 0.20474777, 0.37422184
 0.05637982, 0.2530021
 0.10979228, 0.15332517
 0.14540059, 0.10506952
 0.06824926, 0.1399322
 0.10089021, 0.13786203
 0.09495549, 0.09691826
 0.15133531, 0.10103607
 0.06231454, 0.14203918
 0.06824926, 0.13988269
 0.12166172, 0.09353786
 0.08308605, 0.12092963
 0.09198813, 0.12383973
 0.13946588, 0.09857076
 0.34421365, 0.13667236
 0.39465875, 0.24298691
 0.37982196, 0.35622542
 0.32937685, 0.37641121
 0.25816024, 0.35141762
 0.2611276, 0.29125648
 0.25222552, 0.25740966
 0.23442136, 0.25461566
 0.0652819, 0.24610384
 0.05341246, 0.17846242
 0.115727, 0.09064684
 0.1305638, 0.11048892
 0.08902077, 0.13218596
 0.19287834, 0.13119653
 0.05637982, 0.14962484
 0.03264095, 0.14773112
 0.03264095, 0.08402885
 0.08902077, 0.07717367
 0.08011869, 0.08645451
 0.10682493, 0.0981624
 0.06824926, 0.10744132
 0.11275964, 0.10480099
 0.12462908, 0.11178058
 0.13353116, 0.12751305
 0.1810089, 0.13502752
 0.53709199, 0.1524321
 0.32937685, 0.36416339
 0.38278932, 0.43606538
 0.5727003, 0.35169331
 0.41839763, 0.47854133
 0.43620178, 0.49789773
 0.34421365, 0.43589927
 0.20771513, 0.38872586
 0.17804154, 0.28474494
 0.05341246, 0.18505755
 0.08605341, 0.14607975
 0.06231454, 0.09151686
 0.09495549, 0.09403274
 0.10385757, 0.09412668
 0.0652819, 0.10515758
 0.06824926, 0.10016701
 0.04747774, 0.09435982
 0.09495549, 0.08907716
 0.14540059, 0.09001574
 0.13946588, 0.13956421
 0.08308605, 0.14443911
 0.1810089, 0.13621144
 0.16913947, 0.14851567
 0.115727, 0.16737294
 0.15727003, 0.1478841
 0.23145401, 0.14488416
 0.43026706, 0.19226737
 0.34124629, 0.33252443
 0.27002967, 0.38347593
 0.15133531, 0.30791813
 0.07715134, 0.20912447
 0.10385757, 0.14122386
 0.07121662, 0.10292403
 0.08902077, 0.10168026
 0.26706231, 0.09632236
 0.40059347, 0.19446796
 0.52818991, 0.32280284
 0.33827893, 0.47477216
 0.09792285, 0.43322548
 0.26409496, 0.23290714
 0.09495549, 0.19343155
 0.10089021, 0.19342915
 0.02967359, 0.10103607
 0.03857567, 0.08717792
 0.02967359, 0.0791245
 0.11869436, 0.0791245
 0.08605341, 0.10691601
 0.28189911, 0.12143504
 0.21068249, 0.19830698
 0.25816024, 0.24934684
 0.24925816, 0.24473194
 0.32047478, 0.25250976
 0.22848665, 0.27928512
 0.10979228, 0.27231429
 0.12166172, 0.17533643
 0.11275964, 0.12492255
 0.13946588, 0.12509905
 0.10385757, 0.13733399
 0.39465875, 0.13694687
 0.6884273, 0.24992756
 0.45994065, 0.54235613
 0.35014837, 0.56538482
 0.09198813, 0.40494878
 0.06231454, 0.23902292
 0.05341246, 0.0941103
 0.08902077, 0.09044569
 0.09792285, 0.09158572
 0.03857567, 0.09938391
 0.14836795, 0.08779897
 0.17210682, 0.13265224
 0.14836795, 0.15542932
 0.20771513, 0.15542932
 0.32344214, 0.16668072
 0.35608309, 0.27164577
 0.27299703, 0.34539105
 0.53115727, 0.31784303
 0.37091988, 0.40287436
 0.30563798, 0.45132985
 0.25519288, 0.34759601
 0.24332344, 0.2673926
 0.20474777, 0.24950793
 0.19287834, 0.23884504
 0.20178042, 0.19690996
 0.19287834, 0.19287664
 0.18991098, 0.19287664
 0.05934718, 0.18663321
 0.08308605, 0.14787107
 0.16617211, 0.09319449
 0.12759644, 0.1459755
 0.07121662, 0.14875217
 0.08605341, 0.12718773
 0.0504451, 0.09629026
 0.09495549, 0.09068106
 0.14836795, 0.09082106
 0.17210682, 0.14087515
 0.18991098, 0.15542932
 0.33234421, 0.1701525
 0.2611276, 0.26695917
 0.29080119, 0.29532468
 0.37388724, 0.26324586
 0.68545994, 0.33807988
 0.37388724, 0.52120345
 0.41246291, 0.52120345
 0.18694362, 0.38698009
 0.13946588, 0.29945164
 0.1958457, 0.15435332
 0.10979228, 0.15478448
 0.0504451, 0.15016238
 0.03857567, 0.10325085
 0.05637982, 0.08459546
 0.05341246, 0.08543299
 0.15133531, 0.08993744
 0.14243323, 0.13884398
 0.08011869, 0.1478918
 0.05637982, 0.13752528
 0.06824926, 0.09224494
 0.06231454, 0.09175647
 0.09198813, 0.09353786
 0.16023739, 0.0941103
 0.3115727, 0.14489571
 0.23442136, 0.22989864
 0.3115727, 0.26602319
 0.23442136, 0.26602319
 0.09792285, 0.26602319
 0.40059347, 0.1787489
 0.36795252, 0.25085671
 0.06824926, 0.36832587
 0.21958457, 0.24661947
 0.16617211, 0.16793965
 0.24035608, 0.18832202
 0.22255193, 0.20459791
 0.17804154, 0.23877246
 0.08902077, 0.20053167
 0.09198813, 0.14835573
 0.0652819, 0.09938025
 0.07121662, 0.09486438
 0.10979228, 0.09446562
 0.02373887, 0.10921559
 0.0504451, 0.09698076
 0.05341246, 0.08137774
 0.06824926, 0.088645
 0.17804154, 0.09083969
 0.21958457, 0.14727846
 0.13946588, 0.19781437
 0.17210682, 0.17462078
 0.22255193, 0.15253571
 0.27002967, 0.19540084
 0.45400593, 0.2488462
 0.55192878, 0.36251209
 0.38278932, 0.50336979
 0.27299703, 0.47124657
 0.21958457, 0.32486857
 0.32937685, 0.24889193
 0.40949555, 0.27711128
 0.33234421, 0.36280228
 0.16913947, 0.36351147
 0.27002967, 0.25088492
 0.10385757, 0.21977072
 0.09792285, 0.19569199
 0.04451039, 0.10529434
 0.08902077, 0.08925706
 0.0652819, 0.08915442
 0.07418398, 0.09484025
 0.12462908, 0.09454836
 0.18397626, 0.12517058
 0.18397626, 0.15105723
 0.21068249, 0.18000996
 0.16320475, 0.1942545
 0.20474777, 0.17751248
 0.43323442, 0.17063105
 0.43620178, 0.33003315
 0.48367953, 0.43812464
 0.48367953, 0.45328954
 0.27596439, 0.47969339
 0.24035608, 0.37525044
 0.20178042, 0.25337435
 0.06824926, 0.2373624
 0.04747774, 0.15080726
 0.39169139, 0.08907716
 0.28783383, 0.25443133
 0.39465875, 0.33749337
 0.17804154, 0.33759364
 0.24035608, 0.27789585
 0.14243323, 0.21393572
 0.08605341, 0.190635
 0.03560831, 0.13786978
 0.05341246, 0.08696531
 0.08011869, 0.08430128
 0.18694362, 0.09137571
 0.29080119, 0.1489377
 0.34421365, 0.23668835
 0.35311573, 0.32825452
 0.37091988, 0.34909649
 0.33827893, 0.35718759
 0.22848665, 0.35206218
 0.20771513, 0.28463212
 0.21364985, 0.23023002
 0.15133531, 0.21721083
 0.07121662, 0.17399155
 0.0652819, 0.1407585
 0.0504451, 0.09446562
 0.03560831, 0.08973807
 0.02967359, 0.08385497
 0.05934718, 0.07781331
 0.05934718, 0.08379273
 0.09198813, 0.09219166
 0.11869436, 0.09333839
 0.10089021, 0.1218525
 0.10682493, 0.12212159
 0.14836795, 0.10927162
 0.10979228, 0.14115933
 0.08308605, 0.1412422
 0.07418398, 0.11156233
 0.09198813, 0.09687537
 0.10682493, 0.09694456
 0.09198813, 0.10892494
 0.10979228, 0.10892494
 0.23738872, 0.1126258
 0.28783383, 0.18097534
 0.28783383, 0.25393341
 0.29080119, 0.2842337
 0.14540059, 0.28433716
 0.33531157, 0.2100164
 0.4272997, 0.24046045
 0.1958457, 0.37930143
 0.13946588, 0.32104487
 0.1305638, 0.15478448
 0.19881306, 0.13950586
 0.09792285, 0.15280263
 0.11869436, 0.14993831
 0.10089021, 0.1220397
 0.04747774, 0.12212159
 0.10682493, 0.09125762
 0.27299703, 0.09883191
 0.10385757, 0.19657883
 0.09495549, 0.19643526
 0.16023739, 0.10515758
 0.20474777, 0.14494404
 0.15430267, 0.16886691
 0.24035608, 0.16592798
 0.16913947, 0.1966958
 0.29080119, 0.20673472
 0.42433234, 0.22308329
 0.56973294, 0.36242064
 0.59050445, 0.49844157
 0.61424332, 0.56844424
 0.33234421, 0.605261
 0.06824926, 0.4708945
 0.19287834, 0.23022158
 0.10682493, 0.14860825
 0.09495549, 0.14999145
 0.0504451, 0.10905703
 0.10385757, 0.09082106
 0.18991098, 0.09596779
 0.10089021, 0.14981538
 0.10385757, 0.14973037
 0.2462908, 0.10539033
 0.05341246, 0.18569141
 0.17507418, 0.18560501
 0.12759644, 0.14557204
 0.05934718, 0.15041537
 0.09792285, 0.12368206
 0.17804154, 0.09337497
 0.16617211, 0.14850628
 0.10979228, 0.16515131
 0.16913947, 0.14670438
 0.30860534, 0.14737768
 0.45400593, 0.23246665
 0.4421365, 0.38968857
 0.50148368, 0.44872061
 0.30267062, 0.45743655
 0.16617211, 0.40186441
 0.27893175, 0.22449181
 0.1958457, 0.21976167
 0.09495549, 0.24416765
 0.12759644, 0.14981333
 0.13946588, 0.12925279
 0.1305638, 0.13902686
 0.01780415, 0.13950586
 0.06824926, 0.1151406
 0.14540059, 0.08296219
 0.03857567, 0.13786203
 0.06824926, 0.13052688
 0.07715134, 0.08665957
 0.15727003, 0.09543097
 0.07121662, 0.14326466
 0.12462908, 0.14283549
 0.13353116, 0.12448933
 0.16617211, 0.13502752
 0.29080119, 0.1499316
 0.20474777, 0.22123955
 0.27596439, 0.24987181
 0.49851632, 0.24835526
 0.56973294, 0.37651078
 0.3264095, 0.54556534
 0.25519288, 0.4491034
 0.17210682, 0.28717434
 0.37982196, 0.21678335
 0.26409496, 0.27185586
 0.29376855, 0.31864917
 0.09792285, 0.26504277
 0.12166172, 0.19969
 0.115727, 0.12466048
 0.09495549, 0.1252869
 0.08308605, 0.11904107
 0.08605341, 0.09857495
 0.07715134, 0.09855086
 0.0652819, 0.09752445
 0.10682493, 0.09462866
 0.16913947, 0.10399466
 0.13946588, 0.14729233
 0.1305638, 0.15201098
 0.30860534, 0.13950586
 0.38278932, 0.21425653
 0.4421365, 0.34932661
 0.64391691, 0.41921382
 0.43323442, 0.54386406
 0.53115727, 0.54089659
 0.39762611, 0.48141103
 0.47181009, 0.47418036
 0.18991098, 0.44493742
 0.15133531, 0.3341556
 0.15727003, 0.15861639
 0.23442136, 0.15307657
 0.10682493, 0.19437653
 0.17210682, 0.17903167
 0.07715134, 0.1478169
 0.12759644, 0.14689315
 0.15727003, 0.12803149
 0.13946588, 0.1464171
 0.18694362, 0.14899556
 0.05637982, 0.15435332
 0.2611276, 0.14734587
 0.11275964, 0.19276362
 0.14836795, 0.19324689
 0.13353116, 0.14148105
 0.22848665, 0.14440326
 0.30860534, 0.17963782
 0.35311573, 0.2617316
 0.12759644, 0.3429792
 0.25222552, 0.24359218
 0.34124629, 0.19209226
 0.29673591, 0.29601243
 0.27596439, 0.33369006
 0.13946588, 0.27328856
 0.38575668, 0.20495319
 0.34421365, 0.25596548
 0.14836795, 0.3557277
 0.04747774, 0.24650932
 0.07121662, 0.13574092
 0.08011869, 0.08926749
 0.07418398, 0.09622437
 0.08011869, 0.09684741
 0.08902077, 0.09684741
 0.05341246, 0.0981624
 0.11869436, 0.09158572
 0.22848665, 0.11349412
 0.16320475, 0.17636998
 0.22551929, 0.19381921
 0.19287834, 0.19137576
 0.25519288, 0.21862573
 0.34421365, 0.2352906
 0.27299703, 0.29963177
 0.3620178, 0.31201515
 0.35905045, 0.3200978
 0.1810089, 0.35805937
 0.18694362, 0.27269482
 0.25816024, 0.17724692
 0.24925816, 0.23039944
 0.09792285, 0.25250976
 0.17210682, 0.18710078
 0.08308605, 0.14759103
 0.06231454, 0.14719393
 0.17507418, 0.09398172
 0.12462908, 0.14634176
 0.1958457, 0.14995427
 0.12166172, 0.15175287
 0.07418398, 0.15130054
 0.04747774, 0.12239738
 0.05934718, 0.08941669
 0.08902077, 0.08836111
 0.18694362, 0.09330773
 0.13649852, 0.14927289
 0.16023739, 0.15364563
 0.17804154, 0.14921545
 0.20771513, 0.16162212
 0.3620178, 0.18505755
 0.43026706, 0.29306524
 0.32344214, 0.39442206
 0.36795252, 0.37847656
 0.3620178, 0.34851675
 0.26706231, 0.36105062
 0.19881306, 0.31592711
 0.23738872, 0.24528314
 0.115727, 0.23414488
 0.11275964, 0.18169558
 0.05637982, 0.11951855
 0.0652819, 0.10832041
 0.09792285, 0.09158054
 0.04451039, 0.09489315
 0.02670623, 0.08925706
 0.0652819, 0.08042915
 0.09792285, 0.08394574
 0.1305638, 0.09489315
 0.13353116, 0.13146404
 0.1305638, 0.13589664
 0.13946588, 0.13589664
 0.12462908, 0.13950586
 0.22848665, 0.138592
 0.37388724, 0.17746391
 0.5578635, 0.30061518
 0.38575668, 0.46684864
 0.30267062, 0.4763544
 0.33827893, 0.34941843
 0.31454006, 0.33624382
 0.29376855, 0.33680246
 0.33827893, 0.3096493
 0.10979228, 0.32848422
 0.09495549, 0.23332846
 0.19287834, 0.11273963
 0.27893175, 0.14972776
 0.06231454, 0.24106816
 0.05341246, 0.19812759
 0.09495549, 0.09044569
 0.10979228, 0.09164585
 0.01186944, 0.11273963
 0.06231454, 0.09557057
 0.07418398, 0.08170845
 0.17804154, 0.09375164
 0.23145401, 0.14765913
 0.14836795, 0.20789852
 0.13946588, 0.18739381
 0.53115727, 0.14579291
 0.41543027, 0.33598538
 0.41246291, 0.47778212
 0.41246291, 0.41920186
 0.29970326, 0.41609852
 0.64688427, 0.36216356
 0.17210682, 0.49242184
 0.09495549, 0.41260886
 0.25222552, 0.14754738
 0.2611276, 0.18849117
 0.3115727, 0.25461566
 0.21364985, 0.27712334
 0.07715134, 0.26241548
 0.08308605, 0.16309391
 0.10385757, 0.09750233
 0.06231454, 0.10395558
 0.04451039, 0.09939229
 0.10089021, 0.08774349
 0.13649852, 0.09046563
 0.0504451, 0.13516859
 0.11869436, 0.12788309
 0.32937685, 0.11254125
 0.38575668, 0.22900823
 0.50148368, 0.35195546
 0.31454006, 0.43757623
 0.29673591, 0.40290494
 0.29970326, 0.31353119
 0.29376855, 0.29541535
 0.24925816, 0.29149204
 0.45103858, 0.25790072
 0.20178042, 0.35011873
 0.1958457, 0.33937855
 0.20771513, 0.19674523
 0.0652819, 0.20463259
 0.23442136, 0.15701057
 0.11869436, 0.17846242
 0.10682493, 0.18022533
 0.09198813, 0.12223284
 0.08011869, 0.10892494
 0.12759644, 0.09817135
 0.15727003, 0.1283768
 0.12759644, 0.1464171
 0.26706231, 0.1464171
 0.25222552, 0.19830482
 0.20771513, 0.2559947
 0.11869436, 0.24265182
 0.11869436, 0.15923143
 0.15430267, 0.12279806
 0.18397626, 0.1441705
 0.15133531, 0.15942185
 0.46587537, 0.15811124
 0.52225519, 0.30536902
 0.45994065, 0.49046339
 0.28189911, 0.48648531
 0.19881306, 0.37383888
 0.29673591, 0.2477002
 0.12462908, 0.24862389
 0.32344214, 0.20299896
 0.43026706, 0.22587636
 0.15430267, 0.37847656
 0.14243323, 0.29158775
 0.05637982, 0.14891744
 0.02077151, 0.13463039
 0.04747774, 0.08184606
 0.04747774, 0.0801392
 0.0504451, 0.08673673
 0.11869436, 0.08731378
 0.08902077, 0.11254125
 0.0504451, 0.12170194
 0.12759644, 0.09075579
 0.09198813, 0.12061647
 0.19881306, 0.12917415
 0.29970326, 0.14985884
 0.49554896, 0.24871049
 0.42433234, 0.39942955
 0.31750742, 0.45169877
 0.37982196, 0.37323401
 0.35014837, 0.34975045
 0.28783383, 0.35722894
 0.08902077, 0.32814145
 0.11869436, 0.19918649
 0.32344214, 0.12170194
 0.11869436, 0.22463338
 0.13946588, 0.22463338
 0.03560831, 0.13782326
 0.04154303, 0.12543917
 0.0504451, 0.08167713
 0.06231454, 0.085429
 0.01780415, 0.08952039
 0.06824926, 0.08231252
 0.04154303, 0.08296219
 0.03857567, 0.08740338
 0.18694362, 0.08246875
 0.1810089, 0.14580943
 0.09495549, 0.17724692
 0.16023739, 0.14885042
 0.23145401, 0.14494404
 0.38278932, 0.1940726
 0.43323442, 0.30348238
 0.29080119, 0.41356933
 0.3768546, 0.36838107
 0.35311573, 0.33859686
 0.18991098, 0.3580866
 0.18694362, 0.27805518
 0.16320475, 0.18337395
 0.21661721, 0.16417917
 0.05934718, 0.18345958
 0.0504451, 0.1651024
 0.12759644, 0.08927866
 0.07418398, 0.12061647
 0.05637982, 0.12767712
 0.03560831, 0.09202271
 0.09198813, 0.08472358
 0.04747774, 0.0871184
 0.07418398, 0.08998948
 0.09495549, 0.08941669
 0.08308605, 0.09695336
 0.09792285, 0.09857495
 0.115727, 0.09857913
 0.10682493, 0.11914068
 0.21068249, 0.11932422
 0.22848665, 0.16115452
 0.31750742, 0.23033291
 0.47774481, 0.26982427
 0.46587537, 0.39904681
 0.39762611, 0.46492685
 0.28783383, 0.4436738
 0.19287834, 0.33769359
 0.44807122, 0.24201373
 0.23738872, 0.32964579
 0.1810089, 0.3442397
 0.18397626, 0.21464415
 0.115727, 0.17707259
 0.0652819, 0.14997374
 0.07121662, 0.11411634
 0.05341246, 0.09446562
 0.0504451, 0.09100346
 0.02077151, 0.088645
 0.03857567, 0.08085871
 0.04747774, 0.07741232
 0.11869436, 0.08395488
 0.14243323, 0.11160815
 0.10979228, 0.13929762
 0.21661721, 0.13856723
 0.30267062, 0.16638071
 0.29376855, 0.25376495
 0.40949555, 0.2952472
 0.34124629, 0.35327869
 0.37388724, 0.36598467
 0.40652819, 0.35333681
 0.17507418, 0.38016862
 0.15727003, 0.28338271
 0.29673591, 0.15973607
 0.10682493, 0.21623909
 0.20771513, 0.20017833
 0.1810089, 0.15827535
 0.26706231, 0.18773091
 0.20178042, 0.22778753
 0.115727, 0.24667869
 0.10385757, 0.15272701
 0.05934718, 0.1192745
 0.14540059, 0.09859773
 0.23145401, 0.13683981
 0.10979228, 0.18606449
 0.19881306, 0.17731027
 0.1305638, 0.15024742
 0.16320475, 0.15280263
 0.21958457, 0.1485637
 0.15430267, 0.18631163
 0.28189911, 0.18107696
 0.35311573, 0.2133005
 0.44510386, 0.32380535
 0.40652819, 0.39890928
 0.22551929, 0.4397083
 0.32344214, 0.31073508
 0.46884273, 0.27395283
 0.18991098, 0.39789528
 0.18694362, 0.33349732
 0.08902077, 0.18337395
 0.05341246, 0.14927289
 0.16913947, 0.09158572
 0.10089021, 0.14446558
 0.10682493, 0.14712255
 0.03857567, 0.10927162
 0.07418398, 0.09642955
 0.06824926, 0.08705975
 0.12462908, 0.09536194
 0.115727, 0.12368322
 0.115727, 0.12771395
 0.10385757, 0.1196723
 0.07715134, 0.1192745
 0.13649852, 0.10292403
 0.31454006, 0.13399799
 0.19881306, 0.22184773
 0.27893175, 0.26299516
 0.47774481, 0.24736364
 0.45697329, 0.3764485
 0.53115727, 0.45998666
 0.31454006, 0.49187999
 0.43620178, 0.42960962
 0.34124629, 0.38081523
 0.17804154, 0.38741483
 0.15727003, 0.26223173
 0.1305638, 0.16016975
 0.14540059, 0.14692069
 0.14243323, 0.14240302
 0.1305638, 0.14533473
 0.1305638, 0.14100683
 0.02077151, 0.13395945
 0.08902077, 0.1155235
 0.10385757, 0.08452991
 0.09792285, 0.10477789
 0.05341246, 0.10529434
 0.09495549, 0.09166823
 0.10979228, 0.09164585
 0.13649852, 0.11273963
 0.20178042, 0.13539961
 0.115727, 0.15622941
 0.43026706, 0.15272701
 0.26409496, 0.28210121
 0.2611276, 0.34665098
 0.54302671, 0.25967574
 0.56083086, 0.40206309
 0.34718101, 0.5511734
 0.05934718, 0.45313482
 0.10979228, 0.23945545
 0.115727, 0.10600997
 0.14243323, 0.11937419
 0.08308605, 0.13904723
 0.04154303, 0.13769808
 0.04154303, 0.08819894
 0.03560831, 0.08336079
 0.08308605, 0.08167713
 0.04451039, 0.08686481
 0.17804154, 0.08898185
 0.10682493, 0.14527036
 0.10089021, 0.14873132
 0.16913947, 0.10927162
 0.17210682, 0.14712255
 0.19287834, 0.16624499
 0.18991098, 0.17022632
 0.1810089, 0.18663321
 0.30860534, 0.17741862
 0.56083086, 0.24094383
 0.36795252, 0.44349371
 0.25519288, 0.46395212
 0.15430267, 0.31058956
 0.15133531, 0.20512789
 0.14540059, 0.152094
 0.13649852, 0.14887308
 0.09792285, 0.14373903
 0.08605341, 0.13509881
 0.18694362, 0.09897974
 0.22255193, 0.14916174
 0.02967359, 0.20939761
 0.06231454, 0.16937402
 0.05934718, 0.08412965
 0.02967359, 0.09237522
 0.05934718, 0.08379273
 0.04154303, 0.08379273
 0.04747774, 0.08659971
 0.10089021, 0.08480726
 0.14243323, 0.09125762
 0.40059347, 0.13832604
 0.29673591, 0.25883168
 0.17804154, 0.34715687
 0.22551929, 0.22959806
 0.20474777, 0.20312357
 0.21068249, 0.22790935
 0.1958457, 0.213993
 0.43916914, 0.20821317
 0.13649852, 0.32858708
 0.15133531, 0.29062402
 0.06824926, 0.14627713
 0.05637982, 0.14048695
 0.09198813, 0.09175647
 0.13353116, 0.09247035
 0.115727, 0.13318065
 0.20474777, 0.13406451
 0.15430267, 0.15587909
 0.10089021, 0.16592798
 0.05934718, 0.14315967
 0.14540059, 0.09461943
 0.07418398, 0.13683981
 0.10979228, 0.13841876
 0.13353116, 0.10985357
 0.14243323, 0.13361764
 0.37982196, 0.14165723
 0.32937685, 0.25628821
 0.13649852, 0.35141762
 0.14243323, 0.23351261
 0.14243323, 0.14232859
 0.0148368, 0.14390972
 0.06231454, 0.12356067
 0.12166172, 0.08200926
 0.02077151, 0.11919935
 0.18991098, 0.10807727
 0.03857567, 0.14476866
 0.07715134, 0.14611773
 0.07121662, 0.08723106
 0.07715134, 0.09616856
 0.06231454, 0.09616856
 0.16617211, 0.09384274
 0.12462908, 0.14454893
 0.06231454, 0.14829147
 0.15430267, 0.12192781
 0.16320475, 0.14097723
 0.03857567, 0.15605434
 0.08902077, 0.14134594
 0.12462908, 0.08768494
 0.13649852, 0.12675187
 0.28189911, 0.13685038
 0.29970326, 0.20514764
 0.38872404, 0.2784569
 0.49851632, 0.34927814
 0.48961424, 0.43850126
 0.30563798, 0.48637416
 0.27893175, 0.39972326
 0.24925816, 0.28322512
 0.16320475, 0.25677402
 0.24925816, 0.20778107
 0.22848665, 0.20778107
 0.10979228, 0.2437692
 0.26706231, 0.17533643
 0.19881306, 0.19493663
 0.13353116, 0.24528314
 0.03560831, 0.15347382
 0.03560831, 0.12090704
 0.10089021, 0.07937338
 0.04747774, 0.08837299
 0.06231454, 0.09125762
 0.07418398, 0.08861999
 0.14243323, 0.09375164
 0.09495549, 0.13699718
 0.11869436, 0.13819855
 0.38872404, 0.12194622
 0.51928783, 0.25103471
 0.41839763, 0.45679668
 0.36795252, 0.46954676
 0.29673591, 0.38841742
 0.18694362, 0.34318323
 0.49851632, 0.23689056
 0.23442136, 0.33329982
 0.15133531, 0.35537345
 0.14243323, 0.19092739
 0.1958457, 0.1478918
 0.44510386, 0.15568257
 0.38575668, 0.33159126
 0.29376855, 0.42363887
 0.20771513, 0.34272367
 0.08902077, 0.25004273
 0.10385757, 0.15792259
 0.1305638, 0.10477789
 0.05934718, 0.1316093
 0.04154303, 0.1262528
 0.2462908, 0.08659971
 0.37388724, 0.18584385
 0.27596439, 0.30756975
 0.21068249, 0.32548868
 0.29376855, 0.24856564
 0.29080119, 0.25016793
 0.30267062, 0.28771522
 0.41543027, 0.29151821
 0.35311573, 0.36512524
 0.43620178, 0.37658044
 0.47477745, 0.39316831
 0.26409496, 0.45217029
 0.10979228, 0.36558196
 0.08308605, 0.19389295
 0.13946588, 0.11156233
 0.23145401, 0.13621144
 0.08308605, 0.18357294
 0.09495549, 0.17679283
 0.02077151, 0.09857495
 0.06824926, 0.08462976
 0.09198813, 0.08330258
 0.09495549, 0.09563347
 0.04747774, 0.09961236
 0.03264095, 0.09001574
 0.02077151, 0.08245804
 0.09495549, 0.07463945
 0.17804154, 0.08462976
 0.115727, 0.14846419
 0.20474777, 0.14932424
 0.3264095, 0.15587909
 0.4272997, 0.27366781
 0.35608309, 0.37696892
 0.43026706, 0.3883912
 0.40949555, 0.39072369
 0.3264095, 0.43155576
 0.30267062, 0.36227388
 0.14243323, 0.32854858
 0.20178042, 0.21208767
 0.29970326, 0.15787674
 0.32937685, 0.25004244
 0.08902077, 0.33030671
 0.10979228, 0.22746644
 0.05341246, 0.11240638
 0.18694362, 0.10415005
 0.08011869, 0.14709827
 0.0652819, 0.1489377
 0.05934718, 0.0947054
 0.09198813, 0.09254021
 0.08308605, 0.09333839
 0.05934718, 0.09857076
 0.115727, 0.09319449
 0.1810089, 0.11242406
 0.14540059, 0.14970957
 0.24035608, 0.15570425
 0.45103858, 0.1919935
 0.35608309, 0.34655627
 0.31750742, 0.40417619
 0.21958457, 0.34465487
 0.30267062, 0.26817905
 0.44807122, 0.25404077
 0.23442136, 0.38659008
 0.20474777, 0.34331573
 0.24925816, 0.2340319
 0.05934718, 0.24148385
 0.0652819, 0.18713895
 0.18694362, 0.09254021
 0.15133531, 0.14802723
 0.15430267, 0.15836535
 0.06824926, 0.152094
 0.05934718, 0.14155536
 0.07121662, 0.09269822
 0.18991098, 0.09283225
 0.08011869, 0.1487043
 0.14540059, 0.14920199
 0.13649852, 0.13892135
 0.18397626, 0.14373903
 0.17804154, 0.15338552
 0.33531157, 0.17444588
 0.35608309, 0.2588396
 0.35014837, 0.34761583
 0.25222552, 0.35216302
 0.3620178, 0.30141233
 0.16320475, 0.30688442
 0.02373887, 0.26146826
 0.16023739, 0.13780156
 0.07715134, 0.13638916
 0.14836795, 0.1442159
 0.21364985, 0.14002431
 0.28486647, 0.17267788
 0.115727, 0.24986937
 0.03560831, 0.20009017
 0.10682493, 0.10537088
 0.06231454, 0.09577306
 0.09495549, 0.10320312
 0.14540059, 0.09412668
 0.05637982, 0.13956421
 0.06231454, 0.13644083
 0.16023739, 0.09139693
 0.18991098, 0.14303317
 0.23442136, 0.16271549
 0.21068249, 0.22158043
 0.18694362, 0.23421838
 0.38575668, 0.19738461
 0.16913947, 0.28482587
 0.1305638, 0.27061316
 0.09198813, 0.14993343
 0.19881306, 0.1313154
 0.17507418, 0.14985884
 0.25222552, 0.17263195
 0.46587537, 0.21780163
 0.34718101, 0.35692277
 0.09495549, 0.40562198
 0.02373887, 0.23754093
 0.06231454, 0.08506892
 0.07418398, 0.08314504
 0.08902077, 0.09375164
 0.10682493, 0.09692982
 0.07715134, 0.10868753
 0.05934718, 0.10680496
 0.08011869, 0.09303901
 0.13649852, 0.09313642
 0.26409496, 0.13428807
 0.20771513, 0.20022231
 0.15133531, 0.24616313
 0.15133531, 0.16792525
 0.17804154, 0.15106939
 0.25519288, 0.15747801
 0.37388724, 0.22139523
 0.18694362, 0.31215862
 0.27596439, 0.28256036
 0.34718101, 0.23489646
 0.35608309, 0.31603858
 0.30267062, 0.35110429
 0.27002967, 0.343796
 0.22255193, 0.27235822
 0.3620178, 0.2488462
 0.41543027, 0.29521807
 0.12759644, 0.38153068
 0.03560831, 0.27099354
 0.05637982, 0.11614142
 0.03560831, 0.08472358
 0.08011869, 0.08472358
 0.20771513, 0.08676275
 0.1305638, 0.15766809
 0.07121662, 0.16121773
 0.05637982, 0.12956762
 0.07418398, 0.09190579
 0.10979228, 0.09202271
 0.12462908, 0.10985357
 0.32047478, 0.12732421
 0.18991098, 0.22365243
 0.39762611, 0.25876728
 0.24925816, 0.28855849
 0.08605341, 0.31206179
 0.13649852, 0.18706648
 0.05637982, 0.13466895
 0.04154303, 0.13000403
 0.08902077, 0.08623095
 0.03560831, 0.08838162
 0.03857567, 0.08706428
 0.0148368, 0.08066084
 0.03857567, 0.07665195
 0.08011869, 0.07665195
 0.06231454, 0.08739526
 0.0652819, 0.09392982
 0.04747774, 0.0933964
 0.05341246, 0.08885326
 0.0652819, 0.08768322
 0.15727003, 0.09064684
 0.15430267, 0.14231127
 0.17507418, 0.15443097
 0.37982196, 0.15835642
 0.45994065, 0.27404173
 0.48071217, 0.42469442
 0.47477745, 0.46179558
 0.38278932, 0.47156681
 0.23442136, 0.43105431
 0.08011869, 0.30453764
 0.16023739, 0.17861033
 0.13353116, 0.14441669
 0.13353116, 0.1485233
 0.04747774, 0.13650751
 0.13946588, 0.12451508
 0.16617211, 0.12916208
 0.18991098, 0.15133607
 0.21068249, 0.1661885
 0.18397626, 0.20066908
 0.02077151, 0.1942545
 0.04154303, 0.1441104
 0.03560831, 0.07848793
 0.16913947, 0.08167713
 0.21068249, 0.14271492
 0.24925816, 0.18142471
 0.43026706, 0.24168838
 0.52225519, 0.33899925
 0.5727003, 0.47403854
 0.62611276, 0.54922259
 0.54599407, 0.59898625
 0.53412463, 0.58235602
 0.54599407, 0.54346816
 0.56083086, 0.54346816
 0.51632047, 0.55216238
 0.27299703, 0.54600401
 0.17804154, 0.3915002
 0.18991098, 0.22685985
 0.16023739, 0.1748221
 0.1958457, 0.16271549
 0.20178042, 0.16287905
 0.21958457, 0.19674523
 0.33531157, 0.22297962
 0.18397626, 0.28089166
 0.10385757, 0.2635974
 0.03857567, 0.14929532
 0.11275964, 0.09279393
 0.18397626, 0.10304822
 0.16913947, 0.14971261
 0.05934718, 0.16759976
 0.1810089, 0.14502556
 0.24332344, 0.14701703
 0.23145401, 0.21818947
 0.23442136, 0.24162586
 0.2462908, 0.2366425
 0.33234421, 0.2436715
 0.2462908, 0.28706454
 0.70029674, 0.28706454
 0.50445104, 0.44916876
 0.18991098, 0.60057045
 0.15430267, 0.34260765
 0.35608309, 0.15992124
 0.07121662, 0.25454545
 0.02670623, 0.24227241
 0.21364985, 0.08450173
 0.11869436, 0.1611141
 0.08011869, 0.16476327
 0.05934718, 0.12083156
 0.14540059, 0.09313642
 0.16320475, 0.13683981
 0.115727, 0.15253017
 0.1305638, 0.14651835
 0.23442136, 0.13218596
 0.22551929, 0.18269544
 0.23145401, 0.23570731
 0.09495549, 0.23382038
 0.0652819, 0.1768995
 0.28783383, 0.0948788
 0.43323442, 0.19953113
 0.38278932, 0.36567438
 0.26706231, 0.41356933
 0.18397626, 0.32088522
 0.54896142, 0.23037452
 0.35608309, 0.37364289
 0.16913947, 0.45247404
 0.13353116, 0.26281584
 0.16617211, 0.15060725
 0.09495549, 0.1499316
 0.12166172, 0.14634664
 0.15430267, 0.12457249
 0.08308605, 0.14453282
 0.11275964, 0.14262481
 0.1305638, 0.11492481
 0.10979228, 0.1319634
 0.08605341, 0.13175406
 0.0504451, 0.11198265
 0.0504451, 0.09068106
 0.07418398, 0.08829922
 0.08902077, 0.09026335
 0.10385757, 0.09692982
 0.16913947, 0.10477789
 0.24035608, 0.14720729
 0.24035608, 0.20673472
 0.26409496, 0.24222488
 0.46290801, 0.25109482
 0.37091988, 0.36228122
 0.41246291, 0.41882712
 0.26409496, 0.3846033
 0.32344214, 0.33297824
 0.16320475, 0.29024376
 0.08605341, 0.24134656
 0.03857567, 0.14540333
 0.14836795, 0.08758987
 0.13649852, 0.13265224
 0.04154303, 0.14508738
 0.08308605, 0.12485421
 0.40356083, 0.08819894
 0.35608309, 0.2553733
 0.2611276, 0.3653691
 0.04451039, 0.30964154
 0.0504451, 0.19333548
 0.07715134, 0.08635747
 0.0652819, 0.09039852
 0.11275964, 0.09462866
 0.10979228, 0.11094533
 0.21958457, 0.11630475
 0.20771513, 0.16886016
 0.35014837, 0.22309441
 0.39465875, 0.28790587
 0.29376855, 0.35824722
 0.26409496, 0.34327676
 0.17507418, 0.26504277
 0.29080119, 0.22229764
 0.23145401, 0.22722656
 0.25519288, 0.2527727
 0.26409496, 0.24643685
 0.04154303, 0.25667508
 0.08308605, 0.19465812
 0.18991098, 0.08819894
 0.30563798, 0.14931304
 0.11275964, 0.24553805
 0.14243323, 0.20735205
 0.03264095, 0.13880002
 0.04747774, 0.12679273
 0.09198813, 0.08245804
 0.10089021, 0.08998948
 0.15133531, 0.10089283
 0.09198813, 0.14215513
 0.16617211, 0.14198544
 0.17210682, 0.14630082
 0.12759644, 0.16432983
 0.24035608, 0.14995342
 0.26409496, 0.18570996
 0.24925816, 0.25109482
 0.08605341, 0.25407129
 0.1958457, 0.18706648
 0.05934718, 0.14960171
 0.0652819, 0.14806269
 0.02967359, 0.09254021
 0.09792285, 0.08443409
 0.14836795, 0.08599813
 0.08308605, 0.14093099
 0.09198813, 0.14041833
 0.11275964, 0.09857076
 0.10682493, 0.11587614
 0.01780415, 0.11626158
 0.20178042, 0.0927596
 0.45400593, 0.14724482
 0.26409496, 0.34055357
 0.21068249, 0.35894584
 0.13353116, 0.24628761
 0.09198813, 0.16496835
 0.23145401, 0.13318065
 0.37388724, 0.17688454
 0.28189911, 0.30153487
 0.21958457, 0.33012219
 0.23442136, 0.25013271
 0.25519288, 0.2349184
 0.19287834, 0.24711336
 0.18991098, 0.2352906
 0.1958457, 0.18663321
 0.15133531, 0.18666937
 0.01780415, 0.15878703
 0.1305638, 0.12995452
 0.10979228, 0.1151406
 0.17507418, 0.13175406
 0.1810089, 0.14836365
 0.23738872, 0.17182406
 0.15133531, 0.21464415
 0.13353116, 0.19295974
 0.12166172, 0.1455892
 0.14836795, 0.13462372
 0.07121662, 0.14234888
 0.10089021, 0.13953745
 0.05341246, 0.0976251
 0.10089021, 0.09289836
 0.29080119, 0.09289836
 0.3620178, 0.19958438
 0.3620178, 0.33531548
 0.29080119, 0.35973932
 0.27002967, 0.33531548
 0.21068249, 0.26864567
 0.22255193, 0.24763958
 0.09792285, 0.22570304
 0.10385757, 0.1706999
 0.39465875, 0.10529434
 0.25816024, 0.24992756
 0.05341246, 0.31662932
 0.04747774, 0.19157863
 0.18694362, 0.08768322
 0.33234421, 0.14659061
 0.09198813, 0.26436261
 0.05341246, 0.22933198
 0.10979228, 0.09162334
 0.0504451, 0.10415005
 0., 0.10325085
 0.115727, 0.07924979
 0.09792285, 0.10101307
 0.07418398, 0.11914068
 0.08902077, 0.09696212
 0.20771513, 0.09692982
 0.30267062, 0.15792259
 0.35608309, 0.25309114
 0.28189911, 0.343796
 0.47477745, 0.32500131
 0.38575668, 0.37823731
 0.05637982, 0.43363304
 0.12462908, 0.25196513
 0.17804154, 0.12000255
 0.15430267, 0.15040784
 0.21068249, 0.1587955
 0.05934718, 0.17257238
 0.05637982, 0.15973209
 0.02670623, 0.09119279
 0.02967359, 0.08285169
 0.07418398, 0.07423047
 0.04747774, 0.08517281
 0.06824926, 0.08941669
 0.02373887, 0.08907716
 0.0652819, 0.08377112
 0.0652819, 0.083464
 0.04747774, 0.09423499
 0.06231454, 0.08885326
 0.17804154, 0.08861999
 0.25519288, 0.14683068
 0.21958457, 0.22139523
 0.18694362, 0.24454535
 0.25519288, 0.20674173
 0.11275964, 0.22927844
 0.23145401, 0.19066543
 0.26706231, 0.17764741
 0.10682493, 0.24966264
 0.27893175, 0.1947953
 0.08605341, 0.19806759
 0.07418398, 0.19775202
 0.06231454, 0.09690284
 0.09198813, 0.09375164
 0.06231454, 0.0941103
 0.09792285, 0.0941103
 0.08902077, 0.09414297
 0.0504451, 0.09938391
 0.07121662, 0.09075579
 0.10682493, 0.09012432
 0.24332344, 0.10553912
 0.10682493, 0.18422959
 0.32047478, 0.18422959
 0.2462908, 0.22104786
 0.21958457, 0.27803647
 0.24035608, 0.24115098
 0.3620178, 0.23837457
 0.35311573, 0.30093464
 0.20771513, 0.35523058
 0.24332344, 0.28924635
 0.25222552, 0.2389259
 0.31750742, 0.24849414
 0.34718101, 0.27807303
 0.32047478, 0.34136772
 0.26706231, 0.34165283
 0.35905045, 0.28975374
 0.21364985, 0.31486838
 0.26706231, 0.29254206
 0.17210682, 0.24723154
 0.24332344, 0.22097836
 0.08605341, 0.21079386
 0.12166172, 0.18388437
 0.10682493, 0.12409218
 0.05637982, 0.12486142
 0.04747774, 0.10146995
 0.03264095, 0.08803176
 0.08011869, 0.08245804
 0.12166172, 0.08614161
 0.13649852, 0.12358541
 0.16320475, 0.13643514
 0.44510386, 0.14992968
 0.43916914, 0.30424818
 0.42136499, 0.44422936
 0.48367953, 0.43795508
 0.43620178, 0.45053349
 0.13649852, 0.45328954
 0.10089021, 0.28883966
 0.1958457, 0.13516859
 0.20178042, 0.14990647
 0.03264095, 0.19674523
 0.13946588, 0.14818423
 0.29970326, 0.12465836
 0.18991098, 0.20779938
 0.19287834, 0.23958545
 0.0504451, 0.18663321
 0.07418398, 0.14724186
 0.09495549, 0.09026335
 0.13946588, 0.09695336
 0.06231454, 0.1367363
 0.14243323, 0.13411034
 0.12166172, 0.13570522
 0.10979228, 0.13964677
 0.09198813, 0.12492255
 0.13649852, 0.1126258
 0.19881306, 0.13496457
 0.16617211, 0.1541623
 0.24332344, 0.16641811
 0.3264095, 0.20639839
 0.35905045, 0.28145291
 0.37091988, 0.34680343
 0.21661721, 0.3599749
 0.21068249, 0.29718047
 0.28486647, 0.2203039
 0.33827893, 0.24961014
 0.28486647, 0.31895012
 0.28486647, 0.31895012
 0.35014837, 0.28096669
 0.22848665, 0.32532048
 0.21661721, 0.29133113
 0.15727003, 0.23076323
 0.05934718, 0.17989714
 0.00890208, 0.14174206
 0.07121662, 0.08110256
 0.10385757, 0.08243586
 0.02373887, 0.10168026
 0.14243323, 0.08999748
 0.16320475, 0.12488203
 0.15430267, 0.1515495
 0.115727, 0.15605434
 0.16913947, 0.14391036
 0.59050445, 0.1478841
 0.17804154, 0.36489076
 0.36498516, 0.37291519
 0.25222552, 0.2723763
 0.09792285, 0.30791725
 0.0504451, 0.18849724
 0.0148368, 0.09084536
 0.04154303, 0.08015539
 0.06231454, 0.07774102
 0.0504451, 0.08688996
 0.02077151, 0.08952039
 0.09198813, 0.08085871
 0.24332344, 0.08459237
 0.15727003, 0.18391557
 0.08011869, 0.20037181
 0.16320475, 0.14347336
 0.10385757, 0.14514163
 0.08011869, 0.14584386
 0.12759644, 0.10354963
 0.09495549, 0.1283768
 0.16617211, 0.12925279
 0.27893175, 0.14634664
 0.43620178, 0.21976167
 0.3620178, 0.36000955
 0.32937685, 0.39872703
 0.05934718, 0.34805597
 0.05637982, 0.22897556
 0.15430267, 0.09119279
 0.05934718, 0.14033326
 0.02967359, 0.14067333
 0.02373887, 0.08379273
 0.01780415, 0.07363533
 0.04451039, 0.06831378
 0.05637982, 0.0789477
 0.04451039, 0.08711879
 0.04747774, 0.08711879
 0.02967359, 0.08575727
 0.11275964, 0.08175281
 0.10385757, 0.10104242
 0.08011869, 0.11621864
 0.08308605, 0.10354963
 0.14540059, 0.09812933
 0.07418398, 0.13908626
 0.13649852, 0.13841876
 0.16320475, 0.1337006
 0.12759644, 0.14992968
 0.30563798, 0.14805844
 0.43026706, 0.21026335
 0.32937685, 0.37640653
 0.29376855, 0.37971924
 0.34421365, 0.32273247
 0.30563798, 0.33163003
 0.1958457, 0.33927907
 0.15727003, 0.25153362
 0.52225519, 0.16144704
 0.52225519, 0.33559839
 0.20771513, 0.52631232
 0.21958457, 0.37556415
 0.27002967, 0.22309441
 0.13353116, 0.24842426
 0.04747774, 0.20130181
 0.1305638, 0.12451508
 0.06231454, 0.12214555
 0.07418398, 0.12717564
 0.0504451, 0.09375164
 0.15430267, 0.09026335
 0.2462908, 0.1396339
 0.25519288, 0.20036471
 0.33234421, 0.25050195
 0.45697329, 0.29168122
 0.5578635, 0.39573134
 0.79228487, 0.50793865
 0.89614243, 0.66466384
 0.72106825, 0.84181989
 0.64094955, 0.80207819
 0.54896142, 0.67635093
 0.35905045, 0.59403662
 0.25222552, 0.45393456
 0.12166172, 0.30573039
 0.06231454, 0.19069209
 0.13353116, 0.11919935
 0.12759644, 0.12962869
 0.14540059, 0.13544086
 0.09198813, 0.14191107
 0.21958457, 0.13950578
 0.12759644, 0.16844731
 0.09198813, 0.1714273
 0.13353116, 0.12917415
 0.0652819, 0.13318065
 0.11275964, 0.13053602
 0.0504451, 0.11094533
 0.11275964, 0.10646255
 0.21958457, 0.10646255
 0.4272997, 0.16916956
 0.22255193, 0.32761206
 0.30563798, 0.32824971
 0.4421365, 0.25763746
 0.43323442, 0.38354246
 0.40949555, 0.44144749
 0.23442136, 0.43342755
 0.115727, 0.31649972
 0.13649852, 0.17985835
 0.21661721, 0.13585973
 0.14836795, 0.17114638
 0.03560831, 0.17544798
 0.02967359, 0.13181896
 0.18991098, 0.07781331
 0.1958457, 0.14538622
 0.30267062, 0.18666937
 0.14836795, 0.24844377
 0.13946588, 0.21472658
 0.12166172, 0.14579291
 0.04154303, 0.13816671
 0.115727, 0.11255451
 0.05637982, 0.10685843
 0.13946588, 0.11144596
 0.12462908, 0.13236066
 0.20474777, 0.138592
 0.32937685, 0.15704102
 0.32344214, 0.27576801
 0.31454006, 0.33212229
 0.14836795, 0.32667876
 0.08605341, 0.22655236
 0.17507418, 0.1405749
 0.18397626, 0.14778152
 0.12759644, 0.17202945
 0.05934718, 0.15151802
 0.10089021, 0.12368206
 0.06231454, 0.09461943
 0.04154303, 0.09539298
 0.08308605, 0.08688996
 0.10979228, 0.08819894
 0.15727003, 0.11156233
 0.06231454, 0.14438245
 0.04154303, 0.14203264
 0.08902077, 0.08688996
 0.10682493, 0.08838162
 0.10979228, 0.10868753
 0.05637982, 0.11301333
 0.0652819, 0.10506952
 0.15430267, 0.09158054
 0.10979228, 0.14126833
 0.16617211, 0.14341097
 0.29673591, 0.14670438
 0.4272997, 0.22147703
 0.39762611, 0.37062264
