\relax 
\catcode `"\active 
\catcode `<\active 
\catcode `>\active 
\@nameuse{es@quoting}
\select@language{spanish}
\@writefile{toc}{\select@language{spanish}}
\@writefile{lof}{\select@language{spanish}}
\@writefile{lot}{\select@language{spanish}}
\newlabel{Eq:ANN}{{1}{1}}
\@writefile{lof}{\contentsline {figure}{\numberline {1}{\ignorespaces Gr\'afica principal con puntos aleatorios}}{2}}
\newlabel{fig:datosImeca}{{1}{2}}
\@writefile{lof}{\contentsline {figure}{\numberline {2}{\ignorespaces Gr\'afica principal con puntos aleatorios}}{2}}
\newlabel{fig:datosImeca}{{2}{2}}
