Target,Output
0.122186495177,0.0871450930167
0.0450160771704,0.11358828112
0.0675241157556,0.148196620299
0.154340836013,0.117375126535
0.646302250804,0.102947993456
1.0,0.122986398576
0.848874598071,0.185681426612
0.729903536977,0.229945850657
0.697749196141,0.294882550492
0.588424437299,0.300029335765
0.51768488746,0.296804060924
0.398713826367,0.321607634164
0.565916398714,0.333970295025
0.627009646302,0.326141811588
0.630225080386,0.258302877945
0.578778135048,0.221084405246
0.443729903537,0.182110357005
0.221864951768,0.164055037498
0.0900321543408,0.157900142852
0.12540192926,0.156814398105
0.0707395498392,0.140437219368
0.0932475884244,0.12763604028
0.0771704180064,0.117870085288
0.102893890675,0.104489162347
0.141479099678,0.11177577795
0.128617363344,0.108270015552
0.147909967846,0.131995686515
0.32154340836,0.131227825911
0.565916398714,0.093519130395
0.553054662379,0.0932568743931
0.372990353698,0.112486222333
0.20578778135,0.113114259047
0.405144694534,0.119916116849
0.691318327974,0.143388046039
0.652733118971,0.127079104956
0.520900321543,0.201844888372
0.43729903537,0.251945162933
0.334405144695,0.277647197536
0.395498392283,0.289125462651
0.585209003215,0.306961391393
0.530546623794,0.316050022513
0.318327974277,0.318566404017
0.11575562701,0.252563379908
0.131832797428,0.21077904134
0.154340836013,0.183605534145
0.0450160771704,0.164657922132
0.122186495177,0.156113961718
0.170418006431,0.144884141705
0.0610932475884,0.101706379764
0.0450160771704,0.0729292239621
0.141479099678,0.105942476397
0.157556270096,0.141423679563
0.327974276527,0.112534886482
0.308681672026,0.124758871465
0.35691318328,0.123805646316
0.302250803859,0.0897939675907
0.421221864952,0.087848389917
0.543408360129,0.129473570145
0.48231511254,0.137437220355
0.215434083601,0.192734405035
0.118971061093,0.252643611141
0.128617363344,0.28779220777
0.08038585209,0.281883088905
0.218649517685,0.306710606445
0.151125401929,0.322410474065
0.109324758842,0.31838324825
0.08038585209,0.330092420649
0.0996784565916,0.266267516333
0.0546623794212,0.211217121339
0.112540192926,0.182980700587
0.0868167202572,0.179313040817
0.096463022508,0.157363592971
0.064308681672,0.0766052000298
0.0450160771704,0.0671919048346
0.128617363344,0.105720654065
0.254019292605,0.122767217765
0.199356913183,0.196873252489
0.221864951768,0.25878524686
0.369774919614,0.276466072877
0.350482315113,0.273794398811
0.270096463023,0.306242397886
0.331189710611,0.322350154299
0.228295819936,0.324546246365
0.308681672026,0.338798887612
0.176848874598,0.26716784778
0.299035369775,0.208422116876
0.318327974277,0.185070485746
0.128617363344,0.177320871198
0.0836012861736,0.156904897976
0.141479099678,0.153559676512
0.128617363344,0.146087295647
0.0514469453376,0.122605708173
0.0739549839228,0.111503453422
0.0192926045016,0.112066857006
0.0257234726688,0.108376376348
0.0418006430868,0.100293045963
0.0514469453376,0.0727370590913
0.032154340836,0.0961926313714
0.141479099678,0.076517802672
0.24115755627,0.0877525140545
0.176848874598,0.109724290867
0.244372990354,0.16327320466
0.202572347267,0.217396737476
0.228295819936,0.287823554504
0.234726688103,0.29912465239
0.24115755627,0.293539488848
0.221864951768,0.314318185398
0.369774919614,0.329128865002
0.376205787781,0.329057594493
0.151125401929,0.344531168861
0.0771704180064,0.266256552449
0.102893890675,0.207376715031
0.157556270096,0.184193455954
0.048231511254,0.174267614905
0.102893890675,0.158249428906
0.0450160771704,0.152981266286
0.0675241157556,0.143295101602
0.0546623794212,0.121470083781
0.11575562701,0.110975193503
0.0418006430868,0.111105830828
0.0,0.0864174873858
0.08038585209,0.0962589051035
0.118971061093,0.107009862602
0.176848874598,0.167869153796
0.244372990354,0.129025863416
0.228295819936,0.138470677322
0.237942122186,0.229277010314
0.215434083601,0.246592669659
0.186495176849,0.274158268136
0.144694533762,0.309000258746
0.163987138264,0.316430640115
0.299035369775,0.313798115446
0.40192926045,0.332494417405
0.209003215434,0.346898514646
0.112540192926,0.251098902137
0.0996784565916,0.212969775906
0.163987138264,0.195275142349
0.064308681672,0.168122754888
0.0836012861736,0.145563305629
0.0996784565916,0.161294675839
0.0353697749196,0.142721204652
0.118971061093,0.117785976695
0.12540192926,0.120648672955
0.08038585209,0.113149789262
0.173633440514,0.106096735132
0.192926045016,0.0976962748307
0.109324758842,0.12392823434
0.180064308682,0.173861515789
0.173633440514,0.21237654917
0.16077170418,0.205970324532
0.173633440514,0.262349991832
0.282958199357,0.275523890128
0.209003215434,0.293729556526
0.292604501608,0.322120623232
0.43729903537,0.32490681147
0.392282958199,0.330909086071
0.350482315113,0.259291260187
0.189710610932,0.20686176902
0.209003215434,0.175544430859
0.209003215434,0.169090024027
0.141479099678,0.157898000557
0.209003215434,0.152250848577
0.0418006430868,0.133690077001
0.064308681672,0.123336611989
0.0514469453376,0.118944281931
0.0450160771704,0.108573780913
0.0707395498392,0.106740398482
0.199356913183,0.102041954123
0.0675241157556,0.116970617711
0.0257234726688,0.0960224639223
0.112540192926,0.0741153818261
0.247588424437,0.0877963170778
0.270096463023,0.0968365311238
0.247588424437,0.109548707144
0.340836012862,0.187300560493
0.395498392283,0.250218414256
0.440514469453,0.265156472379
0.392282958199,0.283376492328
0.395498392283,0.322263515604
0.344051446945,0.315240802679
0.257234726688,0.32170716967
0.212218649518,0.339021509323
0.257234726688,0.339724613433
0.250803858521,0.250724825005
0.135048231511,0.217260260372
0.154340836013,0.194736644804
0.0707395498392,0.168784701665
0.048231511254,0.161313984396
0.0385852090032,0.15972117419
0.0675241157556,0.135253932214
0.16077170418,0.117082247193
0.109324758842,0.121433518955
0.032154340836,0.133751281373
0.0225080385852,0.130873382755
0.138263665595,0.103571407624
0.147909967846,0.102986854595
0.254019292605,0.103758726331
0.440514469453,0.115312415926
0.533762057878,0.0964304157084
0.588424437299,0.100555888502
0.771704180064,0.10689086615
0.848874598071,0.189644476267
0.717041800643,0.244345622153
0.498392282958,0.27238449991
0.40192926045,0.29551069443
0.266881028939,0.29924982938
0.508038585209,0.29930240595
0.360128617363,0.316993340199
0.141479099678,0.334642189452
0.102893890675,0.259412481606
0.144694533762,0.214809829611
0.112540192926,0.187218768879
0.0771704180064,0.168174839939
0.157556270096,0.152936698151
0.157556270096,0.156614890383
0.118971061093,0.144895479853
0.0900321543408,0.110800979533
0.0739549839228,0.234351964387
0.0996784565916,0.253742789391
0.209003215434,0.214460605723
0.273311897106,0.209695376909
0.24115755627,0.209849343297
0.266881028939,0.119873264098
0.292604501608,0.133183330465
0.254019292605,0.171740666186
0.270096463023,0.141470391509
0.418006430868,0.118804609713
0.382636655949,0.135414494735
0.254019292605,0.123303696249
0.144694533762,0.0923805768672
0.263665594855,0.116909497192
0.254019292605,0.115065639295
0.221864951768,0.0896734758289
0.12540192926,0.0946051258346
0.0900321543408,0.107462910523
0.16077170418,0.0912438552093
0.0514469453376,0.094594060914
0.016077170418,0.111422421701
0.0418006430868,0.18802376832
0.109324758842,0.227511780707
