\relax 
\citation{IEEEhowto:Observ}
\citation{IEEEhowto:Observ}
\citation{IEEEhowto:Observ}
\citation{IEEEhowto:HRR1}
\citation{IEEEhowto:HRR1}
\citation{IEEEhowto:HRR1}
\citation{IEEEhowto:Chang4}
\citation{IEEEhowto:COMIA3}
\citation{IEEEhowto:COMIA3,IEEEhowto:COMIA4}
\citation{IEEEhowto:COMIA6}
\citation{IEEEhowto:COMIA5}
\citation{IEEEhowto:COMIA4}
\@writefile{toc}{\contentsline {section}{\numberline {I}Introduction}{}}
\citation{IEEEhowto:Chang5,IEEEhowto:Chang6,IEEEhowto:Chang7}
\citation{IEEEhowto:Chang7}
\citation{IEEEhowto:COMIA7,IEEEhowto:COMIA8,IEEEhowto:COMIA9}
\citation{IEEEhowto:COMIA8,IEEEhowto:COMIA9,IEEEhowto:COMIA10}
\citation{IEEEhowto:COMIA8}
\citation{IEEEhowto:non-periodic}
\citation{IEEEhowto:chaos}
\citation{IEEEhowto:COMIA8}
\@writefile{toc}{\contentsline {section}{\numberline {II}Time Series Forecasting Methods}{}}
\@writefile{toc}{\contentsline {subsection}{\numberline {\unhbox \voidb@x \hbox {II-A}}Database Creation}{}}
\citation{IEEEhowto:Villada}
\citation{IEEEhowto:Villada}
\@writefile{lot}{\contentsline {table}{\numberline {I}{\ignorespaces Transformation the time series into a database.}}{}}
\newlabel{tab:Missreading-removals2}{{I}{}}
\@writefile{toc}{\contentsline {subsection}{\numberline {\unhbox \voidb@x \hbox {II-B}}Artificial Neural Networks}{}}
\@writefile{lof}{\contentsline {figure}{\numberline {1}{\ignorespaces ANN architecture with $m + 1$ past observations, $h$ hidden neurons and a single output ($\mathaccentV {hat}05E{y}_{t+1})$.}}{}}
\newlabel{fig:ANN architecture}{{1}{}}
\newlabel{Eq:RNA}{{1}{}}
\@writefile{toc}{\contentsline {subsection}{\numberline {\unhbox \voidb@x \hbox {II-C}}$k$ Nearest Neighbors}{}}
\newlabel{Eq:kNN}{{2}{}}
\newlabel{equation:eq1}{{3}{}}
\newlabel{Eq:ventana}{{4}{}}
\newlabel{Eq:knn5}{{5}{}}
\newlabel{Eq:knn6}{{6}{}}
\@writefile{toc}{\contentsline {subsection}{\numberline {\unhbox \voidb@x \hbox {II-D}}Compact Genetic Algorithm}{}}
\@writefile{toc}{\contentsline {section}{\numberline {III}Forecasting for Incomplete Time Series}{}}
\@writefile{loa}{\contentsline {algorithm}{\numberline {1}{\ignorespaces  Finding an optimal topology using cGA}}{}}
\newlabel{alg:GA}{{1}{}}
\@writefile{lof}{\contentsline {figure}{\numberline {2}{\ignorespaces Alternatives tried in this work to perform a forecast}}{}}
\newlabel{fig:fig_different_experiments}{{2}{}}
\@writefile{toc}{\contentsline {subsection}{\numberline {\unhbox \voidb@x \hbox {III-A}}Time series reconstruction}{}}
\@writefile{toc}{\contentsline {subsection}{\numberline {\unhbox \voidb@x \hbox {III-B}}Time Series Forecasting}{}}
\@writefile{lof}{\contentsline {figure}{\numberline {3}{\ignorespaces Flow diagram of the process of general reconstruction of missing values.}}{}}
\newlabel{fig:fig_reconstruction}{{3}{}}
\@writefile{toc}{\contentsline {subsubsection}{\numberline {\unhbox \voidb@x \hbox {III-B}1}kNN Model}{}}
\@writefile{toc}{\contentsline {subsubsection}{\numberline {\unhbox \voidb@x \hbox {III-B}2}ANN Model}{}}
\@writefile{toc}{\contentsline {section}{\numberline {IV}Results}{}}
\newlabel{Eq:MSE}{{7}{}}
\newlabel{Eq:MAPE}{{8}{}}
\@writefile{lot}{\contentsline {table}{\numberline {II}{\ignorespaces MSE in forescasting with ANN and kNN}}{}}
\newlabel{tab:mse}{{II}{}}
\@writefile{toc}{\contentsline {section}{\numberline {V}Conclusions}{}}
\bibcite{IEEEhowto:Observ}{1}
\bibcite{IEEEhowto:HRR1}{2}
\bibcite{ITSAF}{3}
\bibcite{IEEEhowto:Chang1}{4}
\bibcite{IEEEhowto:Chang2}{5}
\bibcite{IEEEhowto:Chang3}{6}
\bibcite{IEEEhowto:Chang4}{7}
\bibcite{IEEEhowto:COMIA3}{8}
\bibcite{IEEEhowto:COMIA4}{9}
\bibcite{IEEEhowto:COMIA5}{10}
\bibcite{IEEEhowto:COMIA6}{11}
\@writefile{lof}{\contentsline {figure}{\numberline {4}{\ignorespaces Forecasting result of La Palma. The plot shows a subset of the validation set, where the continuous line represent the real data, and the dotted one to the forecast.}}{}}
\newlabel{fig:fig_wind_lapalma}{{4}{}}
\@writefile{lof}{\contentsline {figure}{\numberline {5}{\ignorespaces Forecasting result of Cointzio. The plot shows a subset of the validation set, where the continuous line represent the real data, and the dotted one to the forecast.}}{}}
\newlabel{fig:fig_wind_cointzio}{{5}{}}
\@writefile{toc}{\contentsline {section}{References}{}}
\@writefile{lof}{\contentsline {figure}{\numberline {6}{\ignorespaces Forecasting result of Corrales. The plot shows a subset of the validation set, where the continuous line represent the real data, and the dotted one to the forecast.}}{}}
\newlabel{fig:fig_wind_corrales}{{6}{}}
\@writefile{lof}{\contentsline {figure}{\numberline {7}{\ignorespaces Forecasting result of Mal Pais. The plot shows a subset of the validation set, where the continuous line represent the real data, and the dotted one to the forecast.}}{}}
\newlabel{fig:fig_wind_malpais}{{7}{}}
\bibcite{IEEEhowto:Dabberdt}{12}
\bibcite{IEEEhowto:Chang5}{13}
\bibcite{IEEEhowto:Chang6}{14}
\bibcite{IEEEhowto:Chang7}{15}
\bibcite{IEEEhowto:COMIA7}{16}
\bibcite{IEEEhowto:COMIA8}{17}
\bibcite{IEEEhowto:COMIA9}{18}
\bibcite{IEEEhowto:Chang8}{19}
\bibcite{IEEEhowto:COMIA10}{20}
\bibcite{IEEEhowto:COMIA11}{21}
\bibcite{IEEEhowto:Villada}{22}
\bibcite{IEEEhowto:scikit-learn}{23}
\bibcite{IEEEhowto:non-periodic}{24}
\bibcite{IEEEhowto:chaos}{25}
\@writefile{lof}{\contentsline {figure}{\numberline {8}{\ignorespaces Forecasting result of El Fresno. The plot shows a subset of the validation set, where the continuous line represent the real data, and the dotted one to the forecast.}}{}}
\newlabel{fig:fig_wind_elfresno}{{8}{}}
