\relax 
\catcode `"\active 
\catcode `<\active 
\catcode `>\active 
\@nameuse{es@quoting}
\catcode `'\active 
\citation{cite01}
\select@language{spanish}
\@writefile{toc}{\select@language{spanish}}
\@writefile{lof}{\select@language{spanish}}
\@writefile{lot}{\select@language{spanish}}
\@writefile{toc}{\contentsline {section}{\numberline {1}Introducci\'on}{1}}
\citation{cite02}
\citation{cite05}
\citation{cite03}
\citation{cite03}
\citation{cite04}
\@writefile{toc}{\contentsline {section}{\numberline {2}Definici\'on del Problema}{2}}
\@writefile{lof}{\contentsline {figure}{\numberline {1}{\ignorespaces Arquitectura de RNA con $m$ neuronas de entrada, $h$ neuronas en su capa oculta y una \IeC {\'u}nica salida ($\mathaccentV {hat}05E{y}_{t})$.}}{3}}
\newlabel{fig:imagen1}{{1}{3}}
\@writefile{lof}{\contentsline {figure}{\numberline {2}{\ignorespaces Ejemplo de clasificaci\'on basada en la similaridad de los individuos KNN}}{3}}
\newlabel{fig:cnnknn}{{2}{3}}
\@writefile{toc}{\contentsline {section}{\numberline {3}Resultados Obtenidos}{4}}
\bibcite{cite01}{1}
\bibcite{cite02}{2}
\bibcite{cite03}{3}
\bibcite{cite04}{4}
\@writefile{toc}{\contentsline {section}{\numberline {4}Conclusiones}{6}}
\bibcite{cite05}{5}
